G04 #@! TF.GenerationSoftware,KiCad,Pcbnew,(5.1.2)-2*
G04 #@! TF.CreationDate,2019-08-10T14:10:06+10:00*
G04 #@! TF.ProjectId,Sensor_Board,53656e73-6f72-45f4-926f-6172642e6b69,rev?*
G04 #@! TF.SameCoordinates,Original*
G04 #@! TF.FileFunction,Copper,L1,Top*
G04 #@! TF.FilePolarity,Positive*
%FSLAX46Y46*%
G04 Gerber Fmt 4.6, Leading zero omitted, Abs format (unit mm)*
G04 Created by KiCad (PCBNEW (5.1.2)-2) date 2019-08-10 14:10:06*
%MOMM*%
%LPD*%
G04 APERTURE LIST*
%ADD10C,2.032000*%
%ADD11O,1.600000X1.600000*%
%ADD12C,1.600000*%
%ADD13R,7.340000X6.350000*%
%ADD14R,1.700000X1.700000*%
%ADD15O,1.700000X1.700000*%
%ADD16C,0.800000*%
%ADD17C,0.250000*%
%ADD18C,1.400000*%
%ADD19C,0.254000*%
G04 APERTURE END LIST*
D10*
X129230000Y-66350000D03*
X129230000Y-63850000D03*
X129230000Y-61350000D03*
X129230000Y-58850000D03*
X129230000Y-56350000D03*
X129230000Y-53850000D03*
X134230000Y-66350000D03*
X134230000Y-63850000D03*
X134230000Y-61350000D03*
X134230000Y-58850000D03*
X136730000Y-61350000D03*
X136730000Y-58850000D03*
X136730000Y-63850000D03*
X136730000Y-66350000D03*
X151130000Y-78148000D03*
X153630000Y-78148000D03*
X156130000Y-78148000D03*
X158630000Y-78148000D03*
X161130000Y-78148000D03*
X163630000Y-78148000D03*
X166130000Y-78148000D03*
X168630000Y-78148000D03*
X171130000Y-78148000D03*
X148630000Y-78148000D03*
X143630000Y-78148000D03*
X146130000Y-78148000D03*
X143630000Y-93648000D03*
X146130000Y-93648000D03*
X148630000Y-93648000D03*
X151130000Y-93648000D03*
X153630000Y-93648000D03*
X156130000Y-93648000D03*
X158630000Y-93648000D03*
X161130000Y-93648000D03*
X163630000Y-93648000D03*
X166130000Y-93648000D03*
X168630000Y-93648000D03*
X171130000Y-93648000D03*
X149860000Y-90648000D03*
X152400000Y-90648000D03*
X160020000Y-90648000D03*
X162560000Y-90648000D03*
X173630000Y-79759000D03*
X173630000Y-82259000D03*
X173630000Y-84759000D03*
X173630000Y-87259000D03*
X173630000Y-89759000D03*
X173630000Y-92259000D03*
D11*
X161290000Y-101600000D03*
D12*
X168910000Y-101600000D03*
X168910000Y-109220000D03*
D11*
X161290000Y-109220000D03*
D10*
X129540000Y-85090000D03*
X132080000Y-85090000D03*
X129540000Y-87630000D03*
X132080000Y-87630000D03*
X129540000Y-90170000D03*
X132080000Y-90170000D03*
X129540000Y-92710000D03*
X132080000Y-92710000D03*
X129540000Y-95250000D03*
X132080000Y-95250000D03*
X129540000Y-97790000D03*
X132080000Y-97790000D03*
X129540000Y-100330000D03*
X132080000Y-100330000D03*
X129540000Y-102870000D03*
X132080000Y-102870000D03*
D13*
X87670000Y-127000000D03*
X166330000Y-127000000D03*
D10*
X118110000Y-68580000D03*
X115570000Y-68580000D03*
X113030000Y-68580000D03*
X110490000Y-68580000D03*
X107950000Y-68580000D03*
X105410000Y-68580000D03*
X102870000Y-68580000D03*
X100330000Y-68580000D03*
X97790000Y-68580000D03*
X95250000Y-68580000D03*
D14*
X181610000Y-90170000D03*
D15*
X181610000Y-87630000D03*
X181610000Y-85090000D03*
X181610000Y-82550000D03*
X181610000Y-80010000D03*
D16*
X168910000Y-95250000D03*
X83820000Y-121920000D03*
X86360000Y-120650000D03*
X82550000Y-125730000D03*
X82550000Y-128270000D03*
X133350000Y-104140000D03*
X133350000Y-104140000D03*
X134620000Y-102870000D03*
X130810000Y-105410000D03*
X124460000Y-63500000D03*
X132080000Y-63500000D03*
X138430000Y-64770000D03*
X96520000Y-71120000D03*
X97790000Y-71120000D03*
X99060000Y-71120000D03*
X167640000Y-95250000D03*
X171450000Y-82550000D03*
X162560000Y-76200000D03*
X163830000Y-76200000D03*
X138430000Y-72390000D03*
X140970000Y-72390000D03*
X160020000Y-90648000D03*
D17*
X157614001Y-77132001D02*
X158630000Y-78148000D01*
X156682000Y-76200000D02*
X157614001Y-77132001D01*
X120650000Y-76200000D02*
X156682000Y-76200000D01*
X113030000Y-68580000D02*
X120650000Y-76200000D01*
X181610000Y-91270000D02*
X181610000Y-90170000D01*
X180621000Y-92259000D02*
X181610000Y-91270000D01*
X173630000Y-92259000D02*
X180621000Y-92259000D01*
X181008960Y-88170000D02*
X181610000Y-88170000D01*
X181408000Y-87170000D02*
X181610000Y-87170000D01*
X181279000Y-87299000D02*
X181408000Y-87170000D01*
X179481000Y-89759000D02*
X173630000Y-89759000D01*
X181610000Y-87630000D02*
X179481000Y-89759000D01*
X179441000Y-87259000D02*
X181610000Y-85090000D01*
X173630000Y-87259000D02*
X179441000Y-87259000D01*
D18*
X173630000Y-84759000D02*
X175591000Y-84759000D01*
X177800000Y-82550000D02*
X181610000Y-82550000D01*
X175591000Y-84759000D02*
X177800000Y-82550000D01*
D17*
X138430000Y-72390000D02*
X140970000Y-72390000D01*
X150114001Y-92632001D02*
X151130000Y-93648000D01*
X149859319Y-92632001D02*
X150114001Y-92632001D01*
X147397318Y-90170000D02*
X149859319Y-92632001D01*
X132080000Y-90170000D02*
X147397318Y-90170000D01*
X145114001Y-92632001D02*
X146130000Y-93648000D01*
X143922000Y-91440000D02*
X145114001Y-92632001D01*
X133350000Y-91440000D02*
X143922000Y-91440000D01*
X132080000Y-92710000D02*
X133350000Y-91440000D01*
X133682000Y-93648000D02*
X143630000Y-93648000D01*
X132080000Y-95250000D02*
X133682000Y-93648000D01*
D18*
X163630000Y-96320000D02*
X168910000Y-101600000D01*
X163630000Y-93648000D02*
X163630000Y-96320000D01*
X168910000Y-101600000D02*
X168910000Y-109220000D01*
D17*
X168910000Y-124420000D02*
X166330000Y-127000000D01*
D18*
X168910000Y-109220000D02*
X168910000Y-124420000D01*
X132080000Y-100330000D02*
X129540000Y-100330000D01*
X97480000Y-66350000D02*
X129230000Y-66350000D01*
X130666840Y-66350000D02*
X134230000Y-66350000D01*
D17*
X135666840Y-66350000D02*
X136730000Y-66350000D01*
D18*
X134230000Y-66350000D02*
X135666840Y-66350000D01*
X127000000Y-100330000D02*
X129540000Y-100330000D01*
X132080000Y-100330000D02*
X156948000Y-100330000D01*
D17*
X156948000Y-100330000D02*
X157480000Y-100330000D01*
D18*
X161490000Y-96320000D02*
X163630000Y-96320000D01*
X157480000Y-100330000D02*
X161490000Y-96320000D01*
X93980000Y-69850000D02*
X95250000Y-68580000D01*
X93980000Y-74930000D02*
X93980000Y-69850000D01*
X127000000Y-100330000D02*
X119380000Y-100330000D01*
X119380000Y-100330000D02*
X93980000Y-74930000D01*
D17*
X129230000Y-66350000D02*
X130666840Y-66350000D01*
D18*
X95250000Y-68580000D02*
X95250000Y-66040000D01*
D17*
X97170000Y-66040000D02*
X97480000Y-66350000D01*
D18*
X95250000Y-66040000D02*
X97170000Y-66040000D01*
D17*
X139332000Y-56350000D02*
X161130000Y-78148000D01*
X129230000Y-56350000D02*
X139332000Y-56350000D01*
D19*
G36*
X190373000Y-140844451D02*
G01*
X80137000Y-142111531D01*
X80137000Y-134767560D01*
X97040000Y-134767560D01*
X97040000Y-135232440D01*
X97130694Y-135688387D01*
X97308595Y-136117879D01*
X97566868Y-136504412D01*
X97895588Y-136833132D01*
X98282121Y-137091405D01*
X98711613Y-137269306D01*
X99167560Y-137360000D01*
X99632440Y-137360000D01*
X100088387Y-137269306D01*
X100517879Y-137091405D01*
X100904412Y-136833132D01*
X101233132Y-136504412D01*
X101491405Y-136117879D01*
X101669306Y-135688387D01*
X101760000Y-135232440D01*
X101760000Y-134819761D01*
X161100000Y-134819761D01*
X161100000Y-135180239D01*
X161170325Y-135533791D01*
X161308275Y-135866830D01*
X161508546Y-136166557D01*
X161763443Y-136421454D01*
X162063170Y-136621725D01*
X162396209Y-136759675D01*
X162749761Y-136830000D01*
X163110239Y-136830000D01*
X163463791Y-136759675D01*
X163796830Y-136621725D01*
X164096557Y-136421454D01*
X164351454Y-136166557D01*
X164551725Y-135866830D01*
X164689675Y-135533791D01*
X164760000Y-135180239D01*
X164760000Y-134819761D01*
X164689675Y-134466209D01*
X164551725Y-134133170D01*
X164351454Y-133833443D01*
X164096557Y-133578546D01*
X163796830Y-133378275D01*
X163463791Y-133240325D01*
X163110239Y-133170000D01*
X162749761Y-133170000D01*
X162396209Y-133240325D01*
X162063170Y-133378275D01*
X161763443Y-133578546D01*
X161508546Y-133833443D01*
X161308275Y-134133170D01*
X161170325Y-134466209D01*
X161100000Y-134819761D01*
X101760000Y-134819761D01*
X101760000Y-134767560D01*
X101669306Y-134311613D01*
X101491405Y-133882121D01*
X101233132Y-133495588D01*
X100904412Y-133166868D01*
X100517879Y-132908595D01*
X100088387Y-132730694D01*
X99632440Y-132640000D01*
X99167560Y-132640000D01*
X98711613Y-132730694D01*
X98282121Y-132908595D01*
X97895588Y-133166868D01*
X97566868Y-133495588D01*
X97308595Y-133882121D01*
X97130694Y-134311613D01*
X97040000Y-134767560D01*
X80137000Y-134767560D01*
X80137000Y-130175000D01*
X83361928Y-130175000D01*
X83374188Y-130299482D01*
X83410498Y-130419180D01*
X83469463Y-130529494D01*
X83548815Y-130626185D01*
X83645506Y-130705537D01*
X83755820Y-130764502D01*
X83875518Y-130800812D01*
X84000000Y-130813072D01*
X87384250Y-130810000D01*
X87543000Y-130651250D01*
X87543000Y-127127000D01*
X87797000Y-127127000D01*
X87797000Y-130651250D01*
X87955750Y-130810000D01*
X91340000Y-130813072D01*
X91464482Y-130800812D01*
X91584180Y-130764502D01*
X91694494Y-130705537D01*
X91791185Y-130626185D01*
X91870537Y-130529494D01*
X91929502Y-130419180D01*
X91965812Y-130299482D01*
X91978072Y-130175000D01*
X91975000Y-127285750D01*
X91816250Y-127127000D01*
X87797000Y-127127000D01*
X87543000Y-127127000D01*
X83523750Y-127127000D01*
X83365000Y-127285750D01*
X83361928Y-130175000D01*
X80137000Y-130175000D01*
X80137000Y-123825000D01*
X83361928Y-123825000D01*
X83365000Y-126714250D01*
X83523750Y-126873000D01*
X87543000Y-126873000D01*
X87543000Y-123348750D01*
X87797000Y-123348750D01*
X87797000Y-126873000D01*
X91816250Y-126873000D01*
X91975000Y-126714250D01*
X91978072Y-123825000D01*
X91965812Y-123700518D01*
X91929502Y-123580820D01*
X91870537Y-123470506D01*
X91791185Y-123373815D01*
X91694494Y-123294463D01*
X91584180Y-123235498D01*
X91464482Y-123199188D01*
X91340000Y-123186928D01*
X87955750Y-123190000D01*
X87797000Y-123348750D01*
X87543000Y-123348750D01*
X87384250Y-123190000D01*
X84000000Y-123186928D01*
X83875518Y-123199188D01*
X83755820Y-123235498D01*
X83645506Y-123294463D01*
X83548815Y-123373815D01*
X83469463Y-123470506D01*
X83410498Y-123580820D01*
X83374188Y-123700518D01*
X83361928Y-123825000D01*
X80137000Y-123825000D01*
X80137000Y-118767560D01*
X152240000Y-118767560D01*
X152240000Y-119232440D01*
X152330694Y-119688387D01*
X152508595Y-120117879D01*
X152766868Y-120504412D01*
X153095588Y-120833132D01*
X153482121Y-121091405D01*
X153911613Y-121269306D01*
X154367560Y-121360000D01*
X154832440Y-121360000D01*
X155288387Y-121269306D01*
X155717879Y-121091405D01*
X156104412Y-120833132D01*
X156433132Y-120504412D01*
X156691405Y-120117879D01*
X156869306Y-119688387D01*
X156960000Y-119232440D01*
X156960000Y-118767560D01*
X156869306Y-118311613D01*
X156691405Y-117882121D01*
X156433132Y-117495588D01*
X156104412Y-117166868D01*
X155717879Y-116908595D01*
X155288387Y-116730694D01*
X154832440Y-116640000D01*
X154367560Y-116640000D01*
X153911613Y-116730694D01*
X153482121Y-116908595D01*
X153095588Y-117166868D01*
X152766868Y-117495588D01*
X152508595Y-117882121D01*
X152330694Y-118311613D01*
X152240000Y-118767560D01*
X80137000Y-118767560D01*
X80137000Y-109220000D01*
X159848057Y-109220000D01*
X159875764Y-109501309D01*
X159957818Y-109771808D01*
X160091068Y-110021101D01*
X160270392Y-110239608D01*
X160488899Y-110418932D01*
X160738192Y-110552182D01*
X161008691Y-110634236D01*
X161219508Y-110655000D01*
X161360492Y-110655000D01*
X161571309Y-110634236D01*
X161841808Y-110552182D01*
X162091101Y-110418932D01*
X162309608Y-110239608D01*
X162488932Y-110021101D01*
X162622182Y-109771808D01*
X162704236Y-109501309D01*
X162731943Y-109220000D01*
X162704236Y-108938691D01*
X162622182Y-108668192D01*
X162488932Y-108418899D01*
X162309608Y-108200392D01*
X162091101Y-108021068D01*
X161841808Y-107887818D01*
X161571309Y-107805764D01*
X161360492Y-107785000D01*
X161219508Y-107785000D01*
X161008691Y-107805764D01*
X160738192Y-107887818D01*
X160488899Y-108021068D01*
X160270392Y-108200392D01*
X160091068Y-108418899D01*
X159957818Y-108668192D01*
X159875764Y-108938691D01*
X159848057Y-109220000D01*
X80137000Y-109220000D01*
X80137000Y-69850000D01*
X92638541Y-69850000D01*
X92645001Y-69915588D01*
X92645000Y-74864421D01*
X92638541Y-74930000D01*
X92645000Y-74995578D01*
X92664317Y-75191705D01*
X92740653Y-75443353D01*
X92864618Y-75675274D01*
X93031445Y-75878555D01*
X93082392Y-75920366D01*
X118389639Y-101227614D01*
X118431445Y-101278555D01*
X118634725Y-101445382D01*
X118866646Y-101569347D01*
X119118294Y-101645683D01*
X119314421Y-101665000D01*
X119314423Y-101665000D01*
X119379999Y-101671459D01*
X119445575Y-101665000D01*
X128410134Y-101665000D01*
X128257585Y-101817549D01*
X128076903Y-102087958D01*
X127952447Y-102388421D01*
X127889000Y-102707391D01*
X127889000Y-103032609D01*
X127952447Y-103351579D01*
X128076903Y-103652042D01*
X128257585Y-103922451D01*
X128487549Y-104152415D01*
X128757958Y-104333097D01*
X129058421Y-104457553D01*
X129377391Y-104521000D01*
X129702609Y-104521000D01*
X130021579Y-104457553D01*
X130322042Y-104333097D01*
X130592451Y-104152415D01*
X130810000Y-103934866D01*
X131027549Y-104152415D01*
X131297958Y-104333097D01*
X131598421Y-104457553D01*
X131917391Y-104521000D01*
X132242609Y-104521000D01*
X132561579Y-104457553D01*
X132862042Y-104333097D01*
X133132451Y-104152415D01*
X133362415Y-103922451D01*
X133543097Y-103652042D01*
X133667553Y-103351579D01*
X133731000Y-103032609D01*
X133731000Y-102707391D01*
X133667553Y-102388421D01*
X133543097Y-102087958D01*
X133362415Y-101817549D01*
X133209866Y-101665000D01*
X157013579Y-101665000D01*
X157209706Y-101645683D01*
X157214001Y-101644380D01*
X157218295Y-101645683D01*
X157480000Y-101671459D01*
X157741705Y-101645683D01*
X157892301Y-101600000D01*
X159848057Y-101600000D01*
X159875764Y-101881309D01*
X159957818Y-102151808D01*
X160091068Y-102401101D01*
X160270392Y-102619608D01*
X160488899Y-102798932D01*
X160738192Y-102932182D01*
X161008691Y-103014236D01*
X161219508Y-103035000D01*
X161360492Y-103035000D01*
X161571309Y-103014236D01*
X161841808Y-102932182D01*
X162091101Y-102798932D01*
X162309608Y-102619608D01*
X162488932Y-102401101D01*
X162622182Y-102151808D01*
X162704236Y-101881309D01*
X162731943Y-101600000D01*
X162704236Y-101318691D01*
X162622182Y-101048192D01*
X162488932Y-100798899D01*
X162309608Y-100580392D01*
X162091101Y-100401068D01*
X161841808Y-100267818D01*
X161571309Y-100185764D01*
X161360492Y-100165000D01*
X161219508Y-100165000D01*
X161008691Y-100185764D01*
X160738192Y-100267818D01*
X160488899Y-100401068D01*
X160270392Y-100580392D01*
X160091068Y-100798899D01*
X159957818Y-101048192D01*
X159875764Y-101318691D01*
X159848057Y-101600000D01*
X157892301Y-101600000D01*
X157993354Y-101569346D01*
X158225274Y-101445382D01*
X158377616Y-101320358D01*
X162042975Y-97655000D01*
X163077026Y-97655000D01*
X167575000Y-102152975D01*
X167575001Y-108693139D01*
X167530147Y-108801426D01*
X167475000Y-109078665D01*
X167475000Y-109361335D01*
X167530147Y-109638574D01*
X167575000Y-109746859D01*
X167575001Y-123186928D01*
X162660000Y-123186928D01*
X162535518Y-123199188D01*
X162415820Y-123235498D01*
X162305506Y-123294463D01*
X162208815Y-123373815D01*
X162129463Y-123470506D01*
X162070498Y-123580820D01*
X162034188Y-123700518D01*
X162021928Y-123825000D01*
X162021928Y-130175000D01*
X162034188Y-130299482D01*
X162070498Y-130419180D01*
X162129463Y-130529494D01*
X162208815Y-130626185D01*
X162305506Y-130705537D01*
X162415820Y-130764502D01*
X162535518Y-130800812D01*
X162660000Y-130813072D01*
X170000000Y-130813072D01*
X170124482Y-130800812D01*
X170244180Y-130764502D01*
X170354494Y-130705537D01*
X170451185Y-130626185D01*
X170530537Y-130529494D01*
X170589502Y-130419180D01*
X170625812Y-130299482D01*
X170638072Y-130175000D01*
X170638072Y-123825000D01*
X170625812Y-123700518D01*
X170589502Y-123580820D01*
X170530537Y-123470506D01*
X170451185Y-123373815D01*
X170354494Y-123294463D01*
X170245000Y-123235936D01*
X170245000Y-109746859D01*
X170289853Y-109638574D01*
X170345000Y-109361335D01*
X170345000Y-109078665D01*
X170289853Y-108801426D01*
X170245000Y-108693141D01*
X170245000Y-102126859D01*
X170289853Y-102018574D01*
X170345000Y-101741335D01*
X170345000Y-101458665D01*
X170289853Y-101181426D01*
X170181680Y-100920273D01*
X170024637Y-100685241D01*
X169824759Y-100485363D01*
X169589727Y-100328320D01*
X169481442Y-100283467D01*
X164965000Y-95767026D01*
X164965000Y-94817866D01*
X165077549Y-94930415D01*
X165347958Y-95111097D01*
X165648421Y-95235553D01*
X165967391Y-95299000D01*
X166292609Y-95299000D01*
X166611579Y-95235553D01*
X166912042Y-95111097D01*
X167182451Y-94930415D01*
X167318043Y-94794823D01*
X167662782Y-94794823D01*
X167760478Y-95060860D01*
X167880691Y-95119452D01*
X167875000Y-95148061D01*
X167875000Y-95351939D01*
X167914774Y-95551898D01*
X167992795Y-95740256D01*
X168106063Y-95909774D01*
X168250226Y-96053937D01*
X168419744Y-96167205D01*
X168608102Y-96245226D01*
X168808061Y-96285000D01*
X169011939Y-96285000D01*
X169211898Y-96245226D01*
X169400256Y-96167205D01*
X169569774Y-96053937D01*
X169713937Y-95909774D01*
X169827205Y-95740256D01*
X169905226Y-95551898D01*
X169945000Y-95351939D01*
X169945000Y-95148061D01*
X169905226Y-94948102D01*
X169837851Y-94785444D01*
X169885215Y-94738081D01*
X170077549Y-94930415D01*
X170347958Y-95111097D01*
X170648421Y-95235553D01*
X170967391Y-95299000D01*
X171292609Y-95299000D01*
X171611579Y-95235553D01*
X171912042Y-95111097D01*
X172182451Y-94930415D01*
X172412415Y-94700451D01*
X172593097Y-94430042D01*
X172717553Y-94129579D01*
X172781000Y-93810609D01*
X172781000Y-93677357D01*
X172847958Y-93722097D01*
X173148421Y-93846553D01*
X173467391Y-93910000D01*
X173792609Y-93910000D01*
X174111579Y-93846553D01*
X174412042Y-93722097D01*
X174682451Y-93541415D01*
X174912415Y-93311451D01*
X175093097Y-93041042D01*
X175102227Y-93019000D01*
X180583678Y-93019000D01*
X180621000Y-93022676D01*
X180658322Y-93019000D01*
X180658333Y-93019000D01*
X180769986Y-93008003D01*
X180913247Y-92964546D01*
X181045276Y-92893974D01*
X181161001Y-92799001D01*
X181184804Y-92769998D01*
X182121004Y-91833798D01*
X182150001Y-91810001D01*
X182244974Y-91694276D01*
X182264326Y-91658072D01*
X182460000Y-91658072D01*
X182584482Y-91645812D01*
X182704180Y-91609502D01*
X182814494Y-91550537D01*
X182911185Y-91471185D01*
X182990537Y-91374494D01*
X183049502Y-91264180D01*
X183085812Y-91144482D01*
X183098072Y-91020000D01*
X183098072Y-89320000D01*
X183085812Y-89195518D01*
X183049502Y-89075820D01*
X182990537Y-88965506D01*
X182911185Y-88868815D01*
X182814494Y-88789463D01*
X182704180Y-88730498D01*
X182635313Y-88709607D01*
X182665134Y-88685134D01*
X182850706Y-88459014D01*
X182988599Y-88201034D01*
X183073513Y-87921111D01*
X183102185Y-87630000D01*
X183073513Y-87338889D01*
X182988599Y-87058966D01*
X182850706Y-86800986D01*
X182665134Y-86574866D01*
X182439014Y-86389294D01*
X182384209Y-86360000D01*
X182439014Y-86330706D01*
X182665134Y-86145134D01*
X182850706Y-85919014D01*
X182988599Y-85661034D01*
X183073513Y-85381111D01*
X183102185Y-85090000D01*
X183073513Y-84798889D01*
X182988599Y-84518966D01*
X182850706Y-84260986D01*
X182665134Y-84034866D01*
X182439014Y-83849294D01*
X182384209Y-83820000D01*
X182439014Y-83790706D01*
X182665134Y-83605134D01*
X182850706Y-83379014D01*
X182988599Y-83121034D01*
X183073513Y-82841111D01*
X183102185Y-82550000D01*
X183073513Y-82258889D01*
X182988599Y-81978966D01*
X182850706Y-81720986D01*
X182665134Y-81494866D01*
X182439014Y-81309294D01*
X182374477Y-81274799D01*
X182491355Y-81205178D01*
X182707588Y-81010269D01*
X182881641Y-80776920D01*
X183006825Y-80514099D01*
X183051476Y-80366890D01*
X182930155Y-80137000D01*
X181737000Y-80137000D01*
X181737000Y-80157000D01*
X181483000Y-80157000D01*
X181483000Y-80137000D01*
X180289845Y-80137000D01*
X180168524Y-80366890D01*
X180213175Y-80514099D01*
X180338359Y-80776920D01*
X180512412Y-81010269D01*
X180728645Y-81205178D01*
X180745134Y-81215000D01*
X177865579Y-81215000D01*
X177800000Y-81208541D01*
X177734421Y-81215000D01*
X177538294Y-81234317D01*
X177286646Y-81310653D01*
X177054725Y-81434618D01*
X176851445Y-81601445D01*
X176809643Y-81652381D01*
X175038026Y-83424000D01*
X174810295Y-83424000D01*
X174892451Y-83341844D01*
X174776825Y-83226217D01*
X175042860Y-83128522D01*
X175185348Y-82836179D01*
X175268064Y-82521656D01*
X175287831Y-82197038D01*
X175243888Y-81874802D01*
X175137924Y-81567330D01*
X175042860Y-81389478D01*
X174776823Y-81291782D01*
X173809605Y-82259000D01*
X173823748Y-82273143D01*
X173644143Y-82452748D01*
X173630000Y-82438605D01*
X172662782Y-83405823D01*
X172666854Y-83416913D01*
X172577549Y-83476585D01*
X172347585Y-83706549D01*
X172166903Y-83976958D01*
X172042447Y-84277421D01*
X171979000Y-84596391D01*
X171979000Y-84921609D01*
X172042447Y-85240579D01*
X172166903Y-85541042D01*
X172347585Y-85811451D01*
X172545134Y-86009000D01*
X172347585Y-86206549D01*
X172166903Y-86476958D01*
X172042447Y-86777421D01*
X171979000Y-87096391D01*
X171979000Y-87421609D01*
X172042447Y-87740579D01*
X172166903Y-88041042D01*
X172347585Y-88311451D01*
X172545134Y-88509000D01*
X172347585Y-88706549D01*
X172166903Y-88976958D01*
X172042447Y-89277421D01*
X171979000Y-89596391D01*
X171979000Y-89921609D01*
X172042447Y-90240579D01*
X172166903Y-90541042D01*
X172347585Y-90811451D01*
X172545134Y-91009000D01*
X172347585Y-91206549D01*
X172166903Y-91476958D01*
X172042447Y-91777421D01*
X171979000Y-92096391D01*
X171979000Y-92229643D01*
X171912042Y-92184903D01*
X171611579Y-92060447D01*
X171292609Y-91997000D01*
X170967391Y-91997000D01*
X170648421Y-92060447D01*
X170347958Y-92184903D01*
X170077549Y-92365585D01*
X169847585Y-92595549D01*
X169787913Y-92684854D01*
X169776823Y-92680782D01*
X168809605Y-93648000D01*
X168823748Y-93662143D01*
X168644143Y-93841748D01*
X168630000Y-93827605D01*
X167662782Y-94794823D01*
X167318043Y-94794823D01*
X167412415Y-94700451D01*
X167472087Y-94611146D01*
X167483177Y-94615218D01*
X168450395Y-93648000D01*
X167483177Y-92680782D01*
X167472087Y-92684854D01*
X167412415Y-92595549D01*
X167318043Y-92501177D01*
X167662782Y-92501177D01*
X168630000Y-93468395D01*
X169597218Y-92501177D01*
X169499522Y-92235140D01*
X169207179Y-92092652D01*
X168892656Y-92009936D01*
X168568038Y-91990169D01*
X168245802Y-92034112D01*
X167938330Y-92140076D01*
X167760478Y-92235140D01*
X167662782Y-92501177D01*
X167318043Y-92501177D01*
X167182451Y-92365585D01*
X166912042Y-92184903D01*
X166611579Y-92060447D01*
X166292609Y-91997000D01*
X165967391Y-91997000D01*
X165648421Y-92060447D01*
X165347958Y-92184903D01*
X165077549Y-92365585D01*
X164880000Y-92563134D01*
X164682451Y-92365585D01*
X164412042Y-92184903D01*
X164111579Y-92060447D01*
X163792609Y-91997000D01*
X163512800Y-91997000D01*
X163612451Y-91930415D01*
X163842415Y-91700451D01*
X164023097Y-91430042D01*
X164147553Y-91129579D01*
X164211000Y-90810609D01*
X164211000Y-90485391D01*
X164147553Y-90166421D01*
X164023097Y-89865958D01*
X163842415Y-89595549D01*
X163612451Y-89365585D01*
X163342042Y-89184903D01*
X163041579Y-89060447D01*
X162722609Y-88997000D01*
X162397391Y-88997000D01*
X162078421Y-89060447D01*
X161777958Y-89184903D01*
X161507549Y-89365585D01*
X161290000Y-89583134D01*
X161072451Y-89365585D01*
X160802042Y-89184903D01*
X160501579Y-89060447D01*
X160182609Y-88997000D01*
X159857391Y-88997000D01*
X159538421Y-89060447D01*
X159237958Y-89184903D01*
X158967549Y-89365585D01*
X158737585Y-89595549D01*
X158556903Y-89865958D01*
X158432447Y-90166421D01*
X158369000Y-90485391D01*
X158369000Y-90810609D01*
X158432447Y-91129579D01*
X158556903Y-91430042D01*
X158737585Y-91700451D01*
X158967549Y-91930415D01*
X159237958Y-92111097D01*
X159538421Y-92235553D01*
X159857391Y-92299000D01*
X160177200Y-92299000D01*
X160077549Y-92365585D01*
X159880000Y-92563134D01*
X159682451Y-92365585D01*
X159412042Y-92184903D01*
X159111579Y-92060447D01*
X158792609Y-91997000D01*
X158467391Y-91997000D01*
X158148421Y-92060447D01*
X157847958Y-92184903D01*
X157577549Y-92365585D01*
X157380000Y-92563134D01*
X157182451Y-92365585D01*
X156912042Y-92184903D01*
X156611579Y-92060447D01*
X156292609Y-91997000D01*
X155967391Y-91997000D01*
X155648421Y-92060447D01*
X155347958Y-92184903D01*
X155077549Y-92365585D01*
X154880000Y-92563134D01*
X154682451Y-92365585D01*
X154412042Y-92184903D01*
X154111579Y-92060447D01*
X153792609Y-91997000D01*
X153467391Y-91997000D01*
X153304227Y-92029455D01*
X153452451Y-91930415D01*
X153682415Y-91700451D01*
X153863097Y-91430042D01*
X153987553Y-91129579D01*
X154051000Y-90810609D01*
X154051000Y-90485391D01*
X153987553Y-90166421D01*
X153863097Y-89865958D01*
X153682415Y-89595549D01*
X153452451Y-89365585D01*
X153182042Y-89184903D01*
X152881579Y-89060447D01*
X152562609Y-88997000D01*
X152237391Y-88997000D01*
X151918421Y-89060447D01*
X151617958Y-89184903D01*
X151347549Y-89365585D01*
X151130000Y-89583134D01*
X150912451Y-89365585D01*
X150642042Y-89184903D01*
X150341579Y-89060447D01*
X150022609Y-88997000D01*
X149697391Y-88997000D01*
X149378421Y-89060447D01*
X149077958Y-89184903D01*
X148807549Y-89365585D01*
X148577585Y-89595549D01*
X148396903Y-89865958D01*
X148329881Y-90027762D01*
X147961122Y-89659003D01*
X147937319Y-89629999D01*
X147821594Y-89535026D01*
X147689565Y-89464454D01*
X147546304Y-89420997D01*
X147434651Y-89410000D01*
X147434640Y-89410000D01*
X147397318Y-89406324D01*
X147359996Y-89410000D01*
X133552227Y-89410000D01*
X133543097Y-89387958D01*
X133362415Y-89117549D01*
X133144866Y-88900000D01*
X133362415Y-88682451D01*
X133543097Y-88412042D01*
X133667553Y-88111579D01*
X133731000Y-87792609D01*
X133731000Y-87467391D01*
X133667553Y-87148421D01*
X133543097Y-86847958D01*
X133362415Y-86577549D01*
X133132451Y-86347585D01*
X133031351Y-86280032D01*
X133047218Y-86236823D01*
X132080000Y-85269605D01*
X131112782Y-86236823D01*
X131128649Y-86280032D01*
X131027549Y-86347585D01*
X130810000Y-86565134D01*
X130592451Y-86347585D01*
X130491351Y-86280032D01*
X130507218Y-86236823D01*
X129540000Y-85269605D01*
X128572782Y-86236823D01*
X128588649Y-86280032D01*
X128487549Y-86347585D01*
X128257585Y-86577549D01*
X128076903Y-86847958D01*
X127952447Y-87148421D01*
X127889000Y-87467391D01*
X127889000Y-87792609D01*
X127952447Y-88111579D01*
X128076903Y-88412042D01*
X128257585Y-88682451D01*
X128475134Y-88900000D01*
X128257585Y-89117549D01*
X128076903Y-89387958D01*
X127952447Y-89688421D01*
X127889000Y-90007391D01*
X127889000Y-90332609D01*
X127952447Y-90651579D01*
X128076903Y-90952042D01*
X128257585Y-91222451D01*
X128475134Y-91440000D01*
X128257585Y-91657549D01*
X128076903Y-91927958D01*
X127952447Y-92228421D01*
X127889000Y-92547391D01*
X127889000Y-92872609D01*
X127952447Y-93191579D01*
X128076903Y-93492042D01*
X128257585Y-93762451D01*
X128475134Y-93980000D01*
X128257585Y-94197549D01*
X128076903Y-94467958D01*
X127952447Y-94768421D01*
X127889000Y-95087391D01*
X127889000Y-95412609D01*
X127952447Y-95731579D01*
X128076903Y-96032042D01*
X128257585Y-96302451D01*
X128475134Y-96520000D01*
X128257585Y-96737549D01*
X128076903Y-97007958D01*
X127952447Y-97308421D01*
X127889000Y-97627391D01*
X127889000Y-97952609D01*
X127952447Y-98271579D01*
X128076903Y-98572042D01*
X128257585Y-98842451D01*
X128410134Y-98995000D01*
X119932975Y-98995000D01*
X106089937Y-85151962D01*
X127882169Y-85151962D01*
X127926112Y-85474198D01*
X128032076Y-85781670D01*
X128127140Y-85959522D01*
X128393177Y-86057218D01*
X129360395Y-85090000D01*
X129719605Y-85090000D01*
X130686823Y-86057218D01*
X130810000Y-86011984D01*
X130933177Y-86057218D01*
X131900395Y-85090000D01*
X132259605Y-85090000D01*
X133226823Y-86057218D01*
X133492860Y-85959522D01*
X133635348Y-85667179D01*
X133718064Y-85352656D01*
X133737831Y-85028038D01*
X133693888Y-84705802D01*
X133587924Y-84398330D01*
X133492860Y-84220478D01*
X133226823Y-84122782D01*
X132259605Y-85090000D01*
X131900395Y-85090000D01*
X130933177Y-84122782D01*
X130810000Y-84168016D01*
X130686823Y-84122782D01*
X129719605Y-85090000D01*
X129360395Y-85090000D01*
X128393177Y-84122782D01*
X128127140Y-84220478D01*
X127984652Y-84512821D01*
X127901936Y-84827344D01*
X127882169Y-85151962D01*
X106089937Y-85151962D01*
X104881152Y-83943177D01*
X128572782Y-83943177D01*
X129540000Y-84910395D01*
X130507218Y-83943177D01*
X131112782Y-83943177D01*
X132080000Y-84910395D01*
X133047218Y-83943177D01*
X132949522Y-83677140D01*
X132657179Y-83534652D01*
X132342656Y-83451936D01*
X132018038Y-83432169D01*
X131695802Y-83476112D01*
X131388330Y-83582076D01*
X131210478Y-83677140D01*
X131112782Y-83943177D01*
X130507218Y-83943177D01*
X130409522Y-83677140D01*
X130117179Y-83534652D01*
X129802656Y-83451936D01*
X129478038Y-83432169D01*
X129155802Y-83476112D01*
X128848330Y-83582076D01*
X128670478Y-83677140D01*
X128572782Y-83943177D01*
X104881152Y-83943177D01*
X103258937Y-82320962D01*
X171972169Y-82320962D01*
X172016112Y-82643198D01*
X172122076Y-82950670D01*
X172217140Y-83128522D01*
X172483177Y-83226218D01*
X173450395Y-82259000D01*
X172483177Y-81291782D01*
X172217140Y-81389478D01*
X172074652Y-81681821D01*
X171991936Y-81996344D01*
X171972169Y-82320962D01*
X103258937Y-82320962D01*
X95315000Y-74377026D01*
X95315000Y-70402974D01*
X95505440Y-70212535D01*
X95731579Y-70167553D01*
X96032042Y-70043097D01*
X96302451Y-69862415D01*
X96438043Y-69726823D01*
X96822782Y-69726823D01*
X96920478Y-69992860D01*
X97212821Y-70135348D01*
X97527344Y-70218064D01*
X97851962Y-70237831D01*
X98174198Y-70193888D01*
X98481670Y-70087924D01*
X98659522Y-69992860D01*
X98757218Y-69726823D01*
X97790000Y-68759605D01*
X96822782Y-69726823D01*
X96438043Y-69726823D01*
X96532415Y-69632451D01*
X96599968Y-69531351D01*
X96643177Y-69547218D01*
X97610395Y-68580000D01*
X96643177Y-67612782D01*
X96599968Y-67628649D01*
X96585000Y-67606248D01*
X96585000Y-67375000D01*
X96624594Y-67375000D01*
X96734725Y-67465382D01*
X96966646Y-67589347D01*
X96984310Y-67594705D01*
X97790000Y-68400395D01*
X97804143Y-68386253D01*
X97983748Y-68565858D01*
X97969605Y-68580000D01*
X98936823Y-69547218D01*
X98980032Y-69531351D01*
X99047585Y-69632451D01*
X99277549Y-69862415D01*
X99547958Y-70043097D01*
X99848421Y-70167553D01*
X100167391Y-70231000D01*
X100492609Y-70231000D01*
X100811579Y-70167553D01*
X101112042Y-70043097D01*
X101382451Y-69862415D01*
X101600000Y-69644866D01*
X101817549Y-69862415D01*
X102087958Y-70043097D01*
X102388421Y-70167553D01*
X102707391Y-70231000D01*
X103032609Y-70231000D01*
X103351579Y-70167553D01*
X103652042Y-70043097D01*
X103922451Y-69862415D01*
X104140000Y-69644866D01*
X104357549Y-69862415D01*
X104627958Y-70043097D01*
X104928421Y-70167553D01*
X105247391Y-70231000D01*
X105572609Y-70231000D01*
X105891579Y-70167553D01*
X106192042Y-70043097D01*
X106462451Y-69862415D01*
X106680000Y-69644866D01*
X106897549Y-69862415D01*
X107167958Y-70043097D01*
X107468421Y-70167553D01*
X107787391Y-70231000D01*
X108112609Y-70231000D01*
X108431579Y-70167553D01*
X108732042Y-70043097D01*
X109002451Y-69862415D01*
X109220000Y-69644866D01*
X109437549Y-69862415D01*
X109707958Y-70043097D01*
X110008421Y-70167553D01*
X110327391Y-70231000D01*
X110652609Y-70231000D01*
X110971579Y-70167553D01*
X111272042Y-70043097D01*
X111542451Y-69862415D01*
X111760000Y-69644866D01*
X111977549Y-69862415D01*
X112247958Y-70043097D01*
X112548421Y-70167553D01*
X112867391Y-70231000D01*
X113192609Y-70231000D01*
X113511579Y-70167553D01*
X113533622Y-70158423D01*
X120086200Y-76711002D01*
X120109999Y-76740001D01*
X120225724Y-76834974D01*
X120357753Y-76905546D01*
X120501014Y-76949003D01*
X120612667Y-76960000D01*
X120612676Y-76960000D01*
X120649999Y-76963676D01*
X120687322Y-76960000D01*
X142483134Y-76960000D01*
X142347585Y-77095549D01*
X142166903Y-77365958D01*
X142042447Y-77666421D01*
X141979000Y-77985391D01*
X141979000Y-78310609D01*
X142042447Y-78629579D01*
X142166903Y-78930042D01*
X142347585Y-79200451D01*
X142577549Y-79430415D01*
X142847958Y-79611097D01*
X143148421Y-79735553D01*
X143467391Y-79799000D01*
X143792609Y-79799000D01*
X144111579Y-79735553D01*
X144412042Y-79611097D01*
X144682451Y-79430415D01*
X144880000Y-79232866D01*
X145077549Y-79430415D01*
X145347958Y-79611097D01*
X145648421Y-79735553D01*
X145967391Y-79799000D01*
X146292609Y-79799000D01*
X146611579Y-79735553D01*
X146912042Y-79611097D01*
X147182451Y-79430415D01*
X147380000Y-79232866D01*
X147577549Y-79430415D01*
X147847958Y-79611097D01*
X148148421Y-79735553D01*
X148467391Y-79799000D01*
X148792609Y-79799000D01*
X149111579Y-79735553D01*
X149412042Y-79611097D01*
X149682451Y-79430415D01*
X149880000Y-79232866D01*
X150077549Y-79430415D01*
X150347958Y-79611097D01*
X150648421Y-79735553D01*
X150967391Y-79799000D01*
X151292609Y-79799000D01*
X151611579Y-79735553D01*
X151912042Y-79611097D01*
X152182451Y-79430415D01*
X152380000Y-79232866D01*
X152577549Y-79430415D01*
X152847958Y-79611097D01*
X153148421Y-79735553D01*
X153467391Y-79799000D01*
X153792609Y-79799000D01*
X154111579Y-79735553D01*
X154412042Y-79611097D01*
X154682451Y-79430415D01*
X154880000Y-79232866D01*
X155077549Y-79430415D01*
X155347958Y-79611097D01*
X155648421Y-79735553D01*
X155967391Y-79799000D01*
X156292609Y-79799000D01*
X156611579Y-79735553D01*
X156912042Y-79611097D01*
X157182451Y-79430415D01*
X157380000Y-79232866D01*
X157577549Y-79430415D01*
X157847958Y-79611097D01*
X158148421Y-79735553D01*
X158467391Y-79799000D01*
X158792609Y-79799000D01*
X159111579Y-79735553D01*
X159412042Y-79611097D01*
X159682451Y-79430415D01*
X159880000Y-79232866D01*
X160077549Y-79430415D01*
X160347958Y-79611097D01*
X160648421Y-79735553D01*
X160967391Y-79799000D01*
X161292609Y-79799000D01*
X161611579Y-79735553D01*
X161912042Y-79611097D01*
X162182451Y-79430415D01*
X162380000Y-79232866D01*
X162577549Y-79430415D01*
X162847958Y-79611097D01*
X163148421Y-79735553D01*
X163467391Y-79799000D01*
X163792609Y-79799000D01*
X164111579Y-79735553D01*
X164412042Y-79611097D01*
X164682451Y-79430415D01*
X164880000Y-79232866D01*
X165077549Y-79430415D01*
X165347958Y-79611097D01*
X165648421Y-79735553D01*
X165967391Y-79799000D01*
X166292609Y-79799000D01*
X166611579Y-79735553D01*
X166912042Y-79611097D01*
X167182451Y-79430415D01*
X167380000Y-79232866D01*
X167577549Y-79430415D01*
X167847958Y-79611097D01*
X168148421Y-79735553D01*
X168467391Y-79799000D01*
X168792609Y-79799000D01*
X169111579Y-79735553D01*
X169412042Y-79611097D01*
X169682451Y-79430415D01*
X169880000Y-79232866D01*
X170077549Y-79430415D01*
X170347958Y-79611097D01*
X170648421Y-79735553D01*
X170967391Y-79799000D01*
X171292609Y-79799000D01*
X171611579Y-79735553D01*
X171912042Y-79611097D01*
X171985890Y-79561753D01*
X171979000Y-79596391D01*
X171979000Y-79921609D01*
X172042447Y-80240579D01*
X172166903Y-80541042D01*
X172347585Y-80811451D01*
X172577549Y-81041415D01*
X172666854Y-81101087D01*
X172662782Y-81112177D01*
X173630000Y-82079395D01*
X174597218Y-81112177D01*
X174593146Y-81101087D01*
X174682451Y-81041415D01*
X174912415Y-80811451D01*
X175093097Y-80541042D01*
X175217553Y-80240579D01*
X175281000Y-79921609D01*
X175281000Y-79653110D01*
X180168524Y-79653110D01*
X180289845Y-79883000D01*
X181483000Y-79883000D01*
X181483000Y-78689186D01*
X181737000Y-78689186D01*
X181737000Y-79883000D01*
X182930155Y-79883000D01*
X183051476Y-79653110D01*
X183006825Y-79505901D01*
X182881641Y-79243080D01*
X182707588Y-79009731D01*
X182491355Y-78814822D01*
X182241252Y-78665843D01*
X181966891Y-78568519D01*
X181737000Y-78689186D01*
X181483000Y-78689186D01*
X181253109Y-78568519D01*
X180978748Y-78665843D01*
X180728645Y-78814822D01*
X180512412Y-79009731D01*
X180338359Y-79243080D01*
X180213175Y-79505901D01*
X180168524Y-79653110D01*
X175281000Y-79653110D01*
X175281000Y-79596391D01*
X175217553Y-79277421D01*
X175093097Y-78976958D01*
X174912415Y-78706549D01*
X174682451Y-78476585D01*
X174412042Y-78295903D01*
X174111579Y-78171447D01*
X173792609Y-78108000D01*
X173467391Y-78108000D01*
X173148421Y-78171447D01*
X172847958Y-78295903D01*
X172774110Y-78345247D01*
X172781000Y-78310609D01*
X172781000Y-77985391D01*
X172717553Y-77666421D01*
X172593097Y-77365958D01*
X172412415Y-77095549D01*
X172182451Y-76865585D01*
X171912042Y-76684903D01*
X171611579Y-76560447D01*
X171292609Y-76497000D01*
X170967391Y-76497000D01*
X170648421Y-76560447D01*
X170347958Y-76684903D01*
X170077549Y-76865585D01*
X169880000Y-77063134D01*
X169682451Y-76865585D01*
X169412042Y-76684903D01*
X169111579Y-76560447D01*
X168792609Y-76497000D01*
X168467391Y-76497000D01*
X168148421Y-76560447D01*
X167847958Y-76684903D01*
X167577549Y-76865585D01*
X167380000Y-77063134D01*
X167182451Y-76865585D01*
X166912042Y-76684903D01*
X166611579Y-76560447D01*
X166292609Y-76497000D01*
X165967391Y-76497000D01*
X165648421Y-76560447D01*
X165347958Y-76684903D01*
X165077549Y-76865585D01*
X164880000Y-77063134D01*
X164682451Y-76865585D01*
X164412042Y-76684903D01*
X164111579Y-76560447D01*
X163792609Y-76497000D01*
X163467391Y-76497000D01*
X163148421Y-76560447D01*
X162847958Y-76684903D01*
X162577549Y-76865585D01*
X162380000Y-77063134D01*
X162182451Y-76865585D01*
X161912042Y-76684903D01*
X161611579Y-76560447D01*
X161292609Y-76497000D01*
X160967391Y-76497000D01*
X160648421Y-76560447D01*
X160626379Y-76569577D01*
X139895804Y-55839003D01*
X139872001Y-55809999D01*
X139756276Y-55715026D01*
X139624247Y-55644454D01*
X139480986Y-55600997D01*
X139369333Y-55590000D01*
X139369322Y-55590000D01*
X139332000Y-55586324D01*
X139294678Y-55590000D01*
X130702227Y-55590000D01*
X130693097Y-55567958D01*
X130512415Y-55297549D01*
X130314866Y-55100000D01*
X130512415Y-54902451D01*
X130693097Y-54632042D01*
X130817553Y-54331579D01*
X130881000Y-54012609D01*
X130881000Y-53687391D01*
X130817553Y-53368421D01*
X130693097Y-53067958D01*
X130512415Y-52797549D01*
X130282451Y-52567585D01*
X130012042Y-52386903D01*
X129711579Y-52262447D01*
X129392609Y-52199000D01*
X129067391Y-52199000D01*
X128748421Y-52262447D01*
X128447958Y-52386903D01*
X128177549Y-52567585D01*
X127947585Y-52797549D01*
X127766903Y-53067958D01*
X127642447Y-53368421D01*
X127579000Y-53687391D01*
X127579000Y-54012609D01*
X127642447Y-54331579D01*
X127766903Y-54632042D01*
X127947585Y-54902451D01*
X128145134Y-55100000D01*
X127947585Y-55297549D01*
X127766903Y-55567958D01*
X127642447Y-55868421D01*
X127579000Y-56187391D01*
X127579000Y-56512609D01*
X127642447Y-56831579D01*
X127766903Y-57132042D01*
X127947585Y-57402451D01*
X128145134Y-57600000D01*
X127947585Y-57797549D01*
X127766903Y-58067958D01*
X127642447Y-58368421D01*
X127579000Y-58687391D01*
X127579000Y-59012609D01*
X127642447Y-59331579D01*
X127766903Y-59632042D01*
X127947585Y-59902451D01*
X128145134Y-60100000D01*
X127947585Y-60297549D01*
X127766903Y-60567958D01*
X127642447Y-60868421D01*
X127579000Y-61187391D01*
X127579000Y-61512609D01*
X127642447Y-61831579D01*
X127766903Y-62132042D01*
X127947585Y-62402451D01*
X128177549Y-62632415D01*
X128266854Y-62692087D01*
X128262782Y-62703177D01*
X129230000Y-63670395D01*
X130197218Y-62703177D01*
X130193146Y-62692087D01*
X130282451Y-62632415D01*
X130512415Y-62402451D01*
X130693097Y-62132042D01*
X130817553Y-61831579D01*
X130881000Y-61512609D01*
X130881000Y-61187391D01*
X130817553Y-60868421D01*
X130693097Y-60567958D01*
X130512415Y-60297549D01*
X130314866Y-60100000D01*
X130512415Y-59902451D01*
X130693097Y-59632042D01*
X130817553Y-59331579D01*
X130881000Y-59012609D01*
X130881000Y-58687391D01*
X132579000Y-58687391D01*
X132579000Y-59012609D01*
X132642447Y-59331579D01*
X132766903Y-59632042D01*
X132947585Y-59902451D01*
X133145134Y-60100000D01*
X132947585Y-60297549D01*
X132766903Y-60567958D01*
X132642447Y-60868421D01*
X132579000Y-61187391D01*
X132579000Y-61512609D01*
X132642447Y-61831579D01*
X132766903Y-62132042D01*
X132947585Y-62402451D01*
X133177549Y-62632415D01*
X133266854Y-62692087D01*
X133262782Y-62703177D01*
X134230000Y-63670395D01*
X135197218Y-62703177D01*
X135193146Y-62692087D01*
X135282451Y-62632415D01*
X135480000Y-62434866D01*
X135677549Y-62632415D01*
X135766854Y-62692087D01*
X135762782Y-62703177D01*
X136730000Y-63670395D01*
X137697218Y-62703177D01*
X137693146Y-62692087D01*
X137782451Y-62632415D01*
X138012415Y-62402451D01*
X138193097Y-62132042D01*
X138317553Y-61831579D01*
X138381000Y-61512609D01*
X138381000Y-61187391D01*
X138317553Y-60868421D01*
X138193097Y-60567958D01*
X138012415Y-60297549D01*
X137814866Y-60100000D01*
X138012415Y-59902451D01*
X138193097Y-59632042D01*
X138317553Y-59331579D01*
X138381000Y-59012609D01*
X138381000Y-58687391D01*
X138317553Y-58368421D01*
X138193097Y-58067958D01*
X138012415Y-57797549D01*
X137782451Y-57567585D01*
X137512042Y-57386903D01*
X137211579Y-57262447D01*
X136892609Y-57199000D01*
X136567391Y-57199000D01*
X136248421Y-57262447D01*
X135947958Y-57386903D01*
X135677549Y-57567585D01*
X135480000Y-57765134D01*
X135282451Y-57567585D01*
X135012042Y-57386903D01*
X134711579Y-57262447D01*
X134392609Y-57199000D01*
X134067391Y-57199000D01*
X133748421Y-57262447D01*
X133447958Y-57386903D01*
X133177549Y-57567585D01*
X132947585Y-57797549D01*
X132766903Y-58067958D01*
X132642447Y-58368421D01*
X132579000Y-58687391D01*
X130881000Y-58687391D01*
X130817553Y-58368421D01*
X130693097Y-58067958D01*
X130512415Y-57797549D01*
X130314866Y-57600000D01*
X130512415Y-57402451D01*
X130693097Y-57132042D01*
X130702227Y-57110000D01*
X139017199Y-57110000D01*
X158414682Y-76507484D01*
X158148421Y-76560447D01*
X158126380Y-76569577D01*
X157245803Y-75689002D01*
X157222001Y-75659999D01*
X157106276Y-75565026D01*
X156974247Y-75494454D01*
X156830986Y-75450997D01*
X156719333Y-75440000D01*
X156719322Y-75440000D01*
X156682000Y-75436324D01*
X156644678Y-75440000D01*
X120964802Y-75440000D01*
X117812863Y-72288061D01*
X137395000Y-72288061D01*
X137395000Y-72491939D01*
X137434774Y-72691898D01*
X137512795Y-72880256D01*
X137626063Y-73049774D01*
X137770226Y-73193937D01*
X137939744Y-73307205D01*
X138128102Y-73385226D01*
X138328061Y-73425000D01*
X138531939Y-73425000D01*
X138731898Y-73385226D01*
X138920256Y-73307205D01*
X139089774Y-73193937D01*
X139133711Y-73150000D01*
X140266289Y-73150000D01*
X140310226Y-73193937D01*
X140479744Y-73307205D01*
X140668102Y-73385226D01*
X140868061Y-73425000D01*
X141071939Y-73425000D01*
X141271898Y-73385226D01*
X141460256Y-73307205D01*
X141629774Y-73193937D01*
X141773937Y-73049774D01*
X141887205Y-72880256D01*
X141965226Y-72691898D01*
X142005000Y-72491939D01*
X142005000Y-72288061D01*
X141965226Y-72088102D01*
X141887205Y-71899744D01*
X141773937Y-71730226D01*
X141629774Y-71586063D01*
X141460256Y-71472795D01*
X141271898Y-71394774D01*
X141071939Y-71355000D01*
X140868061Y-71355000D01*
X140668102Y-71394774D01*
X140479744Y-71472795D01*
X140310226Y-71586063D01*
X140266289Y-71630000D01*
X139133711Y-71630000D01*
X139089774Y-71586063D01*
X138920256Y-71472795D01*
X138731898Y-71394774D01*
X138531939Y-71355000D01*
X138328061Y-71355000D01*
X138128102Y-71394774D01*
X137939744Y-71472795D01*
X137770226Y-71586063D01*
X137626063Y-71730226D01*
X137512795Y-71899744D01*
X137434774Y-72088102D01*
X137395000Y-72288061D01*
X117812863Y-72288061D01*
X115751953Y-70227152D01*
X116051579Y-70167553D01*
X116352042Y-70043097D01*
X116622451Y-69862415D01*
X116840000Y-69644866D01*
X117057549Y-69862415D01*
X117327958Y-70043097D01*
X117628421Y-70167553D01*
X117947391Y-70231000D01*
X118272609Y-70231000D01*
X118591579Y-70167553D01*
X118892042Y-70043097D01*
X119162451Y-69862415D01*
X119392415Y-69632451D01*
X119573097Y-69362042D01*
X119697553Y-69061579D01*
X119761000Y-68742609D01*
X119761000Y-68417391D01*
X119697553Y-68098421D01*
X119573097Y-67797958D01*
X119497621Y-67685000D01*
X128256248Y-67685000D01*
X128447958Y-67813097D01*
X128748421Y-67937553D01*
X129067391Y-68001000D01*
X129392609Y-68001000D01*
X129711579Y-67937553D01*
X130012042Y-67813097D01*
X130282451Y-67632415D01*
X130285480Y-67629386D01*
X130405134Y-67665683D01*
X130601261Y-67685000D01*
X133256248Y-67685000D01*
X133447958Y-67813097D01*
X133748421Y-67937553D01*
X134067391Y-68001000D01*
X134392609Y-68001000D01*
X134711579Y-67937553D01*
X135012042Y-67813097D01*
X135203752Y-67685000D01*
X135732419Y-67685000D01*
X135753187Y-67682955D01*
X135947958Y-67813097D01*
X136248421Y-67937553D01*
X136567391Y-68001000D01*
X136892609Y-68001000D01*
X137211579Y-67937553D01*
X137512042Y-67813097D01*
X137782451Y-67632415D01*
X138012415Y-67402451D01*
X138193097Y-67132042D01*
X138317553Y-66831579D01*
X138381000Y-66512609D01*
X138381000Y-66187391D01*
X138317553Y-65868421D01*
X138193097Y-65567958D01*
X138012415Y-65297549D01*
X137782451Y-65067585D01*
X137693146Y-65007913D01*
X137697218Y-64996823D01*
X136730000Y-64029605D01*
X136715858Y-64043748D01*
X136536253Y-63864143D01*
X136550395Y-63850000D01*
X136909605Y-63850000D01*
X137876823Y-64817218D01*
X138142860Y-64719522D01*
X138285348Y-64427179D01*
X138368064Y-64112656D01*
X138387831Y-63788038D01*
X138343888Y-63465802D01*
X138237924Y-63158330D01*
X138142860Y-62980478D01*
X137876823Y-62882782D01*
X136909605Y-63850000D01*
X136550395Y-63850000D01*
X135583177Y-62882782D01*
X135480000Y-62920671D01*
X135376823Y-62882782D01*
X134409605Y-63850000D01*
X134423748Y-63864143D01*
X134244143Y-64043748D01*
X134230000Y-64029605D01*
X134215858Y-64043748D01*
X134036253Y-63864143D01*
X134050395Y-63850000D01*
X133083177Y-62882782D01*
X132817140Y-62980478D01*
X132674652Y-63272821D01*
X132591936Y-63587344D01*
X132572169Y-63911962D01*
X132616112Y-64234198D01*
X132722076Y-64541670D01*
X132817140Y-64719522D01*
X133083175Y-64817217D01*
X132967549Y-64932844D01*
X133049705Y-65015000D01*
X130601261Y-65015000D01*
X130405134Y-65034317D01*
X130285480Y-65070614D01*
X130282451Y-65067585D01*
X130193146Y-65007913D01*
X130197218Y-64996823D01*
X129230000Y-64029605D01*
X129215858Y-64043748D01*
X129036253Y-63864143D01*
X129050395Y-63850000D01*
X129409605Y-63850000D01*
X130376823Y-64817218D01*
X130642860Y-64719522D01*
X130785348Y-64427179D01*
X130868064Y-64112656D01*
X130887831Y-63788038D01*
X130843888Y-63465802D01*
X130737924Y-63158330D01*
X130642860Y-62980478D01*
X130376823Y-62882782D01*
X129409605Y-63850000D01*
X129050395Y-63850000D01*
X128083177Y-62882782D01*
X127817140Y-62980478D01*
X127674652Y-63272821D01*
X127591936Y-63587344D01*
X127572169Y-63911962D01*
X127616112Y-64234198D01*
X127722076Y-64541670D01*
X127817140Y-64719522D01*
X128083175Y-64817217D01*
X127967549Y-64932844D01*
X128049705Y-65015000D01*
X98025406Y-65015000D01*
X97915275Y-64924618D01*
X97683354Y-64800653D01*
X97431706Y-64724317D01*
X97235579Y-64705000D01*
X95315579Y-64705000D01*
X95250000Y-64698541D01*
X95184421Y-64705000D01*
X94988294Y-64724317D01*
X94736646Y-64800653D01*
X94504725Y-64924618D01*
X94301445Y-65091445D01*
X94134618Y-65294725D01*
X94010653Y-65526646D01*
X93934317Y-65778294D01*
X93908541Y-66040000D01*
X93915001Y-66105588D01*
X93915000Y-67606247D01*
X93786903Y-67797958D01*
X93662447Y-68098421D01*
X93617465Y-68324560D01*
X93082387Y-68859639D01*
X93031446Y-68901445D01*
X92989642Y-68952384D01*
X92864618Y-69104726D01*
X92740654Y-69336646D01*
X92664317Y-69588295D01*
X92638541Y-69850000D01*
X80137000Y-69850000D01*
X80137000Y-43307000D01*
X190373000Y-43307000D01*
X190373000Y-140844451D01*
X190373000Y-140844451D01*
G37*
X190373000Y-140844451D02*
X80137000Y-142111531D01*
X80137000Y-134767560D01*
X97040000Y-134767560D01*
X97040000Y-135232440D01*
X97130694Y-135688387D01*
X97308595Y-136117879D01*
X97566868Y-136504412D01*
X97895588Y-136833132D01*
X98282121Y-137091405D01*
X98711613Y-137269306D01*
X99167560Y-137360000D01*
X99632440Y-137360000D01*
X100088387Y-137269306D01*
X100517879Y-137091405D01*
X100904412Y-136833132D01*
X101233132Y-136504412D01*
X101491405Y-136117879D01*
X101669306Y-135688387D01*
X101760000Y-135232440D01*
X101760000Y-134819761D01*
X161100000Y-134819761D01*
X161100000Y-135180239D01*
X161170325Y-135533791D01*
X161308275Y-135866830D01*
X161508546Y-136166557D01*
X161763443Y-136421454D01*
X162063170Y-136621725D01*
X162396209Y-136759675D01*
X162749761Y-136830000D01*
X163110239Y-136830000D01*
X163463791Y-136759675D01*
X163796830Y-136621725D01*
X164096557Y-136421454D01*
X164351454Y-136166557D01*
X164551725Y-135866830D01*
X164689675Y-135533791D01*
X164760000Y-135180239D01*
X164760000Y-134819761D01*
X164689675Y-134466209D01*
X164551725Y-134133170D01*
X164351454Y-133833443D01*
X164096557Y-133578546D01*
X163796830Y-133378275D01*
X163463791Y-133240325D01*
X163110239Y-133170000D01*
X162749761Y-133170000D01*
X162396209Y-133240325D01*
X162063170Y-133378275D01*
X161763443Y-133578546D01*
X161508546Y-133833443D01*
X161308275Y-134133170D01*
X161170325Y-134466209D01*
X161100000Y-134819761D01*
X101760000Y-134819761D01*
X101760000Y-134767560D01*
X101669306Y-134311613D01*
X101491405Y-133882121D01*
X101233132Y-133495588D01*
X100904412Y-133166868D01*
X100517879Y-132908595D01*
X100088387Y-132730694D01*
X99632440Y-132640000D01*
X99167560Y-132640000D01*
X98711613Y-132730694D01*
X98282121Y-132908595D01*
X97895588Y-133166868D01*
X97566868Y-133495588D01*
X97308595Y-133882121D01*
X97130694Y-134311613D01*
X97040000Y-134767560D01*
X80137000Y-134767560D01*
X80137000Y-130175000D01*
X83361928Y-130175000D01*
X83374188Y-130299482D01*
X83410498Y-130419180D01*
X83469463Y-130529494D01*
X83548815Y-130626185D01*
X83645506Y-130705537D01*
X83755820Y-130764502D01*
X83875518Y-130800812D01*
X84000000Y-130813072D01*
X87384250Y-130810000D01*
X87543000Y-130651250D01*
X87543000Y-127127000D01*
X87797000Y-127127000D01*
X87797000Y-130651250D01*
X87955750Y-130810000D01*
X91340000Y-130813072D01*
X91464482Y-130800812D01*
X91584180Y-130764502D01*
X91694494Y-130705537D01*
X91791185Y-130626185D01*
X91870537Y-130529494D01*
X91929502Y-130419180D01*
X91965812Y-130299482D01*
X91978072Y-130175000D01*
X91975000Y-127285750D01*
X91816250Y-127127000D01*
X87797000Y-127127000D01*
X87543000Y-127127000D01*
X83523750Y-127127000D01*
X83365000Y-127285750D01*
X83361928Y-130175000D01*
X80137000Y-130175000D01*
X80137000Y-123825000D01*
X83361928Y-123825000D01*
X83365000Y-126714250D01*
X83523750Y-126873000D01*
X87543000Y-126873000D01*
X87543000Y-123348750D01*
X87797000Y-123348750D01*
X87797000Y-126873000D01*
X91816250Y-126873000D01*
X91975000Y-126714250D01*
X91978072Y-123825000D01*
X91965812Y-123700518D01*
X91929502Y-123580820D01*
X91870537Y-123470506D01*
X91791185Y-123373815D01*
X91694494Y-123294463D01*
X91584180Y-123235498D01*
X91464482Y-123199188D01*
X91340000Y-123186928D01*
X87955750Y-123190000D01*
X87797000Y-123348750D01*
X87543000Y-123348750D01*
X87384250Y-123190000D01*
X84000000Y-123186928D01*
X83875518Y-123199188D01*
X83755820Y-123235498D01*
X83645506Y-123294463D01*
X83548815Y-123373815D01*
X83469463Y-123470506D01*
X83410498Y-123580820D01*
X83374188Y-123700518D01*
X83361928Y-123825000D01*
X80137000Y-123825000D01*
X80137000Y-118767560D01*
X152240000Y-118767560D01*
X152240000Y-119232440D01*
X152330694Y-119688387D01*
X152508595Y-120117879D01*
X152766868Y-120504412D01*
X153095588Y-120833132D01*
X153482121Y-121091405D01*
X153911613Y-121269306D01*
X154367560Y-121360000D01*
X154832440Y-121360000D01*
X155288387Y-121269306D01*
X155717879Y-121091405D01*
X156104412Y-120833132D01*
X156433132Y-120504412D01*
X156691405Y-120117879D01*
X156869306Y-119688387D01*
X156960000Y-119232440D01*
X156960000Y-118767560D01*
X156869306Y-118311613D01*
X156691405Y-117882121D01*
X156433132Y-117495588D01*
X156104412Y-117166868D01*
X155717879Y-116908595D01*
X155288387Y-116730694D01*
X154832440Y-116640000D01*
X154367560Y-116640000D01*
X153911613Y-116730694D01*
X153482121Y-116908595D01*
X153095588Y-117166868D01*
X152766868Y-117495588D01*
X152508595Y-117882121D01*
X152330694Y-118311613D01*
X152240000Y-118767560D01*
X80137000Y-118767560D01*
X80137000Y-109220000D01*
X159848057Y-109220000D01*
X159875764Y-109501309D01*
X159957818Y-109771808D01*
X160091068Y-110021101D01*
X160270392Y-110239608D01*
X160488899Y-110418932D01*
X160738192Y-110552182D01*
X161008691Y-110634236D01*
X161219508Y-110655000D01*
X161360492Y-110655000D01*
X161571309Y-110634236D01*
X161841808Y-110552182D01*
X162091101Y-110418932D01*
X162309608Y-110239608D01*
X162488932Y-110021101D01*
X162622182Y-109771808D01*
X162704236Y-109501309D01*
X162731943Y-109220000D01*
X162704236Y-108938691D01*
X162622182Y-108668192D01*
X162488932Y-108418899D01*
X162309608Y-108200392D01*
X162091101Y-108021068D01*
X161841808Y-107887818D01*
X161571309Y-107805764D01*
X161360492Y-107785000D01*
X161219508Y-107785000D01*
X161008691Y-107805764D01*
X160738192Y-107887818D01*
X160488899Y-108021068D01*
X160270392Y-108200392D01*
X160091068Y-108418899D01*
X159957818Y-108668192D01*
X159875764Y-108938691D01*
X159848057Y-109220000D01*
X80137000Y-109220000D01*
X80137000Y-69850000D01*
X92638541Y-69850000D01*
X92645001Y-69915588D01*
X92645000Y-74864421D01*
X92638541Y-74930000D01*
X92645000Y-74995578D01*
X92664317Y-75191705D01*
X92740653Y-75443353D01*
X92864618Y-75675274D01*
X93031445Y-75878555D01*
X93082392Y-75920366D01*
X118389639Y-101227614D01*
X118431445Y-101278555D01*
X118634725Y-101445382D01*
X118866646Y-101569347D01*
X119118294Y-101645683D01*
X119314421Y-101665000D01*
X119314423Y-101665000D01*
X119379999Y-101671459D01*
X119445575Y-101665000D01*
X128410134Y-101665000D01*
X128257585Y-101817549D01*
X128076903Y-102087958D01*
X127952447Y-102388421D01*
X127889000Y-102707391D01*
X127889000Y-103032609D01*
X127952447Y-103351579D01*
X128076903Y-103652042D01*
X128257585Y-103922451D01*
X128487549Y-104152415D01*
X128757958Y-104333097D01*
X129058421Y-104457553D01*
X129377391Y-104521000D01*
X129702609Y-104521000D01*
X130021579Y-104457553D01*
X130322042Y-104333097D01*
X130592451Y-104152415D01*
X130810000Y-103934866D01*
X131027549Y-104152415D01*
X131297958Y-104333097D01*
X131598421Y-104457553D01*
X131917391Y-104521000D01*
X132242609Y-104521000D01*
X132561579Y-104457553D01*
X132862042Y-104333097D01*
X133132451Y-104152415D01*
X133362415Y-103922451D01*
X133543097Y-103652042D01*
X133667553Y-103351579D01*
X133731000Y-103032609D01*
X133731000Y-102707391D01*
X133667553Y-102388421D01*
X133543097Y-102087958D01*
X133362415Y-101817549D01*
X133209866Y-101665000D01*
X157013579Y-101665000D01*
X157209706Y-101645683D01*
X157214001Y-101644380D01*
X157218295Y-101645683D01*
X157480000Y-101671459D01*
X157741705Y-101645683D01*
X157892301Y-101600000D01*
X159848057Y-101600000D01*
X159875764Y-101881309D01*
X159957818Y-102151808D01*
X160091068Y-102401101D01*
X160270392Y-102619608D01*
X160488899Y-102798932D01*
X160738192Y-102932182D01*
X161008691Y-103014236D01*
X161219508Y-103035000D01*
X161360492Y-103035000D01*
X161571309Y-103014236D01*
X161841808Y-102932182D01*
X162091101Y-102798932D01*
X162309608Y-102619608D01*
X162488932Y-102401101D01*
X162622182Y-102151808D01*
X162704236Y-101881309D01*
X162731943Y-101600000D01*
X162704236Y-101318691D01*
X162622182Y-101048192D01*
X162488932Y-100798899D01*
X162309608Y-100580392D01*
X162091101Y-100401068D01*
X161841808Y-100267818D01*
X161571309Y-100185764D01*
X161360492Y-100165000D01*
X161219508Y-100165000D01*
X161008691Y-100185764D01*
X160738192Y-100267818D01*
X160488899Y-100401068D01*
X160270392Y-100580392D01*
X160091068Y-100798899D01*
X159957818Y-101048192D01*
X159875764Y-101318691D01*
X159848057Y-101600000D01*
X157892301Y-101600000D01*
X157993354Y-101569346D01*
X158225274Y-101445382D01*
X158377616Y-101320358D01*
X162042975Y-97655000D01*
X163077026Y-97655000D01*
X167575000Y-102152975D01*
X167575001Y-108693139D01*
X167530147Y-108801426D01*
X167475000Y-109078665D01*
X167475000Y-109361335D01*
X167530147Y-109638574D01*
X167575000Y-109746859D01*
X167575001Y-123186928D01*
X162660000Y-123186928D01*
X162535518Y-123199188D01*
X162415820Y-123235498D01*
X162305506Y-123294463D01*
X162208815Y-123373815D01*
X162129463Y-123470506D01*
X162070498Y-123580820D01*
X162034188Y-123700518D01*
X162021928Y-123825000D01*
X162021928Y-130175000D01*
X162034188Y-130299482D01*
X162070498Y-130419180D01*
X162129463Y-130529494D01*
X162208815Y-130626185D01*
X162305506Y-130705537D01*
X162415820Y-130764502D01*
X162535518Y-130800812D01*
X162660000Y-130813072D01*
X170000000Y-130813072D01*
X170124482Y-130800812D01*
X170244180Y-130764502D01*
X170354494Y-130705537D01*
X170451185Y-130626185D01*
X170530537Y-130529494D01*
X170589502Y-130419180D01*
X170625812Y-130299482D01*
X170638072Y-130175000D01*
X170638072Y-123825000D01*
X170625812Y-123700518D01*
X170589502Y-123580820D01*
X170530537Y-123470506D01*
X170451185Y-123373815D01*
X170354494Y-123294463D01*
X170245000Y-123235936D01*
X170245000Y-109746859D01*
X170289853Y-109638574D01*
X170345000Y-109361335D01*
X170345000Y-109078665D01*
X170289853Y-108801426D01*
X170245000Y-108693141D01*
X170245000Y-102126859D01*
X170289853Y-102018574D01*
X170345000Y-101741335D01*
X170345000Y-101458665D01*
X170289853Y-101181426D01*
X170181680Y-100920273D01*
X170024637Y-100685241D01*
X169824759Y-100485363D01*
X169589727Y-100328320D01*
X169481442Y-100283467D01*
X164965000Y-95767026D01*
X164965000Y-94817866D01*
X165077549Y-94930415D01*
X165347958Y-95111097D01*
X165648421Y-95235553D01*
X165967391Y-95299000D01*
X166292609Y-95299000D01*
X166611579Y-95235553D01*
X166912042Y-95111097D01*
X167182451Y-94930415D01*
X167318043Y-94794823D01*
X167662782Y-94794823D01*
X167760478Y-95060860D01*
X167880691Y-95119452D01*
X167875000Y-95148061D01*
X167875000Y-95351939D01*
X167914774Y-95551898D01*
X167992795Y-95740256D01*
X168106063Y-95909774D01*
X168250226Y-96053937D01*
X168419744Y-96167205D01*
X168608102Y-96245226D01*
X168808061Y-96285000D01*
X169011939Y-96285000D01*
X169211898Y-96245226D01*
X169400256Y-96167205D01*
X169569774Y-96053937D01*
X169713937Y-95909774D01*
X169827205Y-95740256D01*
X169905226Y-95551898D01*
X169945000Y-95351939D01*
X169945000Y-95148061D01*
X169905226Y-94948102D01*
X169837851Y-94785444D01*
X169885215Y-94738081D01*
X170077549Y-94930415D01*
X170347958Y-95111097D01*
X170648421Y-95235553D01*
X170967391Y-95299000D01*
X171292609Y-95299000D01*
X171611579Y-95235553D01*
X171912042Y-95111097D01*
X172182451Y-94930415D01*
X172412415Y-94700451D01*
X172593097Y-94430042D01*
X172717553Y-94129579D01*
X172781000Y-93810609D01*
X172781000Y-93677357D01*
X172847958Y-93722097D01*
X173148421Y-93846553D01*
X173467391Y-93910000D01*
X173792609Y-93910000D01*
X174111579Y-93846553D01*
X174412042Y-93722097D01*
X174682451Y-93541415D01*
X174912415Y-93311451D01*
X175093097Y-93041042D01*
X175102227Y-93019000D01*
X180583678Y-93019000D01*
X180621000Y-93022676D01*
X180658322Y-93019000D01*
X180658333Y-93019000D01*
X180769986Y-93008003D01*
X180913247Y-92964546D01*
X181045276Y-92893974D01*
X181161001Y-92799001D01*
X181184804Y-92769998D01*
X182121004Y-91833798D01*
X182150001Y-91810001D01*
X182244974Y-91694276D01*
X182264326Y-91658072D01*
X182460000Y-91658072D01*
X182584482Y-91645812D01*
X182704180Y-91609502D01*
X182814494Y-91550537D01*
X182911185Y-91471185D01*
X182990537Y-91374494D01*
X183049502Y-91264180D01*
X183085812Y-91144482D01*
X183098072Y-91020000D01*
X183098072Y-89320000D01*
X183085812Y-89195518D01*
X183049502Y-89075820D01*
X182990537Y-88965506D01*
X182911185Y-88868815D01*
X182814494Y-88789463D01*
X182704180Y-88730498D01*
X182635313Y-88709607D01*
X182665134Y-88685134D01*
X182850706Y-88459014D01*
X182988599Y-88201034D01*
X183073513Y-87921111D01*
X183102185Y-87630000D01*
X183073513Y-87338889D01*
X182988599Y-87058966D01*
X182850706Y-86800986D01*
X182665134Y-86574866D01*
X182439014Y-86389294D01*
X182384209Y-86360000D01*
X182439014Y-86330706D01*
X182665134Y-86145134D01*
X182850706Y-85919014D01*
X182988599Y-85661034D01*
X183073513Y-85381111D01*
X183102185Y-85090000D01*
X183073513Y-84798889D01*
X182988599Y-84518966D01*
X182850706Y-84260986D01*
X182665134Y-84034866D01*
X182439014Y-83849294D01*
X182384209Y-83820000D01*
X182439014Y-83790706D01*
X182665134Y-83605134D01*
X182850706Y-83379014D01*
X182988599Y-83121034D01*
X183073513Y-82841111D01*
X183102185Y-82550000D01*
X183073513Y-82258889D01*
X182988599Y-81978966D01*
X182850706Y-81720986D01*
X182665134Y-81494866D01*
X182439014Y-81309294D01*
X182374477Y-81274799D01*
X182491355Y-81205178D01*
X182707588Y-81010269D01*
X182881641Y-80776920D01*
X183006825Y-80514099D01*
X183051476Y-80366890D01*
X182930155Y-80137000D01*
X181737000Y-80137000D01*
X181737000Y-80157000D01*
X181483000Y-80157000D01*
X181483000Y-80137000D01*
X180289845Y-80137000D01*
X180168524Y-80366890D01*
X180213175Y-80514099D01*
X180338359Y-80776920D01*
X180512412Y-81010269D01*
X180728645Y-81205178D01*
X180745134Y-81215000D01*
X177865579Y-81215000D01*
X177800000Y-81208541D01*
X177734421Y-81215000D01*
X177538294Y-81234317D01*
X177286646Y-81310653D01*
X177054725Y-81434618D01*
X176851445Y-81601445D01*
X176809643Y-81652381D01*
X175038026Y-83424000D01*
X174810295Y-83424000D01*
X174892451Y-83341844D01*
X174776825Y-83226217D01*
X175042860Y-83128522D01*
X175185348Y-82836179D01*
X175268064Y-82521656D01*
X175287831Y-82197038D01*
X175243888Y-81874802D01*
X175137924Y-81567330D01*
X175042860Y-81389478D01*
X174776823Y-81291782D01*
X173809605Y-82259000D01*
X173823748Y-82273143D01*
X173644143Y-82452748D01*
X173630000Y-82438605D01*
X172662782Y-83405823D01*
X172666854Y-83416913D01*
X172577549Y-83476585D01*
X172347585Y-83706549D01*
X172166903Y-83976958D01*
X172042447Y-84277421D01*
X171979000Y-84596391D01*
X171979000Y-84921609D01*
X172042447Y-85240579D01*
X172166903Y-85541042D01*
X172347585Y-85811451D01*
X172545134Y-86009000D01*
X172347585Y-86206549D01*
X172166903Y-86476958D01*
X172042447Y-86777421D01*
X171979000Y-87096391D01*
X171979000Y-87421609D01*
X172042447Y-87740579D01*
X172166903Y-88041042D01*
X172347585Y-88311451D01*
X172545134Y-88509000D01*
X172347585Y-88706549D01*
X172166903Y-88976958D01*
X172042447Y-89277421D01*
X171979000Y-89596391D01*
X171979000Y-89921609D01*
X172042447Y-90240579D01*
X172166903Y-90541042D01*
X172347585Y-90811451D01*
X172545134Y-91009000D01*
X172347585Y-91206549D01*
X172166903Y-91476958D01*
X172042447Y-91777421D01*
X171979000Y-92096391D01*
X171979000Y-92229643D01*
X171912042Y-92184903D01*
X171611579Y-92060447D01*
X171292609Y-91997000D01*
X170967391Y-91997000D01*
X170648421Y-92060447D01*
X170347958Y-92184903D01*
X170077549Y-92365585D01*
X169847585Y-92595549D01*
X169787913Y-92684854D01*
X169776823Y-92680782D01*
X168809605Y-93648000D01*
X168823748Y-93662143D01*
X168644143Y-93841748D01*
X168630000Y-93827605D01*
X167662782Y-94794823D01*
X167318043Y-94794823D01*
X167412415Y-94700451D01*
X167472087Y-94611146D01*
X167483177Y-94615218D01*
X168450395Y-93648000D01*
X167483177Y-92680782D01*
X167472087Y-92684854D01*
X167412415Y-92595549D01*
X167318043Y-92501177D01*
X167662782Y-92501177D01*
X168630000Y-93468395D01*
X169597218Y-92501177D01*
X169499522Y-92235140D01*
X169207179Y-92092652D01*
X168892656Y-92009936D01*
X168568038Y-91990169D01*
X168245802Y-92034112D01*
X167938330Y-92140076D01*
X167760478Y-92235140D01*
X167662782Y-92501177D01*
X167318043Y-92501177D01*
X167182451Y-92365585D01*
X166912042Y-92184903D01*
X166611579Y-92060447D01*
X166292609Y-91997000D01*
X165967391Y-91997000D01*
X165648421Y-92060447D01*
X165347958Y-92184903D01*
X165077549Y-92365585D01*
X164880000Y-92563134D01*
X164682451Y-92365585D01*
X164412042Y-92184903D01*
X164111579Y-92060447D01*
X163792609Y-91997000D01*
X163512800Y-91997000D01*
X163612451Y-91930415D01*
X163842415Y-91700451D01*
X164023097Y-91430042D01*
X164147553Y-91129579D01*
X164211000Y-90810609D01*
X164211000Y-90485391D01*
X164147553Y-90166421D01*
X164023097Y-89865958D01*
X163842415Y-89595549D01*
X163612451Y-89365585D01*
X163342042Y-89184903D01*
X163041579Y-89060447D01*
X162722609Y-88997000D01*
X162397391Y-88997000D01*
X162078421Y-89060447D01*
X161777958Y-89184903D01*
X161507549Y-89365585D01*
X161290000Y-89583134D01*
X161072451Y-89365585D01*
X160802042Y-89184903D01*
X160501579Y-89060447D01*
X160182609Y-88997000D01*
X159857391Y-88997000D01*
X159538421Y-89060447D01*
X159237958Y-89184903D01*
X158967549Y-89365585D01*
X158737585Y-89595549D01*
X158556903Y-89865958D01*
X158432447Y-90166421D01*
X158369000Y-90485391D01*
X158369000Y-90810609D01*
X158432447Y-91129579D01*
X158556903Y-91430042D01*
X158737585Y-91700451D01*
X158967549Y-91930415D01*
X159237958Y-92111097D01*
X159538421Y-92235553D01*
X159857391Y-92299000D01*
X160177200Y-92299000D01*
X160077549Y-92365585D01*
X159880000Y-92563134D01*
X159682451Y-92365585D01*
X159412042Y-92184903D01*
X159111579Y-92060447D01*
X158792609Y-91997000D01*
X158467391Y-91997000D01*
X158148421Y-92060447D01*
X157847958Y-92184903D01*
X157577549Y-92365585D01*
X157380000Y-92563134D01*
X157182451Y-92365585D01*
X156912042Y-92184903D01*
X156611579Y-92060447D01*
X156292609Y-91997000D01*
X155967391Y-91997000D01*
X155648421Y-92060447D01*
X155347958Y-92184903D01*
X155077549Y-92365585D01*
X154880000Y-92563134D01*
X154682451Y-92365585D01*
X154412042Y-92184903D01*
X154111579Y-92060447D01*
X153792609Y-91997000D01*
X153467391Y-91997000D01*
X153304227Y-92029455D01*
X153452451Y-91930415D01*
X153682415Y-91700451D01*
X153863097Y-91430042D01*
X153987553Y-91129579D01*
X154051000Y-90810609D01*
X154051000Y-90485391D01*
X153987553Y-90166421D01*
X153863097Y-89865958D01*
X153682415Y-89595549D01*
X153452451Y-89365585D01*
X153182042Y-89184903D01*
X152881579Y-89060447D01*
X152562609Y-88997000D01*
X152237391Y-88997000D01*
X151918421Y-89060447D01*
X151617958Y-89184903D01*
X151347549Y-89365585D01*
X151130000Y-89583134D01*
X150912451Y-89365585D01*
X150642042Y-89184903D01*
X150341579Y-89060447D01*
X150022609Y-88997000D01*
X149697391Y-88997000D01*
X149378421Y-89060447D01*
X149077958Y-89184903D01*
X148807549Y-89365585D01*
X148577585Y-89595549D01*
X148396903Y-89865958D01*
X148329881Y-90027762D01*
X147961122Y-89659003D01*
X147937319Y-89629999D01*
X147821594Y-89535026D01*
X147689565Y-89464454D01*
X147546304Y-89420997D01*
X147434651Y-89410000D01*
X147434640Y-89410000D01*
X147397318Y-89406324D01*
X147359996Y-89410000D01*
X133552227Y-89410000D01*
X133543097Y-89387958D01*
X133362415Y-89117549D01*
X133144866Y-88900000D01*
X133362415Y-88682451D01*
X133543097Y-88412042D01*
X133667553Y-88111579D01*
X133731000Y-87792609D01*
X133731000Y-87467391D01*
X133667553Y-87148421D01*
X133543097Y-86847958D01*
X133362415Y-86577549D01*
X133132451Y-86347585D01*
X133031351Y-86280032D01*
X133047218Y-86236823D01*
X132080000Y-85269605D01*
X131112782Y-86236823D01*
X131128649Y-86280032D01*
X131027549Y-86347585D01*
X130810000Y-86565134D01*
X130592451Y-86347585D01*
X130491351Y-86280032D01*
X130507218Y-86236823D01*
X129540000Y-85269605D01*
X128572782Y-86236823D01*
X128588649Y-86280032D01*
X128487549Y-86347585D01*
X128257585Y-86577549D01*
X128076903Y-86847958D01*
X127952447Y-87148421D01*
X127889000Y-87467391D01*
X127889000Y-87792609D01*
X127952447Y-88111579D01*
X128076903Y-88412042D01*
X128257585Y-88682451D01*
X128475134Y-88900000D01*
X128257585Y-89117549D01*
X128076903Y-89387958D01*
X127952447Y-89688421D01*
X127889000Y-90007391D01*
X127889000Y-90332609D01*
X127952447Y-90651579D01*
X128076903Y-90952042D01*
X128257585Y-91222451D01*
X128475134Y-91440000D01*
X128257585Y-91657549D01*
X128076903Y-91927958D01*
X127952447Y-92228421D01*
X127889000Y-92547391D01*
X127889000Y-92872609D01*
X127952447Y-93191579D01*
X128076903Y-93492042D01*
X128257585Y-93762451D01*
X128475134Y-93980000D01*
X128257585Y-94197549D01*
X128076903Y-94467958D01*
X127952447Y-94768421D01*
X127889000Y-95087391D01*
X127889000Y-95412609D01*
X127952447Y-95731579D01*
X128076903Y-96032042D01*
X128257585Y-96302451D01*
X128475134Y-96520000D01*
X128257585Y-96737549D01*
X128076903Y-97007958D01*
X127952447Y-97308421D01*
X127889000Y-97627391D01*
X127889000Y-97952609D01*
X127952447Y-98271579D01*
X128076903Y-98572042D01*
X128257585Y-98842451D01*
X128410134Y-98995000D01*
X119932975Y-98995000D01*
X106089937Y-85151962D01*
X127882169Y-85151962D01*
X127926112Y-85474198D01*
X128032076Y-85781670D01*
X128127140Y-85959522D01*
X128393177Y-86057218D01*
X129360395Y-85090000D01*
X129719605Y-85090000D01*
X130686823Y-86057218D01*
X130810000Y-86011984D01*
X130933177Y-86057218D01*
X131900395Y-85090000D01*
X132259605Y-85090000D01*
X133226823Y-86057218D01*
X133492860Y-85959522D01*
X133635348Y-85667179D01*
X133718064Y-85352656D01*
X133737831Y-85028038D01*
X133693888Y-84705802D01*
X133587924Y-84398330D01*
X133492860Y-84220478D01*
X133226823Y-84122782D01*
X132259605Y-85090000D01*
X131900395Y-85090000D01*
X130933177Y-84122782D01*
X130810000Y-84168016D01*
X130686823Y-84122782D01*
X129719605Y-85090000D01*
X129360395Y-85090000D01*
X128393177Y-84122782D01*
X128127140Y-84220478D01*
X127984652Y-84512821D01*
X127901936Y-84827344D01*
X127882169Y-85151962D01*
X106089937Y-85151962D01*
X104881152Y-83943177D01*
X128572782Y-83943177D01*
X129540000Y-84910395D01*
X130507218Y-83943177D01*
X131112782Y-83943177D01*
X132080000Y-84910395D01*
X133047218Y-83943177D01*
X132949522Y-83677140D01*
X132657179Y-83534652D01*
X132342656Y-83451936D01*
X132018038Y-83432169D01*
X131695802Y-83476112D01*
X131388330Y-83582076D01*
X131210478Y-83677140D01*
X131112782Y-83943177D01*
X130507218Y-83943177D01*
X130409522Y-83677140D01*
X130117179Y-83534652D01*
X129802656Y-83451936D01*
X129478038Y-83432169D01*
X129155802Y-83476112D01*
X128848330Y-83582076D01*
X128670478Y-83677140D01*
X128572782Y-83943177D01*
X104881152Y-83943177D01*
X103258937Y-82320962D01*
X171972169Y-82320962D01*
X172016112Y-82643198D01*
X172122076Y-82950670D01*
X172217140Y-83128522D01*
X172483177Y-83226218D01*
X173450395Y-82259000D01*
X172483177Y-81291782D01*
X172217140Y-81389478D01*
X172074652Y-81681821D01*
X171991936Y-81996344D01*
X171972169Y-82320962D01*
X103258937Y-82320962D01*
X95315000Y-74377026D01*
X95315000Y-70402974D01*
X95505440Y-70212535D01*
X95731579Y-70167553D01*
X96032042Y-70043097D01*
X96302451Y-69862415D01*
X96438043Y-69726823D01*
X96822782Y-69726823D01*
X96920478Y-69992860D01*
X97212821Y-70135348D01*
X97527344Y-70218064D01*
X97851962Y-70237831D01*
X98174198Y-70193888D01*
X98481670Y-70087924D01*
X98659522Y-69992860D01*
X98757218Y-69726823D01*
X97790000Y-68759605D01*
X96822782Y-69726823D01*
X96438043Y-69726823D01*
X96532415Y-69632451D01*
X96599968Y-69531351D01*
X96643177Y-69547218D01*
X97610395Y-68580000D01*
X96643177Y-67612782D01*
X96599968Y-67628649D01*
X96585000Y-67606248D01*
X96585000Y-67375000D01*
X96624594Y-67375000D01*
X96734725Y-67465382D01*
X96966646Y-67589347D01*
X96984310Y-67594705D01*
X97790000Y-68400395D01*
X97804143Y-68386253D01*
X97983748Y-68565858D01*
X97969605Y-68580000D01*
X98936823Y-69547218D01*
X98980032Y-69531351D01*
X99047585Y-69632451D01*
X99277549Y-69862415D01*
X99547958Y-70043097D01*
X99848421Y-70167553D01*
X100167391Y-70231000D01*
X100492609Y-70231000D01*
X100811579Y-70167553D01*
X101112042Y-70043097D01*
X101382451Y-69862415D01*
X101600000Y-69644866D01*
X101817549Y-69862415D01*
X102087958Y-70043097D01*
X102388421Y-70167553D01*
X102707391Y-70231000D01*
X103032609Y-70231000D01*
X103351579Y-70167553D01*
X103652042Y-70043097D01*
X103922451Y-69862415D01*
X104140000Y-69644866D01*
X104357549Y-69862415D01*
X104627958Y-70043097D01*
X104928421Y-70167553D01*
X105247391Y-70231000D01*
X105572609Y-70231000D01*
X105891579Y-70167553D01*
X106192042Y-70043097D01*
X106462451Y-69862415D01*
X106680000Y-69644866D01*
X106897549Y-69862415D01*
X107167958Y-70043097D01*
X107468421Y-70167553D01*
X107787391Y-70231000D01*
X108112609Y-70231000D01*
X108431579Y-70167553D01*
X108732042Y-70043097D01*
X109002451Y-69862415D01*
X109220000Y-69644866D01*
X109437549Y-69862415D01*
X109707958Y-70043097D01*
X110008421Y-70167553D01*
X110327391Y-70231000D01*
X110652609Y-70231000D01*
X110971579Y-70167553D01*
X111272042Y-70043097D01*
X111542451Y-69862415D01*
X111760000Y-69644866D01*
X111977549Y-69862415D01*
X112247958Y-70043097D01*
X112548421Y-70167553D01*
X112867391Y-70231000D01*
X113192609Y-70231000D01*
X113511579Y-70167553D01*
X113533622Y-70158423D01*
X120086200Y-76711002D01*
X120109999Y-76740001D01*
X120225724Y-76834974D01*
X120357753Y-76905546D01*
X120501014Y-76949003D01*
X120612667Y-76960000D01*
X120612676Y-76960000D01*
X120649999Y-76963676D01*
X120687322Y-76960000D01*
X142483134Y-76960000D01*
X142347585Y-77095549D01*
X142166903Y-77365958D01*
X142042447Y-77666421D01*
X141979000Y-77985391D01*
X141979000Y-78310609D01*
X142042447Y-78629579D01*
X142166903Y-78930042D01*
X142347585Y-79200451D01*
X142577549Y-79430415D01*
X142847958Y-79611097D01*
X143148421Y-79735553D01*
X143467391Y-79799000D01*
X143792609Y-79799000D01*
X144111579Y-79735553D01*
X144412042Y-79611097D01*
X144682451Y-79430415D01*
X144880000Y-79232866D01*
X145077549Y-79430415D01*
X145347958Y-79611097D01*
X145648421Y-79735553D01*
X145967391Y-79799000D01*
X146292609Y-79799000D01*
X146611579Y-79735553D01*
X146912042Y-79611097D01*
X147182451Y-79430415D01*
X147380000Y-79232866D01*
X147577549Y-79430415D01*
X147847958Y-79611097D01*
X148148421Y-79735553D01*
X148467391Y-79799000D01*
X148792609Y-79799000D01*
X149111579Y-79735553D01*
X149412042Y-79611097D01*
X149682451Y-79430415D01*
X149880000Y-79232866D01*
X150077549Y-79430415D01*
X150347958Y-79611097D01*
X150648421Y-79735553D01*
X150967391Y-79799000D01*
X151292609Y-79799000D01*
X151611579Y-79735553D01*
X151912042Y-79611097D01*
X152182451Y-79430415D01*
X152380000Y-79232866D01*
X152577549Y-79430415D01*
X152847958Y-79611097D01*
X153148421Y-79735553D01*
X153467391Y-79799000D01*
X153792609Y-79799000D01*
X154111579Y-79735553D01*
X154412042Y-79611097D01*
X154682451Y-79430415D01*
X154880000Y-79232866D01*
X155077549Y-79430415D01*
X155347958Y-79611097D01*
X155648421Y-79735553D01*
X155967391Y-79799000D01*
X156292609Y-79799000D01*
X156611579Y-79735553D01*
X156912042Y-79611097D01*
X157182451Y-79430415D01*
X157380000Y-79232866D01*
X157577549Y-79430415D01*
X157847958Y-79611097D01*
X158148421Y-79735553D01*
X158467391Y-79799000D01*
X158792609Y-79799000D01*
X159111579Y-79735553D01*
X159412042Y-79611097D01*
X159682451Y-79430415D01*
X159880000Y-79232866D01*
X160077549Y-79430415D01*
X160347958Y-79611097D01*
X160648421Y-79735553D01*
X160967391Y-79799000D01*
X161292609Y-79799000D01*
X161611579Y-79735553D01*
X161912042Y-79611097D01*
X162182451Y-79430415D01*
X162380000Y-79232866D01*
X162577549Y-79430415D01*
X162847958Y-79611097D01*
X163148421Y-79735553D01*
X163467391Y-79799000D01*
X163792609Y-79799000D01*
X164111579Y-79735553D01*
X164412042Y-79611097D01*
X164682451Y-79430415D01*
X164880000Y-79232866D01*
X165077549Y-79430415D01*
X165347958Y-79611097D01*
X165648421Y-79735553D01*
X165967391Y-79799000D01*
X166292609Y-79799000D01*
X166611579Y-79735553D01*
X166912042Y-79611097D01*
X167182451Y-79430415D01*
X167380000Y-79232866D01*
X167577549Y-79430415D01*
X167847958Y-79611097D01*
X168148421Y-79735553D01*
X168467391Y-79799000D01*
X168792609Y-79799000D01*
X169111579Y-79735553D01*
X169412042Y-79611097D01*
X169682451Y-79430415D01*
X169880000Y-79232866D01*
X170077549Y-79430415D01*
X170347958Y-79611097D01*
X170648421Y-79735553D01*
X170967391Y-79799000D01*
X171292609Y-79799000D01*
X171611579Y-79735553D01*
X171912042Y-79611097D01*
X171985890Y-79561753D01*
X171979000Y-79596391D01*
X171979000Y-79921609D01*
X172042447Y-80240579D01*
X172166903Y-80541042D01*
X172347585Y-80811451D01*
X172577549Y-81041415D01*
X172666854Y-81101087D01*
X172662782Y-81112177D01*
X173630000Y-82079395D01*
X174597218Y-81112177D01*
X174593146Y-81101087D01*
X174682451Y-81041415D01*
X174912415Y-80811451D01*
X175093097Y-80541042D01*
X175217553Y-80240579D01*
X175281000Y-79921609D01*
X175281000Y-79653110D01*
X180168524Y-79653110D01*
X180289845Y-79883000D01*
X181483000Y-79883000D01*
X181483000Y-78689186D01*
X181737000Y-78689186D01*
X181737000Y-79883000D01*
X182930155Y-79883000D01*
X183051476Y-79653110D01*
X183006825Y-79505901D01*
X182881641Y-79243080D01*
X182707588Y-79009731D01*
X182491355Y-78814822D01*
X182241252Y-78665843D01*
X181966891Y-78568519D01*
X181737000Y-78689186D01*
X181483000Y-78689186D01*
X181253109Y-78568519D01*
X180978748Y-78665843D01*
X180728645Y-78814822D01*
X180512412Y-79009731D01*
X180338359Y-79243080D01*
X180213175Y-79505901D01*
X180168524Y-79653110D01*
X175281000Y-79653110D01*
X175281000Y-79596391D01*
X175217553Y-79277421D01*
X175093097Y-78976958D01*
X174912415Y-78706549D01*
X174682451Y-78476585D01*
X174412042Y-78295903D01*
X174111579Y-78171447D01*
X173792609Y-78108000D01*
X173467391Y-78108000D01*
X173148421Y-78171447D01*
X172847958Y-78295903D01*
X172774110Y-78345247D01*
X172781000Y-78310609D01*
X172781000Y-77985391D01*
X172717553Y-77666421D01*
X172593097Y-77365958D01*
X172412415Y-77095549D01*
X172182451Y-76865585D01*
X171912042Y-76684903D01*
X171611579Y-76560447D01*
X171292609Y-76497000D01*
X170967391Y-76497000D01*
X170648421Y-76560447D01*
X170347958Y-76684903D01*
X170077549Y-76865585D01*
X169880000Y-77063134D01*
X169682451Y-76865585D01*
X169412042Y-76684903D01*
X169111579Y-76560447D01*
X168792609Y-76497000D01*
X168467391Y-76497000D01*
X168148421Y-76560447D01*
X167847958Y-76684903D01*
X167577549Y-76865585D01*
X167380000Y-77063134D01*
X167182451Y-76865585D01*
X166912042Y-76684903D01*
X166611579Y-76560447D01*
X166292609Y-76497000D01*
X165967391Y-76497000D01*
X165648421Y-76560447D01*
X165347958Y-76684903D01*
X165077549Y-76865585D01*
X164880000Y-77063134D01*
X164682451Y-76865585D01*
X164412042Y-76684903D01*
X164111579Y-76560447D01*
X163792609Y-76497000D01*
X163467391Y-76497000D01*
X163148421Y-76560447D01*
X162847958Y-76684903D01*
X162577549Y-76865585D01*
X162380000Y-77063134D01*
X162182451Y-76865585D01*
X161912042Y-76684903D01*
X161611579Y-76560447D01*
X161292609Y-76497000D01*
X160967391Y-76497000D01*
X160648421Y-76560447D01*
X160626379Y-76569577D01*
X139895804Y-55839003D01*
X139872001Y-55809999D01*
X139756276Y-55715026D01*
X139624247Y-55644454D01*
X139480986Y-55600997D01*
X139369333Y-55590000D01*
X139369322Y-55590000D01*
X139332000Y-55586324D01*
X139294678Y-55590000D01*
X130702227Y-55590000D01*
X130693097Y-55567958D01*
X130512415Y-55297549D01*
X130314866Y-55100000D01*
X130512415Y-54902451D01*
X130693097Y-54632042D01*
X130817553Y-54331579D01*
X130881000Y-54012609D01*
X130881000Y-53687391D01*
X130817553Y-53368421D01*
X130693097Y-53067958D01*
X130512415Y-52797549D01*
X130282451Y-52567585D01*
X130012042Y-52386903D01*
X129711579Y-52262447D01*
X129392609Y-52199000D01*
X129067391Y-52199000D01*
X128748421Y-52262447D01*
X128447958Y-52386903D01*
X128177549Y-52567585D01*
X127947585Y-52797549D01*
X127766903Y-53067958D01*
X127642447Y-53368421D01*
X127579000Y-53687391D01*
X127579000Y-54012609D01*
X127642447Y-54331579D01*
X127766903Y-54632042D01*
X127947585Y-54902451D01*
X128145134Y-55100000D01*
X127947585Y-55297549D01*
X127766903Y-55567958D01*
X127642447Y-55868421D01*
X127579000Y-56187391D01*
X127579000Y-56512609D01*
X127642447Y-56831579D01*
X127766903Y-57132042D01*
X127947585Y-57402451D01*
X128145134Y-57600000D01*
X127947585Y-57797549D01*
X127766903Y-58067958D01*
X127642447Y-58368421D01*
X127579000Y-58687391D01*
X127579000Y-59012609D01*
X127642447Y-59331579D01*
X127766903Y-59632042D01*
X127947585Y-59902451D01*
X128145134Y-60100000D01*
X127947585Y-60297549D01*
X127766903Y-60567958D01*
X127642447Y-60868421D01*
X127579000Y-61187391D01*
X127579000Y-61512609D01*
X127642447Y-61831579D01*
X127766903Y-62132042D01*
X127947585Y-62402451D01*
X128177549Y-62632415D01*
X128266854Y-62692087D01*
X128262782Y-62703177D01*
X129230000Y-63670395D01*
X130197218Y-62703177D01*
X130193146Y-62692087D01*
X130282451Y-62632415D01*
X130512415Y-62402451D01*
X130693097Y-62132042D01*
X130817553Y-61831579D01*
X130881000Y-61512609D01*
X130881000Y-61187391D01*
X130817553Y-60868421D01*
X130693097Y-60567958D01*
X130512415Y-60297549D01*
X130314866Y-60100000D01*
X130512415Y-59902451D01*
X130693097Y-59632042D01*
X130817553Y-59331579D01*
X130881000Y-59012609D01*
X130881000Y-58687391D01*
X132579000Y-58687391D01*
X132579000Y-59012609D01*
X132642447Y-59331579D01*
X132766903Y-59632042D01*
X132947585Y-59902451D01*
X133145134Y-60100000D01*
X132947585Y-60297549D01*
X132766903Y-60567958D01*
X132642447Y-60868421D01*
X132579000Y-61187391D01*
X132579000Y-61512609D01*
X132642447Y-61831579D01*
X132766903Y-62132042D01*
X132947585Y-62402451D01*
X133177549Y-62632415D01*
X133266854Y-62692087D01*
X133262782Y-62703177D01*
X134230000Y-63670395D01*
X135197218Y-62703177D01*
X135193146Y-62692087D01*
X135282451Y-62632415D01*
X135480000Y-62434866D01*
X135677549Y-62632415D01*
X135766854Y-62692087D01*
X135762782Y-62703177D01*
X136730000Y-63670395D01*
X137697218Y-62703177D01*
X137693146Y-62692087D01*
X137782451Y-62632415D01*
X138012415Y-62402451D01*
X138193097Y-62132042D01*
X138317553Y-61831579D01*
X138381000Y-61512609D01*
X138381000Y-61187391D01*
X138317553Y-60868421D01*
X138193097Y-60567958D01*
X138012415Y-60297549D01*
X137814866Y-60100000D01*
X138012415Y-59902451D01*
X138193097Y-59632042D01*
X138317553Y-59331579D01*
X138381000Y-59012609D01*
X138381000Y-58687391D01*
X138317553Y-58368421D01*
X138193097Y-58067958D01*
X138012415Y-57797549D01*
X137782451Y-57567585D01*
X137512042Y-57386903D01*
X137211579Y-57262447D01*
X136892609Y-57199000D01*
X136567391Y-57199000D01*
X136248421Y-57262447D01*
X135947958Y-57386903D01*
X135677549Y-57567585D01*
X135480000Y-57765134D01*
X135282451Y-57567585D01*
X135012042Y-57386903D01*
X134711579Y-57262447D01*
X134392609Y-57199000D01*
X134067391Y-57199000D01*
X133748421Y-57262447D01*
X133447958Y-57386903D01*
X133177549Y-57567585D01*
X132947585Y-57797549D01*
X132766903Y-58067958D01*
X132642447Y-58368421D01*
X132579000Y-58687391D01*
X130881000Y-58687391D01*
X130817553Y-58368421D01*
X130693097Y-58067958D01*
X130512415Y-57797549D01*
X130314866Y-57600000D01*
X130512415Y-57402451D01*
X130693097Y-57132042D01*
X130702227Y-57110000D01*
X139017199Y-57110000D01*
X158414682Y-76507484D01*
X158148421Y-76560447D01*
X158126380Y-76569577D01*
X157245803Y-75689002D01*
X157222001Y-75659999D01*
X157106276Y-75565026D01*
X156974247Y-75494454D01*
X156830986Y-75450997D01*
X156719333Y-75440000D01*
X156719322Y-75440000D01*
X156682000Y-75436324D01*
X156644678Y-75440000D01*
X120964802Y-75440000D01*
X117812863Y-72288061D01*
X137395000Y-72288061D01*
X137395000Y-72491939D01*
X137434774Y-72691898D01*
X137512795Y-72880256D01*
X137626063Y-73049774D01*
X137770226Y-73193937D01*
X137939744Y-73307205D01*
X138128102Y-73385226D01*
X138328061Y-73425000D01*
X138531939Y-73425000D01*
X138731898Y-73385226D01*
X138920256Y-73307205D01*
X139089774Y-73193937D01*
X139133711Y-73150000D01*
X140266289Y-73150000D01*
X140310226Y-73193937D01*
X140479744Y-73307205D01*
X140668102Y-73385226D01*
X140868061Y-73425000D01*
X141071939Y-73425000D01*
X141271898Y-73385226D01*
X141460256Y-73307205D01*
X141629774Y-73193937D01*
X141773937Y-73049774D01*
X141887205Y-72880256D01*
X141965226Y-72691898D01*
X142005000Y-72491939D01*
X142005000Y-72288061D01*
X141965226Y-72088102D01*
X141887205Y-71899744D01*
X141773937Y-71730226D01*
X141629774Y-71586063D01*
X141460256Y-71472795D01*
X141271898Y-71394774D01*
X141071939Y-71355000D01*
X140868061Y-71355000D01*
X140668102Y-71394774D01*
X140479744Y-71472795D01*
X140310226Y-71586063D01*
X140266289Y-71630000D01*
X139133711Y-71630000D01*
X139089774Y-71586063D01*
X138920256Y-71472795D01*
X138731898Y-71394774D01*
X138531939Y-71355000D01*
X138328061Y-71355000D01*
X138128102Y-71394774D01*
X137939744Y-71472795D01*
X137770226Y-71586063D01*
X137626063Y-71730226D01*
X137512795Y-71899744D01*
X137434774Y-72088102D01*
X137395000Y-72288061D01*
X117812863Y-72288061D01*
X115751953Y-70227152D01*
X116051579Y-70167553D01*
X116352042Y-70043097D01*
X116622451Y-69862415D01*
X116840000Y-69644866D01*
X117057549Y-69862415D01*
X117327958Y-70043097D01*
X117628421Y-70167553D01*
X117947391Y-70231000D01*
X118272609Y-70231000D01*
X118591579Y-70167553D01*
X118892042Y-70043097D01*
X119162451Y-69862415D01*
X119392415Y-69632451D01*
X119573097Y-69362042D01*
X119697553Y-69061579D01*
X119761000Y-68742609D01*
X119761000Y-68417391D01*
X119697553Y-68098421D01*
X119573097Y-67797958D01*
X119497621Y-67685000D01*
X128256248Y-67685000D01*
X128447958Y-67813097D01*
X128748421Y-67937553D01*
X129067391Y-68001000D01*
X129392609Y-68001000D01*
X129711579Y-67937553D01*
X130012042Y-67813097D01*
X130282451Y-67632415D01*
X130285480Y-67629386D01*
X130405134Y-67665683D01*
X130601261Y-67685000D01*
X133256248Y-67685000D01*
X133447958Y-67813097D01*
X133748421Y-67937553D01*
X134067391Y-68001000D01*
X134392609Y-68001000D01*
X134711579Y-67937553D01*
X135012042Y-67813097D01*
X135203752Y-67685000D01*
X135732419Y-67685000D01*
X135753187Y-67682955D01*
X135947958Y-67813097D01*
X136248421Y-67937553D01*
X136567391Y-68001000D01*
X136892609Y-68001000D01*
X137211579Y-67937553D01*
X137512042Y-67813097D01*
X137782451Y-67632415D01*
X138012415Y-67402451D01*
X138193097Y-67132042D01*
X138317553Y-66831579D01*
X138381000Y-66512609D01*
X138381000Y-66187391D01*
X138317553Y-65868421D01*
X138193097Y-65567958D01*
X138012415Y-65297549D01*
X137782451Y-65067585D01*
X137693146Y-65007913D01*
X137697218Y-64996823D01*
X136730000Y-64029605D01*
X136715858Y-64043748D01*
X136536253Y-63864143D01*
X136550395Y-63850000D01*
X136909605Y-63850000D01*
X137876823Y-64817218D01*
X138142860Y-64719522D01*
X138285348Y-64427179D01*
X138368064Y-64112656D01*
X138387831Y-63788038D01*
X138343888Y-63465802D01*
X138237924Y-63158330D01*
X138142860Y-62980478D01*
X137876823Y-62882782D01*
X136909605Y-63850000D01*
X136550395Y-63850000D01*
X135583177Y-62882782D01*
X135480000Y-62920671D01*
X135376823Y-62882782D01*
X134409605Y-63850000D01*
X134423748Y-63864143D01*
X134244143Y-64043748D01*
X134230000Y-64029605D01*
X134215858Y-64043748D01*
X134036253Y-63864143D01*
X134050395Y-63850000D01*
X133083177Y-62882782D01*
X132817140Y-62980478D01*
X132674652Y-63272821D01*
X132591936Y-63587344D01*
X132572169Y-63911962D01*
X132616112Y-64234198D01*
X132722076Y-64541670D01*
X132817140Y-64719522D01*
X133083175Y-64817217D01*
X132967549Y-64932844D01*
X133049705Y-65015000D01*
X130601261Y-65015000D01*
X130405134Y-65034317D01*
X130285480Y-65070614D01*
X130282451Y-65067585D01*
X130193146Y-65007913D01*
X130197218Y-64996823D01*
X129230000Y-64029605D01*
X129215858Y-64043748D01*
X129036253Y-63864143D01*
X129050395Y-63850000D01*
X129409605Y-63850000D01*
X130376823Y-64817218D01*
X130642860Y-64719522D01*
X130785348Y-64427179D01*
X130868064Y-64112656D01*
X130887831Y-63788038D01*
X130843888Y-63465802D01*
X130737924Y-63158330D01*
X130642860Y-62980478D01*
X130376823Y-62882782D01*
X129409605Y-63850000D01*
X129050395Y-63850000D01*
X128083177Y-62882782D01*
X127817140Y-62980478D01*
X127674652Y-63272821D01*
X127591936Y-63587344D01*
X127572169Y-63911962D01*
X127616112Y-64234198D01*
X127722076Y-64541670D01*
X127817140Y-64719522D01*
X128083175Y-64817217D01*
X127967549Y-64932844D01*
X128049705Y-65015000D01*
X98025406Y-65015000D01*
X97915275Y-64924618D01*
X97683354Y-64800653D01*
X97431706Y-64724317D01*
X97235579Y-64705000D01*
X95315579Y-64705000D01*
X95250000Y-64698541D01*
X95184421Y-64705000D01*
X94988294Y-64724317D01*
X94736646Y-64800653D01*
X94504725Y-64924618D01*
X94301445Y-65091445D01*
X94134618Y-65294725D01*
X94010653Y-65526646D01*
X93934317Y-65778294D01*
X93908541Y-66040000D01*
X93915001Y-66105588D01*
X93915000Y-67606247D01*
X93786903Y-67797958D01*
X93662447Y-68098421D01*
X93617465Y-68324560D01*
X93082387Y-68859639D01*
X93031446Y-68901445D01*
X92989642Y-68952384D01*
X92864618Y-69104726D01*
X92740654Y-69336646D01*
X92664317Y-69588295D01*
X92638541Y-69850000D01*
X80137000Y-69850000D01*
X80137000Y-43307000D01*
X190373000Y-43307000D01*
X190373000Y-140844451D01*
M02*
