G04 #@! TF.GenerationSoftware,KiCad,Pcbnew,(5.1.2)-2*
G04 #@! TF.CreationDate,2019-08-10T14:10:06+10:00*
G04 #@! TF.ProjectId,Sensor_Board,53656e73-6f72-45f4-926f-6172642e6b69,rev?*
G04 #@! TF.SameCoordinates,Original*
G04 #@! TF.FileFunction,Soldermask,Bot*
G04 #@! TF.FilePolarity,Negative*
%FSLAX46Y46*%
G04 Gerber Fmt 4.6, Leading zero omitted, Abs format (unit mm)*
G04 Created by KiCad (PCBNEW (5.1.2)-2) date 2019-08-10 14:10:06*
%MOMM*%
%LPD*%
G04 APERTURE LIST*
%ADD10C,0.100000*%
G04 APERTURE END LIST*
D10*
G36*
X99918039Y-133292250D02*
G01*
X100107372Y-133370675D01*
X100241251Y-133426129D01*
X100532134Y-133620491D01*
X100779509Y-133867866D01*
X100973871Y-134158749D01*
X100973871Y-134158750D01*
X101107750Y-134481961D01*
X101176000Y-134825078D01*
X101176000Y-135174922D01*
X101107750Y-135518039D01*
X101077859Y-135590201D01*
X100973871Y-135841251D01*
X100779509Y-136132134D01*
X100532134Y-136379509D01*
X100241251Y-136573871D01*
X100107372Y-136629325D01*
X99918039Y-136707750D01*
X99574922Y-136776000D01*
X99225078Y-136776000D01*
X98881961Y-136707750D01*
X98692628Y-136629325D01*
X98558749Y-136573871D01*
X98267866Y-136379509D01*
X98020491Y-136132134D01*
X97826129Y-135841251D01*
X97722141Y-135590201D01*
X97692250Y-135518039D01*
X97624000Y-135174922D01*
X97624000Y-134825078D01*
X97692250Y-134481961D01*
X97826129Y-134158750D01*
X97826129Y-134158749D01*
X98020491Y-133867866D01*
X98267866Y-133620491D01*
X98558749Y-133426129D01*
X98692628Y-133370675D01*
X98881961Y-133292250D01*
X99225078Y-133224000D01*
X99574922Y-133224000D01*
X99918039Y-133292250D01*
X99918039Y-133292250D01*
G37*
G36*
X163293444Y-133801882D02*
G01*
X163520201Y-133895808D01*
X163520202Y-133895809D01*
X163724279Y-134032168D01*
X163897832Y-134205721D01*
X163988944Y-134342081D01*
X164034192Y-134409799D01*
X164128118Y-134636556D01*
X164176000Y-134877278D01*
X164176000Y-135122722D01*
X164128118Y-135363444D01*
X164034192Y-135590201D01*
X164034191Y-135590202D01*
X163897832Y-135794279D01*
X163724279Y-135967832D01*
X163587919Y-136058944D01*
X163520201Y-136104192D01*
X163293444Y-136198118D01*
X163052722Y-136246000D01*
X162807278Y-136246000D01*
X162566556Y-136198118D01*
X162339799Y-136104192D01*
X162272081Y-136058944D01*
X162135721Y-135967832D01*
X161962168Y-135794279D01*
X161825809Y-135590202D01*
X161825808Y-135590201D01*
X161731882Y-135363444D01*
X161684000Y-135122722D01*
X161684000Y-134877278D01*
X161731882Y-134636556D01*
X161825808Y-134409799D01*
X161871056Y-134342081D01*
X161962168Y-134205721D01*
X162135721Y-134032168D01*
X162339798Y-133895809D01*
X162339799Y-133895808D01*
X162566556Y-133801882D01*
X162807278Y-133754000D01*
X163052722Y-133754000D01*
X163293444Y-133801882D01*
X163293444Y-133801882D01*
G37*
G36*
X155118039Y-117292250D02*
G01*
X155307372Y-117370675D01*
X155441251Y-117426129D01*
X155732134Y-117620491D01*
X155979509Y-117867866D01*
X156173871Y-118158749D01*
X156173871Y-118158750D01*
X156307750Y-118481961D01*
X156376000Y-118825078D01*
X156376000Y-119174922D01*
X156307750Y-119518039D01*
X156229325Y-119707372D01*
X156173871Y-119841251D01*
X155979509Y-120132134D01*
X155732134Y-120379509D01*
X155441251Y-120573871D01*
X155307372Y-120629325D01*
X155118039Y-120707750D01*
X154774922Y-120776000D01*
X154425078Y-120776000D01*
X154081961Y-120707750D01*
X153892628Y-120629325D01*
X153758749Y-120573871D01*
X153467866Y-120379509D01*
X153220491Y-120132134D01*
X153026129Y-119841251D01*
X152970675Y-119707372D01*
X152892250Y-119518039D01*
X152824000Y-119174922D01*
X152824000Y-118825078D01*
X152892250Y-118481961D01*
X153026129Y-118158750D01*
X153026129Y-118158749D01*
X153220491Y-117867866D01*
X153467866Y-117620491D01*
X153758749Y-117426129D01*
X153892628Y-117370675D01*
X154081961Y-117292250D01*
X154425078Y-117224000D01*
X154774922Y-117224000D01*
X155118039Y-117292250D01*
X155118039Y-117292250D01*
G37*
G36*
X169158228Y-108401703D02*
G01*
X169313100Y-108465853D01*
X169452481Y-108558985D01*
X169571015Y-108677519D01*
X169664147Y-108816900D01*
X169728297Y-108971772D01*
X169761000Y-109136184D01*
X169761000Y-109303816D01*
X169728297Y-109468228D01*
X169664147Y-109623100D01*
X169571015Y-109762481D01*
X169452481Y-109881015D01*
X169313100Y-109974147D01*
X169158228Y-110038297D01*
X168993816Y-110071000D01*
X168826184Y-110071000D01*
X168661772Y-110038297D01*
X168506900Y-109974147D01*
X168367519Y-109881015D01*
X168248985Y-109762481D01*
X168155853Y-109623100D01*
X168091703Y-109468228D01*
X168059000Y-109303816D01*
X168059000Y-109136184D01*
X168091703Y-108971772D01*
X168155853Y-108816900D01*
X168248985Y-108677519D01*
X168367519Y-108558985D01*
X168506900Y-108465853D01*
X168661772Y-108401703D01*
X168826184Y-108369000D01*
X168993816Y-108369000D01*
X169158228Y-108401703D01*
X169158228Y-108401703D01*
G37*
G36*
X161456823Y-108381313D02*
G01*
X161617242Y-108429976D01*
X161684361Y-108465852D01*
X161765078Y-108508996D01*
X161894659Y-108615341D01*
X162001004Y-108744922D01*
X162001005Y-108744924D01*
X162080024Y-108892758D01*
X162128687Y-109053177D01*
X162145117Y-109220000D01*
X162128687Y-109386823D01*
X162080024Y-109547242D01*
X162039477Y-109623100D01*
X162001004Y-109695078D01*
X161894659Y-109824659D01*
X161765078Y-109931004D01*
X161765076Y-109931005D01*
X161617242Y-110010024D01*
X161456823Y-110058687D01*
X161331804Y-110071000D01*
X161248196Y-110071000D01*
X161123177Y-110058687D01*
X160962758Y-110010024D01*
X160814924Y-109931005D01*
X160814922Y-109931004D01*
X160685341Y-109824659D01*
X160578996Y-109695078D01*
X160540523Y-109623100D01*
X160499976Y-109547242D01*
X160451313Y-109386823D01*
X160434883Y-109220000D01*
X160451313Y-109053177D01*
X160499976Y-108892758D01*
X160578995Y-108744924D01*
X160578996Y-108744922D01*
X160685341Y-108615341D01*
X160814922Y-108508996D01*
X160895639Y-108465852D01*
X160962758Y-108429976D01*
X161123177Y-108381313D01*
X161248196Y-108369000D01*
X161331804Y-108369000D01*
X161456823Y-108381313D01*
X161456823Y-108381313D01*
G37*
G36*
X132391231Y-101844003D02*
G01*
X132585412Y-101924436D01*
X132585414Y-101924437D01*
X132760173Y-102041207D01*
X132908793Y-102189827D01*
X133025563Y-102364586D01*
X133025564Y-102364588D01*
X133105997Y-102558769D01*
X133147000Y-102764908D01*
X133147000Y-102975092D01*
X133105997Y-103181231D01*
X133025564Y-103375412D01*
X133025563Y-103375414D01*
X132908793Y-103550173D01*
X132760173Y-103698793D01*
X132585414Y-103815563D01*
X132585413Y-103815564D01*
X132585412Y-103815564D01*
X132391231Y-103895997D01*
X132185092Y-103937000D01*
X131974908Y-103937000D01*
X131768769Y-103895997D01*
X131574588Y-103815564D01*
X131574587Y-103815564D01*
X131574586Y-103815563D01*
X131399827Y-103698793D01*
X131251207Y-103550173D01*
X131134437Y-103375414D01*
X131134436Y-103375412D01*
X131054003Y-103181231D01*
X131013000Y-102975092D01*
X131013000Y-102764908D01*
X131054003Y-102558769D01*
X131134436Y-102364588D01*
X131134437Y-102364586D01*
X131251207Y-102189827D01*
X131399827Y-102041207D01*
X131574586Y-101924437D01*
X131574588Y-101924436D01*
X131768769Y-101844003D01*
X131974908Y-101803000D01*
X132185092Y-101803000D01*
X132391231Y-101844003D01*
X132391231Y-101844003D01*
G37*
G36*
X129851231Y-101844003D02*
G01*
X130045412Y-101924436D01*
X130045414Y-101924437D01*
X130220173Y-102041207D01*
X130368793Y-102189827D01*
X130485563Y-102364586D01*
X130485564Y-102364588D01*
X130565997Y-102558769D01*
X130607000Y-102764908D01*
X130607000Y-102975092D01*
X130565997Y-103181231D01*
X130485564Y-103375412D01*
X130485563Y-103375414D01*
X130368793Y-103550173D01*
X130220173Y-103698793D01*
X130045414Y-103815563D01*
X130045413Y-103815564D01*
X130045412Y-103815564D01*
X129851231Y-103895997D01*
X129645092Y-103937000D01*
X129434908Y-103937000D01*
X129228769Y-103895997D01*
X129034588Y-103815564D01*
X129034587Y-103815564D01*
X129034586Y-103815563D01*
X128859827Y-103698793D01*
X128711207Y-103550173D01*
X128594437Y-103375414D01*
X128594436Y-103375412D01*
X128514003Y-103181231D01*
X128473000Y-102975092D01*
X128473000Y-102764908D01*
X128514003Y-102558769D01*
X128594436Y-102364588D01*
X128594437Y-102364586D01*
X128711207Y-102189827D01*
X128859827Y-102041207D01*
X129034586Y-101924437D01*
X129034588Y-101924436D01*
X129228769Y-101844003D01*
X129434908Y-101803000D01*
X129645092Y-101803000D01*
X129851231Y-101844003D01*
X129851231Y-101844003D01*
G37*
G36*
X169158228Y-100781703D02*
G01*
X169313100Y-100845853D01*
X169452481Y-100938985D01*
X169571015Y-101057519D01*
X169664147Y-101196900D01*
X169728297Y-101351772D01*
X169761000Y-101516184D01*
X169761000Y-101683816D01*
X169728297Y-101848228D01*
X169664147Y-102003100D01*
X169571015Y-102142481D01*
X169452481Y-102261015D01*
X169313100Y-102354147D01*
X169158228Y-102418297D01*
X168993816Y-102451000D01*
X168826184Y-102451000D01*
X168661772Y-102418297D01*
X168506900Y-102354147D01*
X168367519Y-102261015D01*
X168248985Y-102142481D01*
X168155853Y-102003100D01*
X168091703Y-101848228D01*
X168059000Y-101683816D01*
X168059000Y-101516184D01*
X168091703Y-101351772D01*
X168155853Y-101196900D01*
X168248985Y-101057519D01*
X168367519Y-100938985D01*
X168506900Y-100845853D01*
X168661772Y-100781703D01*
X168826184Y-100749000D01*
X168993816Y-100749000D01*
X169158228Y-100781703D01*
X169158228Y-100781703D01*
G37*
G36*
X161456823Y-100761313D02*
G01*
X161617242Y-100809976D01*
X161684361Y-100845852D01*
X161765078Y-100888996D01*
X161894659Y-100995341D01*
X162001004Y-101124922D01*
X162001005Y-101124924D01*
X162080024Y-101272758D01*
X162128687Y-101433177D01*
X162145117Y-101600000D01*
X162128687Y-101766823D01*
X162080024Y-101927242D01*
X162039477Y-102003100D01*
X162001004Y-102075078D01*
X161894659Y-102204659D01*
X161765078Y-102311004D01*
X161765076Y-102311005D01*
X161617242Y-102390024D01*
X161456823Y-102438687D01*
X161331804Y-102451000D01*
X161248196Y-102451000D01*
X161123177Y-102438687D01*
X160962758Y-102390024D01*
X160814924Y-102311005D01*
X160814922Y-102311004D01*
X160685341Y-102204659D01*
X160578996Y-102075078D01*
X160540523Y-102003100D01*
X160499976Y-101927242D01*
X160451313Y-101766823D01*
X160434883Y-101600000D01*
X160451313Y-101433177D01*
X160499976Y-101272758D01*
X160578995Y-101124924D01*
X160578996Y-101124922D01*
X160685341Y-100995341D01*
X160814922Y-100888996D01*
X160895639Y-100845852D01*
X160962758Y-100809976D01*
X161123177Y-100761313D01*
X161248196Y-100749000D01*
X161331804Y-100749000D01*
X161456823Y-100761313D01*
X161456823Y-100761313D01*
G37*
G36*
X132391231Y-99304003D02*
G01*
X132585412Y-99384436D01*
X132585414Y-99384437D01*
X132760173Y-99501207D01*
X132908793Y-99649827D01*
X133025563Y-99824586D01*
X133025564Y-99824588D01*
X133105997Y-100018769D01*
X133147000Y-100224908D01*
X133147000Y-100435092D01*
X133105997Y-100641231D01*
X133047811Y-100781703D01*
X133025563Y-100835414D01*
X132908793Y-101010173D01*
X132760173Y-101158793D01*
X132585414Y-101275563D01*
X132585413Y-101275564D01*
X132585412Y-101275564D01*
X132391231Y-101355997D01*
X132185092Y-101397000D01*
X131974908Y-101397000D01*
X131768769Y-101355997D01*
X131574588Y-101275564D01*
X131574587Y-101275564D01*
X131574586Y-101275563D01*
X131399827Y-101158793D01*
X131251207Y-101010173D01*
X131134437Y-100835414D01*
X131112189Y-100781703D01*
X131054003Y-100641231D01*
X131013000Y-100435092D01*
X131013000Y-100224908D01*
X131054003Y-100018769D01*
X131134436Y-99824588D01*
X131134437Y-99824586D01*
X131251207Y-99649827D01*
X131399827Y-99501207D01*
X131574586Y-99384437D01*
X131574588Y-99384436D01*
X131768769Y-99304003D01*
X131974908Y-99263000D01*
X132185092Y-99263000D01*
X132391231Y-99304003D01*
X132391231Y-99304003D01*
G37*
G36*
X129851231Y-99304003D02*
G01*
X130045412Y-99384436D01*
X130045414Y-99384437D01*
X130220173Y-99501207D01*
X130368793Y-99649827D01*
X130485563Y-99824586D01*
X130485564Y-99824588D01*
X130565997Y-100018769D01*
X130607000Y-100224908D01*
X130607000Y-100435092D01*
X130565997Y-100641231D01*
X130507811Y-100781703D01*
X130485563Y-100835414D01*
X130368793Y-101010173D01*
X130220173Y-101158793D01*
X130045414Y-101275563D01*
X130045413Y-101275564D01*
X130045412Y-101275564D01*
X129851231Y-101355997D01*
X129645092Y-101397000D01*
X129434908Y-101397000D01*
X129228769Y-101355997D01*
X129034588Y-101275564D01*
X129034587Y-101275564D01*
X129034586Y-101275563D01*
X128859827Y-101158793D01*
X128711207Y-101010173D01*
X128594437Y-100835414D01*
X128572189Y-100781703D01*
X128514003Y-100641231D01*
X128473000Y-100435092D01*
X128473000Y-100224908D01*
X128514003Y-100018769D01*
X128594436Y-99824588D01*
X128594437Y-99824586D01*
X128711207Y-99649827D01*
X128859827Y-99501207D01*
X129034586Y-99384437D01*
X129034588Y-99384436D01*
X129228769Y-99304003D01*
X129434908Y-99263000D01*
X129645092Y-99263000D01*
X129851231Y-99304003D01*
X129851231Y-99304003D01*
G37*
G36*
X129851231Y-96764003D02*
G01*
X130045412Y-96844436D01*
X130045414Y-96844437D01*
X130220173Y-96961207D01*
X130368793Y-97109827D01*
X130485563Y-97284586D01*
X130485564Y-97284588D01*
X130565997Y-97478769D01*
X130607000Y-97684908D01*
X130607000Y-97895092D01*
X130565997Y-98101231D01*
X130485564Y-98295412D01*
X130485563Y-98295414D01*
X130368793Y-98470173D01*
X130220173Y-98618793D01*
X130045414Y-98735563D01*
X130045413Y-98735564D01*
X130045412Y-98735564D01*
X129851231Y-98815997D01*
X129645092Y-98857000D01*
X129434908Y-98857000D01*
X129228769Y-98815997D01*
X129034588Y-98735564D01*
X129034587Y-98735564D01*
X129034586Y-98735563D01*
X128859827Y-98618793D01*
X128711207Y-98470173D01*
X128594437Y-98295414D01*
X128594436Y-98295412D01*
X128514003Y-98101231D01*
X128473000Y-97895092D01*
X128473000Y-97684908D01*
X128514003Y-97478769D01*
X128594436Y-97284588D01*
X128594437Y-97284586D01*
X128711207Y-97109827D01*
X128859827Y-96961207D01*
X129034586Y-96844437D01*
X129034588Y-96844436D01*
X129228769Y-96764003D01*
X129434908Y-96723000D01*
X129645092Y-96723000D01*
X129851231Y-96764003D01*
X129851231Y-96764003D01*
G37*
G36*
X132391231Y-96764003D02*
G01*
X132585412Y-96844436D01*
X132585414Y-96844437D01*
X132760173Y-96961207D01*
X132908793Y-97109827D01*
X133025563Y-97284586D01*
X133025564Y-97284588D01*
X133105997Y-97478769D01*
X133147000Y-97684908D01*
X133147000Y-97895092D01*
X133105997Y-98101231D01*
X133025564Y-98295412D01*
X133025563Y-98295414D01*
X132908793Y-98470173D01*
X132760173Y-98618793D01*
X132585414Y-98735563D01*
X132585413Y-98735564D01*
X132585412Y-98735564D01*
X132391231Y-98815997D01*
X132185092Y-98857000D01*
X131974908Y-98857000D01*
X131768769Y-98815997D01*
X131574588Y-98735564D01*
X131574587Y-98735564D01*
X131574586Y-98735563D01*
X131399827Y-98618793D01*
X131251207Y-98470173D01*
X131134437Y-98295414D01*
X131134436Y-98295412D01*
X131054003Y-98101231D01*
X131013000Y-97895092D01*
X131013000Y-97684908D01*
X131054003Y-97478769D01*
X131134436Y-97284588D01*
X131134437Y-97284586D01*
X131251207Y-97109827D01*
X131399827Y-96961207D01*
X131574586Y-96844437D01*
X131574588Y-96844436D01*
X131768769Y-96764003D01*
X131974908Y-96723000D01*
X132185092Y-96723000D01*
X132391231Y-96764003D01*
X132391231Y-96764003D01*
G37*
G36*
X129851231Y-94224003D02*
G01*
X130045412Y-94304436D01*
X130045414Y-94304437D01*
X130220173Y-94421207D01*
X130368793Y-94569827D01*
X130438396Y-94673996D01*
X130485564Y-94744588D01*
X130565997Y-94938769D01*
X130607000Y-95144908D01*
X130607000Y-95355092D01*
X130565997Y-95561231D01*
X130485564Y-95755412D01*
X130485563Y-95755414D01*
X130368793Y-95930173D01*
X130220173Y-96078793D01*
X130045414Y-96195563D01*
X130045413Y-96195564D01*
X130045412Y-96195564D01*
X129851231Y-96275997D01*
X129645092Y-96317000D01*
X129434908Y-96317000D01*
X129228769Y-96275997D01*
X129034588Y-96195564D01*
X129034587Y-96195564D01*
X129034586Y-96195563D01*
X128859827Y-96078793D01*
X128711207Y-95930173D01*
X128594437Y-95755414D01*
X128594436Y-95755412D01*
X128514003Y-95561231D01*
X128473000Y-95355092D01*
X128473000Y-95144908D01*
X128514003Y-94938769D01*
X128594436Y-94744588D01*
X128641604Y-94673996D01*
X128711207Y-94569827D01*
X128859827Y-94421207D01*
X129034586Y-94304437D01*
X129034588Y-94304436D01*
X129228769Y-94224003D01*
X129434908Y-94183000D01*
X129645092Y-94183000D01*
X129851231Y-94224003D01*
X129851231Y-94224003D01*
G37*
G36*
X132391231Y-94224003D02*
G01*
X132585412Y-94304436D01*
X132585414Y-94304437D01*
X132760173Y-94421207D01*
X132908793Y-94569827D01*
X132978396Y-94673996D01*
X133025564Y-94744588D01*
X133105997Y-94938769D01*
X133147000Y-95144908D01*
X133147000Y-95355092D01*
X133105997Y-95561231D01*
X133025564Y-95755412D01*
X133025563Y-95755414D01*
X132908793Y-95930173D01*
X132760173Y-96078793D01*
X132585414Y-96195563D01*
X132585413Y-96195564D01*
X132585412Y-96195564D01*
X132391231Y-96275997D01*
X132185092Y-96317000D01*
X131974908Y-96317000D01*
X131768769Y-96275997D01*
X131574588Y-96195564D01*
X131574587Y-96195564D01*
X131574586Y-96195563D01*
X131399827Y-96078793D01*
X131251207Y-95930173D01*
X131134437Y-95755414D01*
X131134436Y-95755412D01*
X131054003Y-95561231D01*
X131013000Y-95355092D01*
X131013000Y-95144908D01*
X131054003Y-94938769D01*
X131134436Y-94744588D01*
X131181604Y-94673996D01*
X131251207Y-94569827D01*
X131399827Y-94421207D01*
X131574586Y-94304437D01*
X131574588Y-94304436D01*
X131768769Y-94224003D01*
X131974908Y-94183000D01*
X132185092Y-94183000D01*
X132391231Y-94224003D01*
X132391231Y-94224003D01*
G37*
G36*
X143941231Y-92622003D02*
G01*
X144135412Y-92702436D01*
X144135414Y-92702437D01*
X144310173Y-92819207D01*
X144458793Y-92967827D01*
X144575563Y-93142586D01*
X144575564Y-93142588D01*
X144655997Y-93336769D01*
X144697000Y-93542908D01*
X144697000Y-93753092D01*
X144655997Y-93959231D01*
X144575564Y-94153412D01*
X144575563Y-94153414D01*
X144458793Y-94328173D01*
X144310173Y-94476793D01*
X144135414Y-94593563D01*
X144135413Y-94593564D01*
X144135412Y-94593564D01*
X143941231Y-94673997D01*
X143735092Y-94715000D01*
X143524908Y-94715000D01*
X143318769Y-94673997D01*
X143124588Y-94593564D01*
X143124587Y-94593564D01*
X143124586Y-94593563D01*
X142949827Y-94476793D01*
X142801207Y-94328173D01*
X142684437Y-94153414D01*
X142684436Y-94153412D01*
X142604003Y-93959231D01*
X142563000Y-93753092D01*
X142563000Y-93542908D01*
X142604003Y-93336769D01*
X142684436Y-93142588D01*
X142684437Y-93142586D01*
X142801207Y-92967827D01*
X142949827Y-92819207D01*
X143124586Y-92702437D01*
X143124588Y-92702436D01*
X143318769Y-92622003D01*
X143524908Y-92581000D01*
X143735092Y-92581000D01*
X143941231Y-92622003D01*
X143941231Y-92622003D01*
G37*
G36*
X146441231Y-92622003D02*
G01*
X146635412Y-92702436D01*
X146635414Y-92702437D01*
X146810173Y-92819207D01*
X146958793Y-92967827D01*
X147075563Y-93142586D01*
X147075564Y-93142588D01*
X147155997Y-93336769D01*
X147197000Y-93542908D01*
X147197000Y-93753092D01*
X147155997Y-93959231D01*
X147075564Y-94153412D01*
X147075563Y-94153414D01*
X146958793Y-94328173D01*
X146810173Y-94476793D01*
X146635414Y-94593563D01*
X146635413Y-94593564D01*
X146635412Y-94593564D01*
X146441231Y-94673997D01*
X146235092Y-94715000D01*
X146024908Y-94715000D01*
X145818769Y-94673997D01*
X145624588Y-94593564D01*
X145624587Y-94593564D01*
X145624586Y-94593563D01*
X145449827Y-94476793D01*
X145301207Y-94328173D01*
X145184437Y-94153414D01*
X145184436Y-94153412D01*
X145104003Y-93959231D01*
X145063000Y-93753092D01*
X145063000Y-93542908D01*
X145104003Y-93336769D01*
X145184436Y-93142588D01*
X145184437Y-93142586D01*
X145301207Y-92967827D01*
X145449827Y-92819207D01*
X145624586Y-92702437D01*
X145624588Y-92702436D01*
X145818769Y-92622003D01*
X146024908Y-92581000D01*
X146235092Y-92581000D01*
X146441231Y-92622003D01*
X146441231Y-92622003D01*
G37*
G36*
X148941231Y-92622003D02*
G01*
X149135412Y-92702436D01*
X149135414Y-92702437D01*
X149310173Y-92819207D01*
X149458793Y-92967827D01*
X149575563Y-93142586D01*
X149575564Y-93142588D01*
X149655997Y-93336769D01*
X149697000Y-93542908D01*
X149697000Y-93753092D01*
X149655997Y-93959231D01*
X149575564Y-94153412D01*
X149575563Y-94153414D01*
X149458793Y-94328173D01*
X149310173Y-94476793D01*
X149135414Y-94593563D01*
X149135413Y-94593564D01*
X149135412Y-94593564D01*
X148941231Y-94673997D01*
X148735092Y-94715000D01*
X148524908Y-94715000D01*
X148318769Y-94673997D01*
X148124588Y-94593564D01*
X148124587Y-94593564D01*
X148124586Y-94593563D01*
X147949827Y-94476793D01*
X147801207Y-94328173D01*
X147684437Y-94153414D01*
X147684436Y-94153412D01*
X147604003Y-93959231D01*
X147563000Y-93753092D01*
X147563000Y-93542908D01*
X147604003Y-93336769D01*
X147684436Y-93142588D01*
X147684437Y-93142586D01*
X147801207Y-92967827D01*
X147949827Y-92819207D01*
X148124586Y-92702437D01*
X148124588Y-92702436D01*
X148318769Y-92622003D01*
X148524908Y-92581000D01*
X148735092Y-92581000D01*
X148941231Y-92622003D01*
X148941231Y-92622003D01*
G37*
G36*
X151441231Y-92622003D02*
G01*
X151635412Y-92702436D01*
X151635414Y-92702437D01*
X151810173Y-92819207D01*
X151958793Y-92967827D01*
X152075563Y-93142586D01*
X152075564Y-93142588D01*
X152155997Y-93336769D01*
X152197000Y-93542908D01*
X152197000Y-93753092D01*
X152155997Y-93959231D01*
X152075564Y-94153412D01*
X152075563Y-94153414D01*
X151958793Y-94328173D01*
X151810173Y-94476793D01*
X151635414Y-94593563D01*
X151635413Y-94593564D01*
X151635412Y-94593564D01*
X151441231Y-94673997D01*
X151235092Y-94715000D01*
X151024908Y-94715000D01*
X150818769Y-94673997D01*
X150624588Y-94593564D01*
X150624587Y-94593564D01*
X150624586Y-94593563D01*
X150449827Y-94476793D01*
X150301207Y-94328173D01*
X150184437Y-94153414D01*
X150184436Y-94153412D01*
X150104003Y-93959231D01*
X150063000Y-93753092D01*
X150063000Y-93542908D01*
X150104003Y-93336769D01*
X150184436Y-93142588D01*
X150184437Y-93142586D01*
X150301207Y-92967827D01*
X150449827Y-92819207D01*
X150624586Y-92702437D01*
X150624588Y-92702436D01*
X150818769Y-92622003D01*
X151024908Y-92581000D01*
X151235092Y-92581000D01*
X151441231Y-92622003D01*
X151441231Y-92622003D01*
G37*
G36*
X153941231Y-92622003D02*
G01*
X154135412Y-92702436D01*
X154135414Y-92702437D01*
X154310173Y-92819207D01*
X154458793Y-92967827D01*
X154575563Y-93142586D01*
X154575564Y-93142588D01*
X154655997Y-93336769D01*
X154697000Y-93542908D01*
X154697000Y-93753092D01*
X154655997Y-93959231D01*
X154575564Y-94153412D01*
X154575563Y-94153414D01*
X154458793Y-94328173D01*
X154310173Y-94476793D01*
X154135414Y-94593563D01*
X154135413Y-94593564D01*
X154135412Y-94593564D01*
X153941231Y-94673997D01*
X153735092Y-94715000D01*
X153524908Y-94715000D01*
X153318769Y-94673997D01*
X153124588Y-94593564D01*
X153124587Y-94593564D01*
X153124586Y-94593563D01*
X152949827Y-94476793D01*
X152801207Y-94328173D01*
X152684437Y-94153414D01*
X152684436Y-94153412D01*
X152604003Y-93959231D01*
X152563000Y-93753092D01*
X152563000Y-93542908D01*
X152604003Y-93336769D01*
X152684436Y-93142588D01*
X152684437Y-93142586D01*
X152801207Y-92967827D01*
X152949827Y-92819207D01*
X153124586Y-92702437D01*
X153124588Y-92702436D01*
X153318769Y-92622003D01*
X153524908Y-92581000D01*
X153735092Y-92581000D01*
X153941231Y-92622003D01*
X153941231Y-92622003D01*
G37*
G36*
X156441231Y-92622003D02*
G01*
X156635412Y-92702436D01*
X156635414Y-92702437D01*
X156810173Y-92819207D01*
X156958793Y-92967827D01*
X157075563Y-93142586D01*
X157075564Y-93142588D01*
X157155997Y-93336769D01*
X157197000Y-93542908D01*
X157197000Y-93753092D01*
X157155997Y-93959231D01*
X157075564Y-94153412D01*
X157075563Y-94153414D01*
X156958793Y-94328173D01*
X156810173Y-94476793D01*
X156635414Y-94593563D01*
X156635413Y-94593564D01*
X156635412Y-94593564D01*
X156441231Y-94673997D01*
X156235092Y-94715000D01*
X156024908Y-94715000D01*
X155818769Y-94673997D01*
X155624588Y-94593564D01*
X155624587Y-94593564D01*
X155624586Y-94593563D01*
X155449827Y-94476793D01*
X155301207Y-94328173D01*
X155184437Y-94153414D01*
X155184436Y-94153412D01*
X155104003Y-93959231D01*
X155063000Y-93753092D01*
X155063000Y-93542908D01*
X155104003Y-93336769D01*
X155184436Y-93142588D01*
X155184437Y-93142586D01*
X155301207Y-92967827D01*
X155449827Y-92819207D01*
X155624586Y-92702437D01*
X155624588Y-92702436D01*
X155818769Y-92622003D01*
X156024908Y-92581000D01*
X156235092Y-92581000D01*
X156441231Y-92622003D01*
X156441231Y-92622003D01*
G37*
G36*
X161441231Y-92622003D02*
G01*
X161635412Y-92702436D01*
X161635414Y-92702437D01*
X161810173Y-92819207D01*
X161958793Y-92967827D01*
X162075563Y-93142586D01*
X162075564Y-93142588D01*
X162155997Y-93336769D01*
X162197000Y-93542908D01*
X162197000Y-93753092D01*
X162155997Y-93959231D01*
X162075564Y-94153412D01*
X162075563Y-94153414D01*
X161958793Y-94328173D01*
X161810173Y-94476793D01*
X161635414Y-94593563D01*
X161635413Y-94593564D01*
X161635412Y-94593564D01*
X161441231Y-94673997D01*
X161235092Y-94715000D01*
X161024908Y-94715000D01*
X160818769Y-94673997D01*
X160624588Y-94593564D01*
X160624587Y-94593564D01*
X160624586Y-94593563D01*
X160449827Y-94476793D01*
X160301207Y-94328173D01*
X160184437Y-94153414D01*
X160184436Y-94153412D01*
X160104003Y-93959231D01*
X160063000Y-93753092D01*
X160063000Y-93542908D01*
X160104003Y-93336769D01*
X160184436Y-93142588D01*
X160184437Y-93142586D01*
X160301207Y-92967827D01*
X160449827Y-92819207D01*
X160624586Y-92702437D01*
X160624588Y-92702436D01*
X160818769Y-92622003D01*
X161024908Y-92581000D01*
X161235092Y-92581000D01*
X161441231Y-92622003D01*
X161441231Y-92622003D01*
G37*
G36*
X163941231Y-92622003D02*
G01*
X164135412Y-92702436D01*
X164135414Y-92702437D01*
X164310173Y-92819207D01*
X164458793Y-92967827D01*
X164575563Y-93142586D01*
X164575564Y-93142588D01*
X164655997Y-93336769D01*
X164697000Y-93542908D01*
X164697000Y-93753092D01*
X164655997Y-93959231D01*
X164575564Y-94153412D01*
X164575563Y-94153414D01*
X164458793Y-94328173D01*
X164310173Y-94476793D01*
X164135414Y-94593563D01*
X164135413Y-94593564D01*
X164135412Y-94593564D01*
X163941231Y-94673997D01*
X163735092Y-94715000D01*
X163524908Y-94715000D01*
X163318769Y-94673997D01*
X163124588Y-94593564D01*
X163124587Y-94593564D01*
X163124586Y-94593563D01*
X162949827Y-94476793D01*
X162801207Y-94328173D01*
X162684437Y-94153414D01*
X162684436Y-94153412D01*
X162604003Y-93959231D01*
X162563000Y-93753092D01*
X162563000Y-93542908D01*
X162604003Y-93336769D01*
X162684436Y-93142588D01*
X162684437Y-93142586D01*
X162801207Y-92967827D01*
X162949827Y-92819207D01*
X163124586Y-92702437D01*
X163124588Y-92702436D01*
X163318769Y-92622003D01*
X163524908Y-92581000D01*
X163735092Y-92581000D01*
X163941231Y-92622003D01*
X163941231Y-92622003D01*
G37*
G36*
X166441231Y-92622003D02*
G01*
X166635412Y-92702436D01*
X166635414Y-92702437D01*
X166810173Y-92819207D01*
X166958793Y-92967827D01*
X167075563Y-93142586D01*
X167075564Y-93142588D01*
X167155997Y-93336769D01*
X167197000Y-93542908D01*
X167197000Y-93753092D01*
X167155997Y-93959231D01*
X167075564Y-94153412D01*
X167075563Y-94153414D01*
X166958793Y-94328173D01*
X166810173Y-94476793D01*
X166635414Y-94593563D01*
X166635413Y-94593564D01*
X166635412Y-94593564D01*
X166441231Y-94673997D01*
X166235092Y-94715000D01*
X166024908Y-94715000D01*
X165818769Y-94673997D01*
X165624588Y-94593564D01*
X165624587Y-94593564D01*
X165624586Y-94593563D01*
X165449827Y-94476793D01*
X165301207Y-94328173D01*
X165184437Y-94153414D01*
X165184436Y-94153412D01*
X165104003Y-93959231D01*
X165063000Y-93753092D01*
X165063000Y-93542908D01*
X165104003Y-93336769D01*
X165184436Y-93142588D01*
X165184437Y-93142586D01*
X165301207Y-92967827D01*
X165449827Y-92819207D01*
X165624586Y-92702437D01*
X165624588Y-92702436D01*
X165818769Y-92622003D01*
X166024908Y-92581000D01*
X166235092Y-92581000D01*
X166441231Y-92622003D01*
X166441231Y-92622003D01*
G37*
G36*
X168941231Y-92622003D02*
G01*
X169135412Y-92702436D01*
X169135414Y-92702437D01*
X169310173Y-92819207D01*
X169458793Y-92967827D01*
X169575563Y-93142586D01*
X169575564Y-93142588D01*
X169655997Y-93336769D01*
X169697000Y-93542908D01*
X169697000Y-93753092D01*
X169655997Y-93959231D01*
X169575564Y-94153412D01*
X169575563Y-94153414D01*
X169458793Y-94328173D01*
X169310173Y-94476793D01*
X169135414Y-94593563D01*
X169135413Y-94593564D01*
X169135412Y-94593564D01*
X168941231Y-94673997D01*
X168735092Y-94715000D01*
X168524908Y-94715000D01*
X168318769Y-94673997D01*
X168124588Y-94593564D01*
X168124587Y-94593564D01*
X168124586Y-94593563D01*
X167949827Y-94476793D01*
X167801207Y-94328173D01*
X167684437Y-94153414D01*
X167684436Y-94153412D01*
X167604003Y-93959231D01*
X167563000Y-93753092D01*
X167563000Y-93542908D01*
X167604003Y-93336769D01*
X167684436Y-93142588D01*
X167684437Y-93142586D01*
X167801207Y-92967827D01*
X167949827Y-92819207D01*
X168124586Y-92702437D01*
X168124588Y-92702436D01*
X168318769Y-92622003D01*
X168524908Y-92581000D01*
X168735092Y-92581000D01*
X168941231Y-92622003D01*
X168941231Y-92622003D01*
G37*
G36*
X171441231Y-92622003D02*
G01*
X171635412Y-92702436D01*
X171635414Y-92702437D01*
X171810173Y-92819207D01*
X171958793Y-92967827D01*
X172075563Y-93142586D01*
X172075564Y-93142588D01*
X172155997Y-93336769D01*
X172197000Y-93542908D01*
X172197000Y-93753092D01*
X172155997Y-93959231D01*
X172075564Y-94153412D01*
X172075563Y-94153414D01*
X171958793Y-94328173D01*
X171810173Y-94476793D01*
X171635414Y-94593563D01*
X171635413Y-94593564D01*
X171635412Y-94593564D01*
X171441231Y-94673997D01*
X171235092Y-94715000D01*
X171024908Y-94715000D01*
X170818769Y-94673997D01*
X170624588Y-94593564D01*
X170624587Y-94593564D01*
X170624586Y-94593563D01*
X170449827Y-94476793D01*
X170301207Y-94328173D01*
X170184437Y-94153414D01*
X170184436Y-94153412D01*
X170104003Y-93959231D01*
X170063000Y-93753092D01*
X170063000Y-93542908D01*
X170104003Y-93336769D01*
X170184436Y-93142588D01*
X170184437Y-93142586D01*
X170301207Y-92967827D01*
X170449827Y-92819207D01*
X170624586Y-92702437D01*
X170624588Y-92702436D01*
X170818769Y-92622003D01*
X171024908Y-92581000D01*
X171235092Y-92581000D01*
X171441231Y-92622003D01*
X171441231Y-92622003D01*
G37*
G36*
X158941231Y-92622003D02*
G01*
X159135412Y-92702436D01*
X159135414Y-92702437D01*
X159310173Y-92819207D01*
X159458793Y-92967827D01*
X159575563Y-93142586D01*
X159575564Y-93142588D01*
X159655997Y-93336769D01*
X159697000Y-93542908D01*
X159697000Y-93753092D01*
X159655997Y-93959231D01*
X159575564Y-94153412D01*
X159575563Y-94153414D01*
X159458793Y-94328173D01*
X159310173Y-94476793D01*
X159135414Y-94593563D01*
X159135413Y-94593564D01*
X159135412Y-94593564D01*
X158941231Y-94673997D01*
X158735092Y-94715000D01*
X158524908Y-94715000D01*
X158318769Y-94673997D01*
X158124588Y-94593564D01*
X158124587Y-94593564D01*
X158124586Y-94593563D01*
X157949827Y-94476793D01*
X157801207Y-94328173D01*
X157684437Y-94153414D01*
X157684436Y-94153412D01*
X157604003Y-93959231D01*
X157563000Y-93753092D01*
X157563000Y-93542908D01*
X157604003Y-93336769D01*
X157684436Y-93142588D01*
X157684437Y-93142586D01*
X157801207Y-92967827D01*
X157949827Y-92819207D01*
X158124586Y-92702437D01*
X158124588Y-92702436D01*
X158318769Y-92622003D01*
X158524908Y-92581000D01*
X158735092Y-92581000D01*
X158941231Y-92622003D01*
X158941231Y-92622003D01*
G37*
G36*
X132391231Y-91684003D02*
G01*
X132585412Y-91764436D01*
X132585414Y-91764437D01*
X132760173Y-91881207D01*
X132908793Y-92029827D01*
X132991701Y-92153908D01*
X133025564Y-92204588D01*
X133105997Y-92398769D01*
X133147000Y-92604908D01*
X133147000Y-92815092D01*
X133105997Y-93021231D01*
X133055729Y-93142588D01*
X133025563Y-93215414D01*
X132908793Y-93390173D01*
X132760173Y-93538793D01*
X132585414Y-93655563D01*
X132585413Y-93655564D01*
X132585412Y-93655564D01*
X132391231Y-93735997D01*
X132185092Y-93777000D01*
X131974908Y-93777000D01*
X131768769Y-93735997D01*
X131574588Y-93655564D01*
X131574587Y-93655564D01*
X131574586Y-93655563D01*
X131399827Y-93538793D01*
X131251207Y-93390173D01*
X131134437Y-93215414D01*
X131104271Y-93142588D01*
X131054003Y-93021231D01*
X131013000Y-92815092D01*
X131013000Y-92604908D01*
X131054003Y-92398769D01*
X131134436Y-92204588D01*
X131168299Y-92153908D01*
X131251207Y-92029827D01*
X131399827Y-91881207D01*
X131574586Y-91764437D01*
X131574588Y-91764436D01*
X131768769Y-91684003D01*
X131974908Y-91643000D01*
X132185092Y-91643000D01*
X132391231Y-91684003D01*
X132391231Y-91684003D01*
G37*
G36*
X129851231Y-91684003D02*
G01*
X130045412Y-91764436D01*
X130045414Y-91764437D01*
X130220173Y-91881207D01*
X130368793Y-92029827D01*
X130451701Y-92153908D01*
X130485564Y-92204588D01*
X130565997Y-92398769D01*
X130607000Y-92604908D01*
X130607000Y-92815092D01*
X130565997Y-93021231D01*
X130515729Y-93142588D01*
X130485563Y-93215414D01*
X130368793Y-93390173D01*
X130220173Y-93538793D01*
X130045414Y-93655563D01*
X130045413Y-93655564D01*
X130045412Y-93655564D01*
X129851231Y-93735997D01*
X129645092Y-93777000D01*
X129434908Y-93777000D01*
X129228769Y-93735997D01*
X129034588Y-93655564D01*
X129034587Y-93655564D01*
X129034586Y-93655563D01*
X128859827Y-93538793D01*
X128711207Y-93390173D01*
X128594437Y-93215414D01*
X128564271Y-93142588D01*
X128514003Y-93021231D01*
X128473000Y-92815092D01*
X128473000Y-92604908D01*
X128514003Y-92398769D01*
X128594436Y-92204588D01*
X128628299Y-92153908D01*
X128711207Y-92029827D01*
X128859827Y-91881207D01*
X129034586Y-91764437D01*
X129034588Y-91764436D01*
X129228769Y-91684003D01*
X129434908Y-91643000D01*
X129645092Y-91643000D01*
X129851231Y-91684003D01*
X129851231Y-91684003D01*
G37*
G36*
X173941231Y-91233003D02*
G01*
X174135412Y-91313436D01*
X174135414Y-91313437D01*
X174310173Y-91430207D01*
X174458793Y-91578827D01*
X174575563Y-91753586D01*
X174575564Y-91753588D01*
X174655997Y-91947769D01*
X174697000Y-92153908D01*
X174697000Y-92364092D01*
X174655997Y-92570231D01*
X174601235Y-92702436D01*
X174575563Y-92764414D01*
X174458793Y-92939173D01*
X174310173Y-93087793D01*
X174135414Y-93204563D01*
X174135413Y-93204564D01*
X174135412Y-93204564D01*
X173941231Y-93284997D01*
X173735092Y-93326000D01*
X173524908Y-93326000D01*
X173318769Y-93284997D01*
X173124588Y-93204564D01*
X173124587Y-93204564D01*
X173124586Y-93204563D01*
X172949827Y-93087793D01*
X172801207Y-92939173D01*
X172684437Y-92764414D01*
X172658765Y-92702436D01*
X172604003Y-92570231D01*
X172563000Y-92364092D01*
X172563000Y-92153908D01*
X172604003Y-91947769D01*
X172684436Y-91753588D01*
X172684437Y-91753586D01*
X172801207Y-91578827D01*
X172949827Y-91430207D01*
X173124586Y-91313437D01*
X173124588Y-91313436D01*
X173318769Y-91233003D01*
X173524908Y-91192000D01*
X173735092Y-91192000D01*
X173941231Y-91233003D01*
X173941231Y-91233003D01*
G37*
G36*
X160331231Y-89622003D02*
G01*
X160525412Y-89702436D01*
X160525414Y-89702437D01*
X160700173Y-89819207D01*
X160848793Y-89967827D01*
X160965563Y-90142586D01*
X160965564Y-90142588D01*
X161045997Y-90336769D01*
X161087000Y-90542908D01*
X161087000Y-90753092D01*
X161045997Y-90959231D01*
X160981241Y-91115564D01*
X160965563Y-91153414D01*
X160848793Y-91328173D01*
X160700173Y-91476793D01*
X160525414Y-91593563D01*
X160525413Y-91593564D01*
X160525412Y-91593564D01*
X160331231Y-91673997D01*
X160125092Y-91715000D01*
X159914908Y-91715000D01*
X159708769Y-91673997D01*
X159514588Y-91593564D01*
X159514587Y-91593564D01*
X159514586Y-91593563D01*
X159339827Y-91476793D01*
X159191207Y-91328173D01*
X159074437Y-91153414D01*
X159058759Y-91115564D01*
X158994003Y-90959231D01*
X158953000Y-90753092D01*
X158953000Y-90542908D01*
X158994003Y-90336769D01*
X159074436Y-90142588D01*
X159074437Y-90142586D01*
X159191207Y-89967827D01*
X159339827Y-89819207D01*
X159514586Y-89702437D01*
X159514588Y-89702436D01*
X159708769Y-89622003D01*
X159914908Y-89581000D01*
X160125092Y-89581000D01*
X160331231Y-89622003D01*
X160331231Y-89622003D01*
G37*
G36*
X152711231Y-89622003D02*
G01*
X152905412Y-89702436D01*
X152905414Y-89702437D01*
X153080173Y-89819207D01*
X153228793Y-89967827D01*
X153345563Y-90142586D01*
X153345564Y-90142588D01*
X153425997Y-90336769D01*
X153467000Y-90542908D01*
X153467000Y-90753092D01*
X153425997Y-90959231D01*
X153361241Y-91115564D01*
X153345563Y-91153414D01*
X153228793Y-91328173D01*
X153080173Y-91476793D01*
X152905414Y-91593563D01*
X152905413Y-91593564D01*
X152905412Y-91593564D01*
X152711231Y-91673997D01*
X152505092Y-91715000D01*
X152294908Y-91715000D01*
X152088769Y-91673997D01*
X151894588Y-91593564D01*
X151894587Y-91593564D01*
X151894586Y-91593563D01*
X151719827Y-91476793D01*
X151571207Y-91328173D01*
X151454437Y-91153414D01*
X151438759Y-91115564D01*
X151374003Y-90959231D01*
X151333000Y-90753092D01*
X151333000Y-90542908D01*
X151374003Y-90336769D01*
X151454436Y-90142588D01*
X151454437Y-90142586D01*
X151571207Y-89967827D01*
X151719827Y-89819207D01*
X151894586Y-89702437D01*
X151894588Y-89702436D01*
X152088769Y-89622003D01*
X152294908Y-89581000D01*
X152505092Y-89581000D01*
X152711231Y-89622003D01*
X152711231Y-89622003D01*
G37*
G36*
X162871231Y-89622003D02*
G01*
X163065412Y-89702436D01*
X163065414Y-89702437D01*
X163240173Y-89819207D01*
X163388793Y-89967827D01*
X163505563Y-90142586D01*
X163505564Y-90142588D01*
X163585997Y-90336769D01*
X163627000Y-90542908D01*
X163627000Y-90753092D01*
X163585997Y-90959231D01*
X163521241Y-91115564D01*
X163505563Y-91153414D01*
X163388793Y-91328173D01*
X163240173Y-91476793D01*
X163065414Y-91593563D01*
X163065413Y-91593564D01*
X163065412Y-91593564D01*
X162871231Y-91673997D01*
X162665092Y-91715000D01*
X162454908Y-91715000D01*
X162248769Y-91673997D01*
X162054588Y-91593564D01*
X162054587Y-91593564D01*
X162054586Y-91593563D01*
X161879827Y-91476793D01*
X161731207Y-91328173D01*
X161614437Y-91153414D01*
X161598759Y-91115564D01*
X161534003Y-90959231D01*
X161493000Y-90753092D01*
X161493000Y-90542908D01*
X161534003Y-90336769D01*
X161614436Y-90142588D01*
X161614437Y-90142586D01*
X161731207Y-89967827D01*
X161879827Y-89819207D01*
X162054586Y-89702437D01*
X162054588Y-89702436D01*
X162248769Y-89622003D01*
X162454908Y-89581000D01*
X162665092Y-89581000D01*
X162871231Y-89622003D01*
X162871231Y-89622003D01*
G37*
G36*
X150171231Y-89622003D02*
G01*
X150365412Y-89702436D01*
X150365414Y-89702437D01*
X150540173Y-89819207D01*
X150688793Y-89967827D01*
X150805563Y-90142586D01*
X150805564Y-90142588D01*
X150885997Y-90336769D01*
X150927000Y-90542908D01*
X150927000Y-90753092D01*
X150885997Y-90959231D01*
X150821241Y-91115564D01*
X150805563Y-91153414D01*
X150688793Y-91328173D01*
X150540173Y-91476793D01*
X150365414Y-91593563D01*
X150365413Y-91593564D01*
X150365412Y-91593564D01*
X150171231Y-91673997D01*
X149965092Y-91715000D01*
X149754908Y-91715000D01*
X149548769Y-91673997D01*
X149354588Y-91593564D01*
X149354587Y-91593564D01*
X149354586Y-91593563D01*
X149179827Y-91476793D01*
X149031207Y-91328173D01*
X148914437Y-91153414D01*
X148898759Y-91115564D01*
X148834003Y-90959231D01*
X148793000Y-90753092D01*
X148793000Y-90542908D01*
X148834003Y-90336769D01*
X148914436Y-90142588D01*
X148914437Y-90142586D01*
X149031207Y-89967827D01*
X149179827Y-89819207D01*
X149354586Y-89702437D01*
X149354588Y-89702436D01*
X149548769Y-89622003D01*
X149754908Y-89581000D01*
X149965092Y-89581000D01*
X150171231Y-89622003D01*
X150171231Y-89622003D01*
G37*
G36*
X132391231Y-89144003D02*
G01*
X132585412Y-89224436D01*
X132585414Y-89224437D01*
X132760173Y-89341207D01*
X132908793Y-89489827D01*
X133025563Y-89664586D01*
X133025564Y-89664588D01*
X133105997Y-89858769D01*
X133147000Y-90064908D01*
X133147000Y-90275092D01*
X133105997Y-90481231D01*
X133061857Y-90587793D01*
X133025563Y-90675414D01*
X132908793Y-90850173D01*
X132760173Y-90998793D01*
X132585414Y-91115563D01*
X132585413Y-91115564D01*
X132585412Y-91115564D01*
X132391231Y-91195997D01*
X132185092Y-91237000D01*
X131974908Y-91237000D01*
X131768769Y-91195997D01*
X131574588Y-91115564D01*
X131574587Y-91115564D01*
X131574586Y-91115563D01*
X131399827Y-90998793D01*
X131251207Y-90850173D01*
X131134437Y-90675414D01*
X131098143Y-90587793D01*
X131054003Y-90481231D01*
X131013000Y-90275092D01*
X131013000Y-90064908D01*
X131054003Y-89858769D01*
X131134436Y-89664588D01*
X131134437Y-89664586D01*
X131251207Y-89489827D01*
X131399827Y-89341207D01*
X131574586Y-89224437D01*
X131574588Y-89224436D01*
X131768769Y-89144003D01*
X131974908Y-89103000D01*
X132185092Y-89103000D01*
X132391231Y-89144003D01*
X132391231Y-89144003D01*
G37*
G36*
X129851231Y-89144003D02*
G01*
X130045412Y-89224436D01*
X130045414Y-89224437D01*
X130220173Y-89341207D01*
X130368793Y-89489827D01*
X130485563Y-89664586D01*
X130485564Y-89664588D01*
X130565997Y-89858769D01*
X130607000Y-90064908D01*
X130607000Y-90275092D01*
X130565997Y-90481231D01*
X130521857Y-90587793D01*
X130485563Y-90675414D01*
X130368793Y-90850173D01*
X130220173Y-90998793D01*
X130045414Y-91115563D01*
X130045413Y-91115564D01*
X130045412Y-91115564D01*
X129851231Y-91195997D01*
X129645092Y-91237000D01*
X129434908Y-91237000D01*
X129228769Y-91195997D01*
X129034588Y-91115564D01*
X129034587Y-91115564D01*
X129034586Y-91115563D01*
X128859827Y-90998793D01*
X128711207Y-90850173D01*
X128594437Y-90675414D01*
X128558143Y-90587793D01*
X128514003Y-90481231D01*
X128473000Y-90275092D01*
X128473000Y-90064908D01*
X128514003Y-89858769D01*
X128594436Y-89664588D01*
X128594437Y-89664586D01*
X128711207Y-89489827D01*
X128859827Y-89341207D01*
X129034586Y-89224437D01*
X129034588Y-89224436D01*
X129228769Y-89144003D01*
X129434908Y-89103000D01*
X129645092Y-89103000D01*
X129851231Y-89144003D01*
X129851231Y-89144003D01*
G37*
G36*
X182511000Y-91071000D02*
G01*
X180709000Y-91071000D01*
X180709000Y-89269000D01*
X182511000Y-89269000D01*
X182511000Y-91071000D01*
X182511000Y-91071000D01*
G37*
G36*
X173941231Y-88733003D02*
G01*
X174135412Y-88813436D01*
X174135414Y-88813437D01*
X174310173Y-88930207D01*
X174458793Y-89078827D01*
X174556086Y-89224437D01*
X174575564Y-89253588D01*
X174655997Y-89447769D01*
X174697000Y-89653908D01*
X174697000Y-89864092D01*
X174655997Y-90070231D01*
X174575564Y-90264412D01*
X174575563Y-90264414D01*
X174458793Y-90439173D01*
X174310173Y-90587793D01*
X174135414Y-90704563D01*
X174135413Y-90704564D01*
X174135412Y-90704564D01*
X173941231Y-90784997D01*
X173735092Y-90826000D01*
X173524908Y-90826000D01*
X173318769Y-90784997D01*
X173124588Y-90704564D01*
X173124587Y-90704564D01*
X173124586Y-90704563D01*
X172949827Y-90587793D01*
X172801207Y-90439173D01*
X172684437Y-90264414D01*
X172684436Y-90264412D01*
X172604003Y-90070231D01*
X172563000Y-89864092D01*
X172563000Y-89653908D01*
X172604003Y-89447769D01*
X172684436Y-89253588D01*
X172703914Y-89224437D01*
X172801207Y-89078827D01*
X172949827Y-88930207D01*
X173124586Y-88813437D01*
X173124588Y-88813436D01*
X173318769Y-88733003D01*
X173524908Y-88692000D01*
X173735092Y-88692000D01*
X173941231Y-88733003D01*
X173941231Y-88733003D01*
G37*
G36*
X129851231Y-86604003D02*
G01*
X130045412Y-86684436D01*
X130045414Y-86684437D01*
X130220173Y-86801207D01*
X130368793Y-86949827D01*
X130485563Y-87124586D01*
X130485564Y-87124588D01*
X130565997Y-87318769D01*
X130607000Y-87524908D01*
X130607000Y-87735092D01*
X130565997Y-87941231D01*
X130486567Y-88132991D01*
X130485563Y-88135414D01*
X130368793Y-88310173D01*
X130220173Y-88458793D01*
X130045414Y-88575563D01*
X130045413Y-88575564D01*
X130045412Y-88575564D01*
X129851231Y-88655997D01*
X129645092Y-88697000D01*
X129434908Y-88697000D01*
X129228769Y-88655997D01*
X129034588Y-88575564D01*
X129034587Y-88575564D01*
X129034586Y-88575563D01*
X128859827Y-88458793D01*
X128711207Y-88310173D01*
X128594437Y-88135414D01*
X128593433Y-88132991D01*
X128514003Y-87941231D01*
X128473000Y-87735092D01*
X128473000Y-87524908D01*
X128514003Y-87318769D01*
X128594436Y-87124588D01*
X128594437Y-87124586D01*
X128711207Y-86949827D01*
X128859827Y-86801207D01*
X129034586Y-86684437D01*
X129034588Y-86684436D01*
X129228769Y-86604003D01*
X129434908Y-86563000D01*
X129645092Y-86563000D01*
X129851231Y-86604003D01*
X129851231Y-86604003D01*
G37*
G36*
X132391231Y-86604003D02*
G01*
X132585412Y-86684436D01*
X132585414Y-86684437D01*
X132760173Y-86801207D01*
X132908793Y-86949827D01*
X133025563Y-87124586D01*
X133025564Y-87124588D01*
X133105997Y-87318769D01*
X133147000Y-87524908D01*
X133147000Y-87735092D01*
X133105997Y-87941231D01*
X133026567Y-88132991D01*
X133025563Y-88135414D01*
X132908793Y-88310173D01*
X132760173Y-88458793D01*
X132585414Y-88575563D01*
X132585413Y-88575564D01*
X132585412Y-88575564D01*
X132391231Y-88655997D01*
X132185092Y-88697000D01*
X131974908Y-88697000D01*
X131768769Y-88655997D01*
X131574588Y-88575564D01*
X131574587Y-88575564D01*
X131574586Y-88575563D01*
X131399827Y-88458793D01*
X131251207Y-88310173D01*
X131134437Y-88135414D01*
X131133433Y-88132991D01*
X131054003Y-87941231D01*
X131013000Y-87735092D01*
X131013000Y-87524908D01*
X131054003Y-87318769D01*
X131134436Y-87124588D01*
X131134437Y-87124586D01*
X131251207Y-86949827D01*
X131399827Y-86801207D01*
X131574586Y-86684437D01*
X131574588Y-86684436D01*
X131768769Y-86604003D01*
X131974908Y-86563000D01*
X132185092Y-86563000D01*
X132391231Y-86604003D01*
X132391231Y-86604003D01*
G37*
G36*
X181720442Y-86735518D02*
G01*
X181786627Y-86742037D01*
X181956466Y-86793557D01*
X182112991Y-86877222D01*
X182148729Y-86906552D01*
X182250186Y-86989814D01*
X182333448Y-87091271D01*
X182362778Y-87127009D01*
X182446443Y-87283534D01*
X182497963Y-87453373D01*
X182515359Y-87630000D01*
X182497963Y-87806627D01*
X182446443Y-87976466D01*
X182362778Y-88132991D01*
X182360791Y-88135412D01*
X182250186Y-88270186D01*
X182182175Y-88326000D01*
X182112991Y-88382778D01*
X181956466Y-88466443D01*
X181786627Y-88517963D01*
X181720442Y-88524482D01*
X181654260Y-88531000D01*
X181565740Y-88531000D01*
X181499558Y-88524482D01*
X181433373Y-88517963D01*
X181263534Y-88466443D01*
X181107009Y-88382778D01*
X181037825Y-88326000D01*
X180969814Y-88270186D01*
X180859209Y-88135412D01*
X180857222Y-88132991D01*
X180773557Y-87976466D01*
X180722037Y-87806627D01*
X180704641Y-87630000D01*
X180722037Y-87453373D01*
X180773557Y-87283534D01*
X180857222Y-87127009D01*
X180886552Y-87091271D01*
X180969814Y-86989814D01*
X181071271Y-86906552D01*
X181107009Y-86877222D01*
X181263534Y-86793557D01*
X181433373Y-86742037D01*
X181499558Y-86735518D01*
X181565740Y-86729000D01*
X181654260Y-86729000D01*
X181720442Y-86735518D01*
X181720442Y-86735518D01*
G37*
G36*
X173941231Y-86233003D02*
G01*
X174135412Y-86313436D01*
X174135414Y-86313437D01*
X174310173Y-86430207D01*
X174458793Y-86578827D01*
X174529359Y-86684437D01*
X174575564Y-86753588D01*
X174655997Y-86947769D01*
X174697000Y-87153908D01*
X174697000Y-87364092D01*
X174655997Y-87570231D01*
X174587709Y-87735092D01*
X174575563Y-87764414D01*
X174458793Y-87939173D01*
X174310173Y-88087793D01*
X174135414Y-88204563D01*
X174135413Y-88204564D01*
X174135412Y-88204564D01*
X173941231Y-88284997D01*
X173735092Y-88326000D01*
X173524908Y-88326000D01*
X173318769Y-88284997D01*
X173124588Y-88204564D01*
X173124587Y-88204564D01*
X173124586Y-88204563D01*
X172949827Y-88087793D01*
X172801207Y-87939173D01*
X172684437Y-87764414D01*
X172672291Y-87735092D01*
X172604003Y-87570231D01*
X172563000Y-87364092D01*
X172563000Y-87153908D01*
X172604003Y-86947769D01*
X172684436Y-86753588D01*
X172730641Y-86684437D01*
X172801207Y-86578827D01*
X172949827Y-86430207D01*
X173124586Y-86313437D01*
X173124588Y-86313436D01*
X173318769Y-86233003D01*
X173524908Y-86192000D01*
X173735092Y-86192000D01*
X173941231Y-86233003D01*
X173941231Y-86233003D01*
G37*
G36*
X129851231Y-84064003D02*
G01*
X130045412Y-84144436D01*
X130045414Y-84144437D01*
X130220173Y-84261207D01*
X130368793Y-84409827D01*
X130485563Y-84584586D01*
X130485564Y-84584588D01*
X130565997Y-84778769D01*
X130607000Y-84984908D01*
X130607000Y-85195092D01*
X130565997Y-85401231D01*
X130486567Y-85592991D01*
X130485563Y-85595414D01*
X130368793Y-85770173D01*
X130220173Y-85918793D01*
X130045414Y-86035563D01*
X130045413Y-86035564D01*
X130045412Y-86035564D01*
X129851231Y-86115997D01*
X129645092Y-86157000D01*
X129434908Y-86157000D01*
X129228769Y-86115997D01*
X129034588Y-86035564D01*
X129034587Y-86035564D01*
X129034586Y-86035563D01*
X128859827Y-85918793D01*
X128711207Y-85770173D01*
X128594437Y-85595414D01*
X128593433Y-85592991D01*
X128514003Y-85401231D01*
X128473000Y-85195092D01*
X128473000Y-84984908D01*
X128514003Y-84778769D01*
X128594436Y-84584588D01*
X128594437Y-84584586D01*
X128711207Y-84409827D01*
X128859827Y-84261207D01*
X129034586Y-84144437D01*
X129034588Y-84144436D01*
X129228769Y-84064003D01*
X129434908Y-84023000D01*
X129645092Y-84023000D01*
X129851231Y-84064003D01*
X129851231Y-84064003D01*
G37*
G36*
X132391231Y-84064003D02*
G01*
X132585412Y-84144436D01*
X132585414Y-84144437D01*
X132760173Y-84261207D01*
X132908793Y-84409827D01*
X133025563Y-84584586D01*
X133025564Y-84584588D01*
X133105997Y-84778769D01*
X133147000Y-84984908D01*
X133147000Y-85195092D01*
X133105997Y-85401231D01*
X133026567Y-85592991D01*
X133025563Y-85595414D01*
X132908793Y-85770173D01*
X132760173Y-85918793D01*
X132585414Y-86035563D01*
X132585413Y-86035564D01*
X132585412Y-86035564D01*
X132391231Y-86115997D01*
X132185092Y-86157000D01*
X131974908Y-86157000D01*
X131768769Y-86115997D01*
X131574588Y-86035564D01*
X131574587Y-86035564D01*
X131574586Y-86035563D01*
X131399827Y-85918793D01*
X131251207Y-85770173D01*
X131134437Y-85595414D01*
X131133433Y-85592991D01*
X131054003Y-85401231D01*
X131013000Y-85195092D01*
X131013000Y-84984908D01*
X131054003Y-84778769D01*
X131134436Y-84584588D01*
X131134437Y-84584586D01*
X131251207Y-84409827D01*
X131399827Y-84261207D01*
X131574586Y-84144437D01*
X131574588Y-84144436D01*
X131768769Y-84064003D01*
X131974908Y-84023000D01*
X132185092Y-84023000D01*
X132391231Y-84064003D01*
X132391231Y-84064003D01*
G37*
G36*
X181720442Y-84195518D02*
G01*
X181786627Y-84202037D01*
X181956466Y-84253557D01*
X182112991Y-84337222D01*
X182148729Y-84366552D01*
X182250186Y-84449814D01*
X182333448Y-84551271D01*
X182362778Y-84587009D01*
X182446443Y-84743534D01*
X182497963Y-84913373D01*
X182515359Y-85090000D01*
X182497963Y-85266627D01*
X182446443Y-85436466D01*
X182362778Y-85592991D01*
X182360791Y-85595412D01*
X182250186Y-85730186D01*
X182148729Y-85813448D01*
X182112991Y-85842778D01*
X181956466Y-85926443D01*
X181786627Y-85977963D01*
X181720442Y-85984482D01*
X181654260Y-85991000D01*
X181565740Y-85991000D01*
X181499558Y-85984482D01*
X181433373Y-85977963D01*
X181263534Y-85926443D01*
X181107009Y-85842778D01*
X181071271Y-85813448D01*
X180969814Y-85730186D01*
X180859209Y-85595412D01*
X180857222Y-85592991D01*
X180773557Y-85436466D01*
X180722037Y-85266627D01*
X180704641Y-85090000D01*
X180722037Y-84913373D01*
X180773557Y-84743534D01*
X180857222Y-84587009D01*
X180886552Y-84551271D01*
X180969814Y-84449814D01*
X181071271Y-84366552D01*
X181107009Y-84337222D01*
X181263534Y-84253557D01*
X181433373Y-84202037D01*
X181499558Y-84195518D01*
X181565740Y-84189000D01*
X181654260Y-84189000D01*
X181720442Y-84195518D01*
X181720442Y-84195518D01*
G37*
G36*
X173941231Y-83733003D02*
G01*
X174135412Y-83813436D01*
X174135414Y-83813437D01*
X174310173Y-83930207D01*
X174458793Y-84078827D01*
X174575544Y-84253558D01*
X174575564Y-84253588D01*
X174655997Y-84447769D01*
X174697000Y-84653908D01*
X174697000Y-84864092D01*
X174655997Y-85070231D01*
X174647808Y-85090000D01*
X174575563Y-85264414D01*
X174458793Y-85439173D01*
X174310173Y-85587793D01*
X174135414Y-85704563D01*
X174135413Y-85704564D01*
X174135412Y-85704564D01*
X173941231Y-85784997D01*
X173735092Y-85826000D01*
X173524908Y-85826000D01*
X173318769Y-85784997D01*
X173124588Y-85704564D01*
X173124587Y-85704564D01*
X173124586Y-85704563D01*
X172949827Y-85587793D01*
X172801207Y-85439173D01*
X172684437Y-85264414D01*
X172612192Y-85090000D01*
X172604003Y-85070231D01*
X172563000Y-84864092D01*
X172563000Y-84653908D01*
X172604003Y-84447769D01*
X172684436Y-84253588D01*
X172684456Y-84253558D01*
X172801207Y-84078827D01*
X172949827Y-83930207D01*
X173124586Y-83813437D01*
X173124588Y-83813436D01*
X173318769Y-83733003D01*
X173524908Y-83692000D01*
X173735092Y-83692000D01*
X173941231Y-83733003D01*
X173941231Y-83733003D01*
G37*
G36*
X181720443Y-81655519D02*
G01*
X181786627Y-81662037D01*
X181956466Y-81713557D01*
X182112991Y-81797222D01*
X182148729Y-81826552D01*
X182250186Y-81909814D01*
X182333448Y-82011271D01*
X182362778Y-82047009D01*
X182446443Y-82203534D01*
X182497963Y-82373373D01*
X182515359Y-82550000D01*
X182497963Y-82726627D01*
X182446443Y-82896466D01*
X182362778Y-83052991D01*
X182334217Y-83087793D01*
X182250186Y-83190186D01*
X182148729Y-83273448D01*
X182112991Y-83302778D01*
X181956466Y-83386443D01*
X181786627Y-83437963D01*
X181720443Y-83444481D01*
X181654260Y-83451000D01*
X181565740Y-83451000D01*
X181499557Y-83444481D01*
X181433373Y-83437963D01*
X181263534Y-83386443D01*
X181107009Y-83302778D01*
X181071271Y-83273448D01*
X180969814Y-83190186D01*
X180885783Y-83087793D01*
X180857222Y-83052991D01*
X180773557Y-82896466D01*
X180722037Y-82726627D01*
X180704641Y-82550000D01*
X180722037Y-82373373D01*
X180773557Y-82203534D01*
X180857222Y-82047009D01*
X180886552Y-82011271D01*
X180969814Y-81909814D01*
X181071271Y-81826552D01*
X181107009Y-81797222D01*
X181263534Y-81713557D01*
X181433373Y-81662037D01*
X181499557Y-81655519D01*
X181565740Y-81649000D01*
X181654260Y-81649000D01*
X181720443Y-81655519D01*
X181720443Y-81655519D01*
G37*
G36*
X173941231Y-81233003D02*
G01*
X174135412Y-81313436D01*
X174135414Y-81313437D01*
X174310173Y-81430207D01*
X174458793Y-81578827D01*
X174548817Y-81713558D01*
X174575564Y-81753588D01*
X174655997Y-81947769D01*
X174697000Y-82153908D01*
X174697000Y-82364092D01*
X174655997Y-82570231D01*
X174591216Y-82726625D01*
X174575563Y-82764414D01*
X174458793Y-82939173D01*
X174310173Y-83087793D01*
X174135414Y-83204563D01*
X174135413Y-83204564D01*
X174135412Y-83204564D01*
X173941231Y-83284997D01*
X173735092Y-83326000D01*
X173524908Y-83326000D01*
X173318769Y-83284997D01*
X173124588Y-83204564D01*
X173124587Y-83204564D01*
X173124586Y-83204563D01*
X172949827Y-83087793D01*
X172801207Y-82939173D01*
X172684437Y-82764414D01*
X172668784Y-82726625D01*
X172604003Y-82570231D01*
X172563000Y-82364092D01*
X172563000Y-82153908D01*
X172604003Y-81947769D01*
X172684436Y-81753588D01*
X172711183Y-81713558D01*
X172801207Y-81578827D01*
X172949827Y-81430207D01*
X173124586Y-81313437D01*
X173124588Y-81313436D01*
X173318769Y-81233003D01*
X173524908Y-81192000D01*
X173735092Y-81192000D01*
X173941231Y-81233003D01*
X173941231Y-81233003D01*
G37*
G36*
X181720443Y-79115519D02*
G01*
X181786627Y-79122037D01*
X181956466Y-79173557D01*
X182112991Y-79257222D01*
X182148729Y-79286552D01*
X182250186Y-79369814D01*
X182314160Y-79447768D01*
X182362778Y-79507009D01*
X182446443Y-79663534D01*
X182497963Y-79833373D01*
X182515359Y-80010000D01*
X182497963Y-80186627D01*
X182446443Y-80356466D01*
X182362778Y-80512991D01*
X182333448Y-80548729D01*
X182250186Y-80650186D01*
X182148729Y-80733448D01*
X182112991Y-80762778D01*
X181956466Y-80846443D01*
X181786627Y-80897963D01*
X181720442Y-80904482D01*
X181654260Y-80911000D01*
X181565740Y-80911000D01*
X181499558Y-80904482D01*
X181433373Y-80897963D01*
X181263534Y-80846443D01*
X181107009Y-80762778D01*
X181071271Y-80733448D01*
X180969814Y-80650186D01*
X180886552Y-80548729D01*
X180857222Y-80512991D01*
X180773557Y-80356466D01*
X180722037Y-80186627D01*
X180704641Y-80010000D01*
X180722037Y-79833373D01*
X180773557Y-79663534D01*
X180857222Y-79507009D01*
X180905840Y-79447768D01*
X180969814Y-79369814D01*
X181071271Y-79286552D01*
X181107009Y-79257222D01*
X181263534Y-79173557D01*
X181433373Y-79122037D01*
X181499557Y-79115519D01*
X181565740Y-79109000D01*
X181654260Y-79109000D01*
X181720443Y-79115519D01*
X181720443Y-79115519D01*
G37*
G36*
X173941231Y-78733003D02*
G01*
X174135412Y-78813436D01*
X174135414Y-78813437D01*
X174310173Y-78930207D01*
X174458793Y-79078827D01*
X174575563Y-79253586D01*
X174575564Y-79253588D01*
X174655997Y-79447769D01*
X174697000Y-79653908D01*
X174697000Y-79864092D01*
X174655997Y-80070231D01*
X174607784Y-80186627D01*
X174575563Y-80264414D01*
X174458793Y-80439173D01*
X174310173Y-80587793D01*
X174135414Y-80704563D01*
X174135413Y-80704564D01*
X174135412Y-80704564D01*
X173941231Y-80784997D01*
X173735092Y-80826000D01*
X173524908Y-80826000D01*
X173318769Y-80784997D01*
X173124588Y-80704564D01*
X173124587Y-80704564D01*
X173124586Y-80704563D01*
X172949827Y-80587793D01*
X172801207Y-80439173D01*
X172684437Y-80264414D01*
X172652216Y-80186627D01*
X172604003Y-80070231D01*
X172563000Y-79864092D01*
X172563000Y-79653908D01*
X172604003Y-79447769D01*
X172684436Y-79253588D01*
X172684437Y-79253586D01*
X172801207Y-79078827D01*
X172949827Y-78930207D01*
X173124586Y-78813437D01*
X173124588Y-78813436D01*
X173318769Y-78733003D01*
X173524908Y-78692000D01*
X173735092Y-78692000D01*
X173941231Y-78733003D01*
X173941231Y-78733003D01*
G37*
G36*
X156441231Y-77122003D02*
G01*
X156635412Y-77202436D01*
X156635414Y-77202437D01*
X156810173Y-77319207D01*
X156958793Y-77467827D01*
X157075563Y-77642586D01*
X157075564Y-77642588D01*
X157155997Y-77836769D01*
X157197000Y-78042908D01*
X157197000Y-78253092D01*
X157155997Y-78459231D01*
X157075564Y-78653412D01*
X157075563Y-78653414D01*
X156958793Y-78828173D01*
X156810173Y-78976793D01*
X156635414Y-79093563D01*
X156635413Y-79093564D01*
X156635412Y-79093564D01*
X156441231Y-79173997D01*
X156235092Y-79215000D01*
X156024908Y-79215000D01*
X155818769Y-79173997D01*
X155624588Y-79093564D01*
X155624587Y-79093564D01*
X155624586Y-79093563D01*
X155449827Y-78976793D01*
X155301207Y-78828173D01*
X155184437Y-78653414D01*
X155184436Y-78653412D01*
X155104003Y-78459231D01*
X155063000Y-78253092D01*
X155063000Y-78042908D01*
X155104003Y-77836769D01*
X155184436Y-77642588D01*
X155184437Y-77642586D01*
X155301207Y-77467827D01*
X155449827Y-77319207D01*
X155624586Y-77202437D01*
X155624588Y-77202436D01*
X155818769Y-77122003D01*
X156024908Y-77081000D01*
X156235092Y-77081000D01*
X156441231Y-77122003D01*
X156441231Y-77122003D01*
G37*
G36*
X171441231Y-77122003D02*
G01*
X171635412Y-77202436D01*
X171635414Y-77202437D01*
X171810173Y-77319207D01*
X171958793Y-77467827D01*
X172075563Y-77642586D01*
X172075564Y-77642588D01*
X172155997Y-77836769D01*
X172197000Y-78042908D01*
X172197000Y-78253092D01*
X172155997Y-78459231D01*
X172075564Y-78653412D01*
X172075563Y-78653414D01*
X171958793Y-78828173D01*
X171810173Y-78976793D01*
X171635414Y-79093563D01*
X171635413Y-79093564D01*
X171635412Y-79093564D01*
X171441231Y-79173997D01*
X171235092Y-79215000D01*
X171024908Y-79215000D01*
X170818769Y-79173997D01*
X170624588Y-79093564D01*
X170624587Y-79093564D01*
X170624586Y-79093563D01*
X170449827Y-78976793D01*
X170301207Y-78828173D01*
X170184437Y-78653414D01*
X170184436Y-78653412D01*
X170104003Y-78459231D01*
X170063000Y-78253092D01*
X170063000Y-78042908D01*
X170104003Y-77836769D01*
X170184436Y-77642588D01*
X170184437Y-77642586D01*
X170301207Y-77467827D01*
X170449827Y-77319207D01*
X170624586Y-77202437D01*
X170624588Y-77202436D01*
X170818769Y-77122003D01*
X171024908Y-77081000D01*
X171235092Y-77081000D01*
X171441231Y-77122003D01*
X171441231Y-77122003D01*
G37*
G36*
X168941231Y-77122003D02*
G01*
X169135412Y-77202436D01*
X169135414Y-77202437D01*
X169310173Y-77319207D01*
X169458793Y-77467827D01*
X169575563Y-77642586D01*
X169575564Y-77642588D01*
X169655997Y-77836769D01*
X169697000Y-78042908D01*
X169697000Y-78253092D01*
X169655997Y-78459231D01*
X169575564Y-78653412D01*
X169575563Y-78653414D01*
X169458793Y-78828173D01*
X169310173Y-78976793D01*
X169135414Y-79093563D01*
X169135413Y-79093564D01*
X169135412Y-79093564D01*
X168941231Y-79173997D01*
X168735092Y-79215000D01*
X168524908Y-79215000D01*
X168318769Y-79173997D01*
X168124588Y-79093564D01*
X168124587Y-79093564D01*
X168124586Y-79093563D01*
X167949827Y-78976793D01*
X167801207Y-78828173D01*
X167684437Y-78653414D01*
X167684436Y-78653412D01*
X167604003Y-78459231D01*
X167563000Y-78253092D01*
X167563000Y-78042908D01*
X167604003Y-77836769D01*
X167684436Y-77642588D01*
X167684437Y-77642586D01*
X167801207Y-77467827D01*
X167949827Y-77319207D01*
X168124586Y-77202437D01*
X168124588Y-77202436D01*
X168318769Y-77122003D01*
X168524908Y-77081000D01*
X168735092Y-77081000D01*
X168941231Y-77122003D01*
X168941231Y-77122003D01*
G37*
G36*
X166441231Y-77122003D02*
G01*
X166635412Y-77202436D01*
X166635414Y-77202437D01*
X166810173Y-77319207D01*
X166958793Y-77467827D01*
X167075563Y-77642586D01*
X167075564Y-77642588D01*
X167155997Y-77836769D01*
X167197000Y-78042908D01*
X167197000Y-78253092D01*
X167155997Y-78459231D01*
X167075564Y-78653412D01*
X167075563Y-78653414D01*
X166958793Y-78828173D01*
X166810173Y-78976793D01*
X166635414Y-79093563D01*
X166635413Y-79093564D01*
X166635412Y-79093564D01*
X166441231Y-79173997D01*
X166235092Y-79215000D01*
X166024908Y-79215000D01*
X165818769Y-79173997D01*
X165624588Y-79093564D01*
X165624587Y-79093564D01*
X165624586Y-79093563D01*
X165449827Y-78976793D01*
X165301207Y-78828173D01*
X165184437Y-78653414D01*
X165184436Y-78653412D01*
X165104003Y-78459231D01*
X165063000Y-78253092D01*
X165063000Y-78042908D01*
X165104003Y-77836769D01*
X165184436Y-77642588D01*
X165184437Y-77642586D01*
X165301207Y-77467827D01*
X165449827Y-77319207D01*
X165624586Y-77202437D01*
X165624588Y-77202436D01*
X165818769Y-77122003D01*
X166024908Y-77081000D01*
X166235092Y-77081000D01*
X166441231Y-77122003D01*
X166441231Y-77122003D01*
G37*
G36*
X163941231Y-77122003D02*
G01*
X164135412Y-77202436D01*
X164135414Y-77202437D01*
X164310173Y-77319207D01*
X164458793Y-77467827D01*
X164575563Y-77642586D01*
X164575564Y-77642588D01*
X164655997Y-77836769D01*
X164697000Y-78042908D01*
X164697000Y-78253092D01*
X164655997Y-78459231D01*
X164575564Y-78653412D01*
X164575563Y-78653414D01*
X164458793Y-78828173D01*
X164310173Y-78976793D01*
X164135414Y-79093563D01*
X164135413Y-79093564D01*
X164135412Y-79093564D01*
X163941231Y-79173997D01*
X163735092Y-79215000D01*
X163524908Y-79215000D01*
X163318769Y-79173997D01*
X163124588Y-79093564D01*
X163124587Y-79093564D01*
X163124586Y-79093563D01*
X162949827Y-78976793D01*
X162801207Y-78828173D01*
X162684437Y-78653414D01*
X162684436Y-78653412D01*
X162604003Y-78459231D01*
X162563000Y-78253092D01*
X162563000Y-78042908D01*
X162604003Y-77836769D01*
X162684436Y-77642588D01*
X162684437Y-77642586D01*
X162801207Y-77467827D01*
X162949827Y-77319207D01*
X163124586Y-77202437D01*
X163124588Y-77202436D01*
X163318769Y-77122003D01*
X163524908Y-77081000D01*
X163735092Y-77081000D01*
X163941231Y-77122003D01*
X163941231Y-77122003D01*
G37*
G36*
X161441231Y-77122003D02*
G01*
X161635412Y-77202436D01*
X161635414Y-77202437D01*
X161810173Y-77319207D01*
X161958793Y-77467827D01*
X162075563Y-77642586D01*
X162075564Y-77642588D01*
X162155997Y-77836769D01*
X162197000Y-78042908D01*
X162197000Y-78253092D01*
X162155997Y-78459231D01*
X162075564Y-78653412D01*
X162075563Y-78653414D01*
X161958793Y-78828173D01*
X161810173Y-78976793D01*
X161635414Y-79093563D01*
X161635413Y-79093564D01*
X161635412Y-79093564D01*
X161441231Y-79173997D01*
X161235092Y-79215000D01*
X161024908Y-79215000D01*
X160818769Y-79173997D01*
X160624588Y-79093564D01*
X160624587Y-79093564D01*
X160624586Y-79093563D01*
X160449827Y-78976793D01*
X160301207Y-78828173D01*
X160184437Y-78653414D01*
X160184436Y-78653412D01*
X160104003Y-78459231D01*
X160063000Y-78253092D01*
X160063000Y-78042908D01*
X160104003Y-77836769D01*
X160184436Y-77642588D01*
X160184437Y-77642586D01*
X160301207Y-77467827D01*
X160449827Y-77319207D01*
X160624586Y-77202437D01*
X160624588Y-77202436D01*
X160818769Y-77122003D01*
X161024908Y-77081000D01*
X161235092Y-77081000D01*
X161441231Y-77122003D01*
X161441231Y-77122003D01*
G37*
G36*
X158941231Y-77122003D02*
G01*
X159135412Y-77202436D01*
X159135414Y-77202437D01*
X159310173Y-77319207D01*
X159458793Y-77467827D01*
X159575563Y-77642586D01*
X159575564Y-77642588D01*
X159655997Y-77836769D01*
X159697000Y-78042908D01*
X159697000Y-78253092D01*
X159655997Y-78459231D01*
X159575564Y-78653412D01*
X159575563Y-78653414D01*
X159458793Y-78828173D01*
X159310173Y-78976793D01*
X159135414Y-79093563D01*
X159135413Y-79093564D01*
X159135412Y-79093564D01*
X158941231Y-79173997D01*
X158735092Y-79215000D01*
X158524908Y-79215000D01*
X158318769Y-79173997D01*
X158124588Y-79093564D01*
X158124587Y-79093564D01*
X158124586Y-79093563D01*
X157949827Y-78976793D01*
X157801207Y-78828173D01*
X157684437Y-78653414D01*
X157684436Y-78653412D01*
X157604003Y-78459231D01*
X157563000Y-78253092D01*
X157563000Y-78042908D01*
X157604003Y-77836769D01*
X157684436Y-77642588D01*
X157684437Y-77642586D01*
X157801207Y-77467827D01*
X157949827Y-77319207D01*
X158124586Y-77202437D01*
X158124588Y-77202436D01*
X158318769Y-77122003D01*
X158524908Y-77081000D01*
X158735092Y-77081000D01*
X158941231Y-77122003D01*
X158941231Y-77122003D01*
G37*
G36*
X153941231Y-77122003D02*
G01*
X154135412Y-77202436D01*
X154135414Y-77202437D01*
X154310173Y-77319207D01*
X154458793Y-77467827D01*
X154575563Y-77642586D01*
X154575564Y-77642588D01*
X154655997Y-77836769D01*
X154697000Y-78042908D01*
X154697000Y-78253092D01*
X154655997Y-78459231D01*
X154575564Y-78653412D01*
X154575563Y-78653414D01*
X154458793Y-78828173D01*
X154310173Y-78976793D01*
X154135414Y-79093563D01*
X154135413Y-79093564D01*
X154135412Y-79093564D01*
X153941231Y-79173997D01*
X153735092Y-79215000D01*
X153524908Y-79215000D01*
X153318769Y-79173997D01*
X153124588Y-79093564D01*
X153124587Y-79093564D01*
X153124586Y-79093563D01*
X152949827Y-78976793D01*
X152801207Y-78828173D01*
X152684437Y-78653414D01*
X152684436Y-78653412D01*
X152604003Y-78459231D01*
X152563000Y-78253092D01*
X152563000Y-78042908D01*
X152604003Y-77836769D01*
X152684436Y-77642588D01*
X152684437Y-77642586D01*
X152801207Y-77467827D01*
X152949827Y-77319207D01*
X153124586Y-77202437D01*
X153124588Y-77202436D01*
X153318769Y-77122003D01*
X153524908Y-77081000D01*
X153735092Y-77081000D01*
X153941231Y-77122003D01*
X153941231Y-77122003D01*
G37*
G36*
X151441231Y-77122003D02*
G01*
X151635412Y-77202436D01*
X151635414Y-77202437D01*
X151810173Y-77319207D01*
X151958793Y-77467827D01*
X152075563Y-77642586D01*
X152075564Y-77642588D01*
X152155997Y-77836769D01*
X152197000Y-78042908D01*
X152197000Y-78253092D01*
X152155997Y-78459231D01*
X152075564Y-78653412D01*
X152075563Y-78653414D01*
X151958793Y-78828173D01*
X151810173Y-78976793D01*
X151635414Y-79093563D01*
X151635413Y-79093564D01*
X151635412Y-79093564D01*
X151441231Y-79173997D01*
X151235092Y-79215000D01*
X151024908Y-79215000D01*
X150818769Y-79173997D01*
X150624588Y-79093564D01*
X150624587Y-79093564D01*
X150624586Y-79093563D01*
X150449827Y-78976793D01*
X150301207Y-78828173D01*
X150184437Y-78653414D01*
X150184436Y-78653412D01*
X150104003Y-78459231D01*
X150063000Y-78253092D01*
X150063000Y-78042908D01*
X150104003Y-77836769D01*
X150184436Y-77642588D01*
X150184437Y-77642586D01*
X150301207Y-77467827D01*
X150449827Y-77319207D01*
X150624586Y-77202437D01*
X150624588Y-77202436D01*
X150818769Y-77122003D01*
X151024908Y-77081000D01*
X151235092Y-77081000D01*
X151441231Y-77122003D01*
X151441231Y-77122003D01*
G37*
G36*
X143941231Y-77122003D02*
G01*
X144135412Y-77202436D01*
X144135414Y-77202437D01*
X144310173Y-77319207D01*
X144458793Y-77467827D01*
X144575563Y-77642586D01*
X144575564Y-77642588D01*
X144655997Y-77836769D01*
X144697000Y-78042908D01*
X144697000Y-78253092D01*
X144655997Y-78459231D01*
X144575564Y-78653412D01*
X144575563Y-78653414D01*
X144458793Y-78828173D01*
X144310173Y-78976793D01*
X144135414Y-79093563D01*
X144135413Y-79093564D01*
X144135412Y-79093564D01*
X143941231Y-79173997D01*
X143735092Y-79215000D01*
X143524908Y-79215000D01*
X143318769Y-79173997D01*
X143124588Y-79093564D01*
X143124587Y-79093564D01*
X143124586Y-79093563D01*
X142949827Y-78976793D01*
X142801207Y-78828173D01*
X142684437Y-78653414D01*
X142684436Y-78653412D01*
X142604003Y-78459231D01*
X142563000Y-78253092D01*
X142563000Y-78042908D01*
X142604003Y-77836769D01*
X142684436Y-77642588D01*
X142684437Y-77642586D01*
X142801207Y-77467827D01*
X142949827Y-77319207D01*
X143124586Y-77202437D01*
X143124588Y-77202436D01*
X143318769Y-77122003D01*
X143524908Y-77081000D01*
X143735092Y-77081000D01*
X143941231Y-77122003D01*
X143941231Y-77122003D01*
G37*
G36*
X146441231Y-77122003D02*
G01*
X146635412Y-77202436D01*
X146635414Y-77202437D01*
X146810173Y-77319207D01*
X146958793Y-77467827D01*
X147075563Y-77642586D01*
X147075564Y-77642588D01*
X147155997Y-77836769D01*
X147197000Y-78042908D01*
X147197000Y-78253092D01*
X147155997Y-78459231D01*
X147075564Y-78653412D01*
X147075563Y-78653414D01*
X146958793Y-78828173D01*
X146810173Y-78976793D01*
X146635414Y-79093563D01*
X146635413Y-79093564D01*
X146635412Y-79093564D01*
X146441231Y-79173997D01*
X146235092Y-79215000D01*
X146024908Y-79215000D01*
X145818769Y-79173997D01*
X145624588Y-79093564D01*
X145624587Y-79093564D01*
X145624586Y-79093563D01*
X145449827Y-78976793D01*
X145301207Y-78828173D01*
X145184437Y-78653414D01*
X145184436Y-78653412D01*
X145104003Y-78459231D01*
X145063000Y-78253092D01*
X145063000Y-78042908D01*
X145104003Y-77836769D01*
X145184436Y-77642588D01*
X145184437Y-77642586D01*
X145301207Y-77467827D01*
X145449827Y-77319207D01*
X145624586Y-77202437D01*
X145624588Y-77202436D01*
X145818769Y-77122003D01*
X146024908Y-77081000D01*
X146235092Y-77081000D01*
X146441231Y-77122003D01*
X146441231Y-77122003D01*
G37*
G36*
X148941231Y-77122003D02*
G01*
X149135412Y-77202436D01*
X149135414Y-77202437D01*
X149310173Y-77319207D01*
X149458793Y-77467827D01*
X149575563Y-77642586D01*
X149575564Y-77642588D01*
X149655997Y-77836769D01*
X149697000Y-78042908D01*
X149697000Y-78253092D01*
X149655997Y-78459231D01*
X149575564Y-78653412D01*
X149575563Y-78653414D01*
X149458793Y-78828173D01*
X149310173Y-78976793D01*
X149135414Y-79093563D01*
X149135413Y-79093564D01*
X149135412Y-79093564D01*
X148941231Y-79173997D01*
X148735092Y-79215000D01*
X148524908Y-79215000D01*
X148318769Y-79173997D01*
X148124588Y-79093564D01*
X148124587Y-79093564D01*
X148124586Y-79093563D01*
X147949827Y-78976793D01*
X147801207Y-78828173D01*
X147684437Y-78653414D01*
X147684436Y-78653412D01*
X147604003Y-78459231D01*
X147563000Y-78253092D01*
X147563000Y-78042908D01*
X147604003Y-77836769D01*
X147684436Y-77642588D01*
X147684437Y-77642586D01*
X147801207Y-77467827D01*
X147949827Y-77319207D01*
X148124586Y-77202437D01*
X148124588Y-77202436D01*
X148318769Y-77122003D01*
X148524908Y-77081000D01*
X148735092Y-77081000D01*
X148941231Y-77122003D01*
X148941231Y-77122003D01*
G37*
G36*
X108261231Y-67554003D02*
G01*
X108455412Y-67634436D01*
X108455414Y-67634437D01*
X108630173Y-67751207D01*
X108778793Y-67899827D01*
X108895563Y-68074586D01*
X108895564Y-68074588D01*
X108975997Y-68268769D01*
X109017000Y-68474908D01*
X109017000Y-68685092D01*
X108975997Y-68891231D01*
X108895564Y-69085412D01*
X108895563Y-69085414D01*
X108778793Y-69260173D01*
X108630173Y-69408793D01*
X108455414Y-69525563D01*
X108455413Y-69525564D01*
X108455412Y-69525564D01*
X108261231Y-69605997D01*
X108055092Y-69647000D01*
X107844908Y-69647000D01*
X107638769Y-69605997D01*
X107444588Y-69525564D01*
X107444587Y-69525564D01*
X107444586Y-69525563D01*
X107269827Y-69408793D01*
X107121207Y-69260173D01*
X107004437Y-69085414D01*
X107004436Y-69085412D01*
X106924003Y-68891231D01*
X106883000Y-68685092D01*
X106883000Y-68474908D01*
X106924003Y-68268769D01*
X107004436Y-68074588D01*
X107004437Y-68074586D01*
X107121207Y-67899827D01*
X107269827Y-67751207D01*
X107444586Y-67634437D01*
X107444588Y-67634436D01*
X107638769Y-67554003D01*
X107844908Y-67513000D01*
X108055092Y-67513000D01*
X108261231Y-67554003D01*
X108261231Y-67554003D01*
G37*
G36*
X118421231Y-67554003D02*
G01*
X118615412Y-67634436D01*
X118615414Y-67634437D01*
X118790173Y-67751207D01*
X118938793Y-67899827D01*
X119055563Y-68074586D01*
X119055564Y-68074588D01*
X119135997Y-68268769D01*
X119177000Y-68474908D01*
X119177000Y-68685092D01*
X119135997Y-68891231D01*
X119055564Y-69085412D01*
X119055563Y-69085414D01*
X118938793Y-69260173D01*
X118790173Y-69408793D01*
X118615414Y-69525563D01*
X118615413Y-69525564D01*
X118615412Y-69525564D01*
X118421231Y-69605997D01*
X118215092Y-69647000D01*
X118004908Y-69647000D01*
X117798769Y-69605997D01*
X117604588Y-69525564D01*
X117604587Y-69525564D01*
X117604586Y-69525563D01*
X117429827Y-69408793D01*
X117281207Y-69260173D01*
X117164437Y-69085414D01*
X117164436Y-69085412D01*
X117084003Y-68891231D01*
X117043000Y-68685092D01*
X117043000Y-68474908D01*
X117084003Y-68268769D01*
X117164436Y-68074588D01*
X117164437Y-68074586D01*
X117281207Y-67899827D01*
X117429827Y-67751207D01*
X117604586Y-67634437D01*
X117604588Y-67634436D01*
X117798769Y-67554003D01*
X118004908Y-67513000D01*
X118215092Y-67513000D01*
X118421231Y-67554003D01*
X118421231Y-67554003D01*
G37*
G36*
X115881231Y-67554003D02*
G01*
X116075412Y-67634436D01*
X116075414Y-67634437D01*
X116250173Y-67751207D01*
X116398793Y-67899827D01*
X116515563Y-68074586D01*
X116515564Y-68074588D01*
X116595997Y-68268769D01*
X116637000Y-68474908D01*
X116637000Y-68685092D01*
X116595997Y-68891231D01*
X116515564Y-69085412D01*
X116515563Y-69085414D01*
X116398793Y-69260173D01*
X116250173Y-69408793D01*
X116075414Y-69525563D01*
X116075413Y-69525564D01*
X116075412Y-69525564D01*
X115881231Y-69605997D01*
X115675092Y-69647000D01*
X115464908Y-69647000D01*
X115258769Y-69605997D01*
X115064588Y-69525564D01*
X115064587Y-69525564D01*
X115064586Y-69525563D01*
X114889827Y-69408793D01*
X114741207Y-69260173D01*
X114624437Y-69085414D01*
X114624436Y-69085412D01*
X114544003Y-68891231D01*
X114503000Y-68685092D01*
X114503000Y-68474908D01*
X114544003Y-68268769D01*
X114624436Y-68074588D01*
X114624437Y-68074586D01*
X114741207Y-67899827D01*
X114889827Y-67751207D01*
X115064586Y-67634437D01*
X115064588Y-67634436D01*
X115258769Y-67554003D01*
X115464908Y-67513000D01*
X115675092Y-67513000D01*
X115881231Y-67554003D01*
X115881231Y-67554003D01*
G37*
G36*
X95561231Y-67554003D02*
G01*
X95755412Y-67634436D01*
X95755414Y-67634437D01*
X95930173Y-67751207D01*
X96078793Y-67899827D01*
X96195563Y-68074586D01*
X96195564Y-68074588D01*
X96275997Y-68268769D01*
X96317000Y-68474908D01*
X96317000Y-68685092D01*
X96275997Y-68891231D01*
X96195564Y-69085412D01*
X96195563Y-69085414D01*
X96078793Y-69260173D01*
X95930173Y-69408793D01*
X95755414Y-69525563D01*
X95755413Y-69525564D01*
X95755412Y-69525564D01*
X95561231Y-69605997D01*
X95355092Y-69647000D01*
X95144908Y-69647000D01*
X94938769Y-69605997D01*
X94744588Y-69525564D01*
X94744587Y-69525564D01*
X94744586Y-69525563D01*
X94569827Y-69408793D01*
X94421207Y-69260173D01*
X94304437Y-69085414D01*
X94304436Y-69085412D01*
X94224003Y-68891231D01*
X94183000Y-68685092D01*
X94183000Y-68474908D01*
X94224003Y-68268769D01*
X94304436Y-68074588D01*
X94304437Y-68074586D01*
X94421207Y-67899827D01*
X94569827Y-67751207D01*
X94744586Y-67634437D01*
X94744588Y-67634436D01*
X94938769Y-67554003D01*
X95144908Y-67513000D01*
X95355092Y-67513000D01*
X95561231Y-67554003D01*
X95561231Y-67554003D01*
G37*
G36*
X98101231Y-67554003D02*
G01*
X98295412Y-67634436D01*
X98295414Y-67634437D01*
X98470173Y-67751207D01*
X98618793Y-67899827D01*
X98735563Y-68074586D01*
X98735564Y-68074588D01*
X98815997Y-68268769D01*
X98857000Y-68474908D01*
X98857000Y-68685092D01*
X98815997Y-68891231D01*
X98735564Y-69085412D01*
X98735563Y-69085414D01*
X98618793Y-69260173D01*
X98470173Y-69408793D01*
X98295414Y-69525563D01*
X98295413Y-69525564D01*
X98295412Y-69525564D01*
X98101231Y-69605997D01*
X97895092Y-69647000D01*
X97684908Y-69647000D01*
X97478769Y-69605997D01*
X97284588Y-69525564D01*
X97284587Y-69525564D01*
X97284586Y-69525563D01*
X97109827Y-69408793D01*
X96961207Y-69260173D01*
X96844437Y-69085414D01*
X96844436Y-69085412D01*
X96764003Y-68891231D01*
X96723000Y-68685092D01*
X96723000Y-68474908D01*
X96764003Y-68268769D01*
X96844436Y-68074588D01*
X96844437Y-68074586D01*
X96961207Y-67899827D01*
X97109827Y-67751207D01*
X97284586Y-67634437D01*
X97284588Y-67634436D01*
X97478769Y-67554003D01*
X97684908Y-67513000D01*
X97895092Y-67513000D01*
X98101231Y-67554003D01*
X98101231Y-67554003D01*
G37*
G36*
X103181231Y-67554003D02*
G01*
X103375412Y-67634436D01*
X103375414Y-67634437D01*
X103550173Y-67751207D01*
X103698793Y-67899827D01*
X103815563Y-68074586D01*
X103815564Y-68074588D01*
X103895997Y-68268769D01*
X103937000Y-68474908D01*
X103937000Y-68685092D01*
X103895997Y-68891231D01*
X103815564Y-69085412D01*
X103815563Y-69085414D01*
X103698793Y-69260173D01*
X103550173Y-69408793D01*
X103375414Y-69525563D01*
X103375413Y-69525564D01*
X103375412Y-69525564D01*
X103181231Y-69605997D01*
X102975092Y-69647000D01*
X102764908Y-69647000D01*
X102558769Y-69605997D01*
X102364588Y-69525564D01*
X102364587Y-69525564D01*
X102364586Y-69525563D01*
X102189827Y-69408793D01*
X102041207Y-69260173D01*
X101924437Y-69085414D01*
X101924436Y-69085412D01*
X101844003Y-68891231D01*
X101803000Y-68685092D01*
X101803000Y-68474908D01*
X101844003Y-68268769D01*
X101924436Y-68074588D01*
X101924437Y-68074586D01*
X102041207Y-67899827D01*
X102189827Y-67751207D01*
X102364586Y-67634437D01*
X102364588Y-67634436D01*
X102558769Y-67554003D01*
X102764908Y-67513000D01*
X102975092Y-67513000D01*
X103181231Y-67554003D01*
X103181231Y-67554003D01*
G37*
G36*
X105721231Y-67554003D02*
G01*
X105915412Y-67634436D01*
X105915414Y-67634437D01*
X106090173Y-67751207D01*
X106238793Y-67899827D01*
X106355563Y-68074586D01*
X106355564Y-68074588D01*
X106435997Y-68268769D01*
X106477000Y-68474908D01*
X106477000Y-68685092D01*
X106435997Y-68891231D01*
X106355564Y-69085412D01*
X106355563Y-69085414D01*
X106238793Y-69260173D01*
X106090173Y-69408793D01*
X105915414Y-69525563D01*
X105915413Y-69525564D01*
X105915412Y-69525564D01*
X105721231Y-69605997D01*
X105515092Y-69647000D01*
X105304908Y-69647000D01*
X105098769Y-69605997D01*
X104904588Y-69525564D01*
X104904587Y-69525564D01*
X104904586Y-69525563D01*
X104729827Y-69408793D01*
X104581207Y-69260173D01*
X104464437Y-69085414D01*
X104464436Y-69085412D01*
X104384003Y-68891231D01*
X104343000Y-68685092D01*
X104343000Y-68474908D01*
X104384003Y-68268769D01*
X104464436Y-68074588D01*
X104464437Y-68074586D01*
X104581207Y-67899827D01*
X104729827Y-67751207D01*
X104904586Y-67634437D01*
X104904588Y-67634436D01*
X105098769Y-67554003D01*
X105304908Y-67513000D01*
X105515092Y-67513000D01*
X105721231Y-67554003D01*
X105721231Y-67554003D01*
G37*
G36*
X110801231Y-67554003D02*
G01*
X110995412Y-67634436D01*
X110995414Y-67634437D01*
X111170173Y-67751207D01*
X111318793Y-67899827D01*
X111435563Y-68074586D01*
X111435564Y-68074588D01*
X111515997Y-68268769D01*
X111557000Y-68474908D01*
X111557000Y-68685092D01*
X111515997Y-68891231D01*
X111435564Y-69085412D01*
X111435563Y-69085414D01*
X111318793Y-69260173D01*
X111170173Y-69408793D01*
X110995414Y-69525563D01*
X110995413Y-69525564D01*
X110995412Y-69525564D01*
X110801231Y-69605997D01*
X110595092Y-69647000D01*
X110384908Y-69647000D01*
X110178769Y-69605997D01*
X109984588Y-69525564D01*
X109984587Y-69525564D01*
X109984586Y-69525563D01*
X109809827Y-69408793D01*
X109661207Y-69260173D01*
X109544437Y-69085414D01*
X109544436Y-69085412D01*
X109464003Y-68891231D01*
X109423000Y-68685092D01*
X109423000Y-68474908D01*
X109464003Y-68268769D01*
X109544436Y-68074588D01*
X109544437Y-68074586D01*
X109661207Y-67899827D01*
X109809827Y-67751207D01*
X109984586Y-67634437D01*
X109984588Y-67634436D01*
X110178769Y-67554003D01*
X110384908Y-67513000D01*
X110595092Y-67513000D01*
X110801231Y-67554003D01*
X110801231Y-67554003D01*
G37*
G36*
X113341231Y-67554003D02*
G01*
X113535412Y-67634436D01*
X113535414Y-67634437D01*
X113710173Y-67751207D01*
X113858793Y-67899827D01*
X113975563Y-68074586D01*
X113975564Y-68074588D01*
X114055997Y-68268769D01*
X114097000Y-68474908D01*
X114097000Y-68685092D01*
X114055997Y-68891231D01*
X113975564Y-69085412D01*
X113975563Y-69085414D01*
X113858793Y-69260173D01*
X113710173Y-69408793D01*
X113535414Y-69525563D01*
X113535413Y-69525564D01*
X113535412Y-69525564D01*
X113341231Y-69605997D01*
X113135092Y-69647000D01*
X112924908Y-69647000D01*
X112718769Y-69605997D01*
X112524588Y-69525564D01*
X112524587Y-69525564D01*
X112524586Y-69525563D01*
X112349827Y-69408793D01*
X112201207Y-69260173D01*
X112084437Y-69085414D01*
X112084436Y-69085412D01*
X112004003Y-68891231D01*
X111963000Y-68685092D01*
X111963000Y-68474908D01*
X112004003Y-68268769D01*
X112084436Y-68074588D01*
X112084437Y-68074586D01*
X112201207Y-67899827D01*
X112349827Y-67751207D01*
X112524586Y-67634437D01*
X112524588Y-67634436D01*
X112718769Y-67554003D01*
X112924908Y-67513000D01*
X113135092Y-67513000D01*
X113341231Y-67554003D01*
X113341231Y-67554003D01*
G37*
G36*
X100641231Y-67554003D02*
G01*
X100835412Y-67634436D01*
X100835414Y-67634437D01*
X101010173Y-67751207D01*
X101158793Y-67899827D01*
X101275563Y-68074586D01*
X101275564Y-68074588D01*
X101355997Y-68268769D01*
X101397000Y-68474908D01*
X101397000Y-68685092D01*
X101355997Y-68891231D01*
X101275564Y-69085412D01*
X101275563Y-69085414D01*
X101158793Y-69260173D01*
X101010173Y-69408793D01*
X100835414Y-69525563D01*
X100835413Y-69525564D01*
X100835412Y-69525564D01*
X100641231Y-69605997D01*
X100435092Y-69647000D01*
X100224908Y-69647000D01*
X100018769Y-69605997D01*
X99824588Y-69525564D01*
X99824587Y-69525564D01*
X99824586Y-69525563D01*
X99649827Y-69408793D01*
X99501207Y-69260173D01*
X99384437Y-69085414D01*
X99384436Y-69085412D01*
X99304003Y-68891231D01*
X99263000Y-68685092D01*
X99263000Y-68474908D01*
X99304003Y-68268769D01*
X99384436Y-68074588D01*
X99384437Y-68074586D01*
X99501207Y-67899827D01*
X99649827Y-67751207D01*
X99824586Y-67634437D01*
X99824588Y-67634436D01*
X100018769Y-67554003D01*
X100224908Y-67513000D01*
X100435092Y-67513000D01*
X100641231Y-67554003D01*
X100641231Y-67554003D01*
G37*
G36*
X137041231Y-65324003D02*
G01*
X137235412Y-65404436D01*
X137235414Y-65404437D01*
X137410173Y-65521207D01*
X137558793Y-65669827D01*
X137675563Y-65844586D01*
X137675564Y-65844588D01*
X137755997Y-66038769D01*
X137797000Y-66244908D01*
X137797000Y-66455092D01*
X137755997Y-66661231D01*
X137675564Y-66855412D01*
X137675563Y-66855414D01*
X137558793Y-67030173D01*
X137410173Y-67178793D01*
X137235414Y-67295563D01*
X137235413Y-67295564D01*
X137235412Y-67295564D01*
X137041231Y-67375997D01*
X136835092Y-67417000D01*
X136624908Y-67417000D01*
X136418769Y-67375997D01*
X136224588Y-67295564D01*
X136224587Y-67295564D01*
X136224586Y-67295563D01*
X136049827Y-67178793D01*
X135901207Y-67030173D01*
X135784437Y-66855414D01*
X135784436Y-66855412D01*
X135704003Y-66661231D01*
X135663000Y-66455092D01*
X135663000Y-66244908D01*
X135704003Y-66038769D01*
X135784436Y-65844588D01*
X135784437Y-65844586D01*
X135901207Y-65669827D01*
X136049827Y-65521207D01*
X136224586Y-65404437D01*
X136224588Y-65404436D01*
X136418769Y-65324003D01*
X136624908Y-65283000D01*
X136835092Y-65283000D01*
X137041231Y-65324003D01*
X137041231Y-65324003D01*
G37*
G36*
X129541231Y-65324003D02*
G01*
X129735412Y-65404436D01*
X129735414Y-65404437D01*
X129910173Y-65521207D01*
X130058793Y-65669827D01*
X130175563Y-65844586D01*
X130175564Y-65844588D01*
X130255997Y-66038769D01*
X130297000Y-66244908D01*
X130297000Y-66455092D01*
X130255997Y-66661231D01*
X130175564Y-66855412D01*
X130175563Y-66855414D01*
X130058793Y-67030173D01*
X129910173Y-67178793D01*
X129735414Y-67295563D01*
X129735413Y-67295564D01*
X129735412Y-67295564D01*
X129541231Y-67375997D01*
X129335092Y-67417000D01*
X129124908Y-67417000D01*
X128918769Y-67375997D01*
X128724588Y-67295564D01*
X128724587Y-67295564D01*
X128724586Y-67295563D01*
X128549827Y-67178793D01*
X128401207Y-67030173D01*
X128284437Y-66855414D01*
X128284436Y-66855412D01*
X128204003Y-66661231D01*
X128163000Y-66455092D01*
X128163000Y-66244908D01*
X128204003Y-66038769D01*
X128284436Y-65844588D01*
X128284437Y-65844586D01*
X128401207Y-65669827D01*
X128549827Y-65521207D01*
X128724586Y-65404437D01*
X128724588Y-65404436D01*
X128918769Y-65324003D01*
X129124908Y-65283000D01*
X129335092Y-65283000D01*
X129541231Y-65324003D01*
X129541231Y-65324003D01*
G37*
G36*
X134541231Y-65324003D02*
G01*
X134735412Y-65404436D01*
X134735414Y-65404437D01*
X134910173Y-65521207D01*
X135058793Y-65669827D01*
X135175563Y-65844586D01*
X135175564Y-65844588D01*
X135255997Y-66038769D01*
X135297000Y-66244908D01*
X135297000Y-66455092D01*
X135255997Y-66661231D01*
X135175564Y-66855412D01*
X135175563Y-66855414D01*
X135058793Y-67030173D01*
X134910173Y-67178793D01*
X134735414Y-67295563D01*
X134735413Y-67295564D01*
X134735412Y-67295564D01*
X134541231Y-67375997D01*
X134335092Y-67417000D01*
X134124908Y-67417000D01*
X133918769Y-67375997D01*
X133724588Y-67295564D01*
X133724587Y-67295564D01*
X133724586Y-67295563D01*
X133549827Y-67178793D01*
X133401207Y-67030173D01*
X133284437Y-66855414D01*
X133284436Y-66855412D01*
X133204003Y-66661231D01*
X133163000Y-66455092D01*
X133163000Y-66244908D01*
X133204003Y-66038769D01*
X133284436Y-65844588D01*
X133284437Y-65844586D01*
X133401207Y-65669827D01*
X133549827Y-65521207D01*
X133724586Y-65404437D01*
X133724588Y-65404436D01*
X133918769Y-65324003D01*
X134124908Y-65283000D01*
X134335092Y-65283000D01*
X134541231Y-65324003D01*
X134541231Y-65324003D01*
G37*
G36*
X134541231Y-62824003D02*
G01*
X134735412Y-62904436D01*
X134735414Y-62904437D01*
X134910173Y-63021207D01*
X135058793Y-63169827D01*
X135175563Y-63344586D01*
X135175564Y-63344588D01*
X135255997Y-63538769D01*
X135297000Y-63744908D01*
X135297000Y-63955092D01*
X135255997Y-64161231D01*
X135175564Y-64355412D01*
X135175563Y-64355414D01*
X135058793Y-64530173D01*
X134910173Y-64678793D01*
X134735414Y-64795563D01*
X134735413Y-64795564D01*
X134735412Y-64795564D01*
X134541231Y-64875997D01*
X134335092Y-64917000D01*
X134124908Y-64917000D01*
X133918769Y-64875997D01*
X133724588Y-64795564D01*
X133724587Y-64795564D01*
X133724586Y-64795563D01*
X133549827Y-64678793D01*
X133401207Y-64530173D01*
X133284437Y-64355414D01*
X133284436Y-64355412D01*
X133204003Y-64161231D01*
X133163000Y-63955092D01*
X133163000Y-63744908D01*
X133204003Y-63538769D01*
X133284436Y-63344588D01*
X133284437Y-63344586D01*
X133401207Y-63169827D01*
X133549827Y-63021207D01*
X133724586Y-62904437D01*
X133724588Y-62904436D01*
X133918769Y-62824003D01*
X134124908Y-62783000D01*
X134335092Y-62783000D01*
X134541231Y-62824003D01*
X134541231Y-62824003D01*
G37*
G36*
X129541231Y-62824003D02*
G01*
X129735412Y-62904436D01*
X129735414Y-62904437D01*
X129910173Y-63021207D01*
X130058793Y-63169827D01*
X130175563Y-63344586D01*
X130175564Y-63344588D01*
X130255997Y-63538769D01*
X130297000Y-63744908D01*
X130297000Y-63955092D01*
X130255997Y-64161231D01*
X130175564Y-64355412D01*
X130175563Y-64355414D01*
X130058793Y-64530173D01*
X129910173Y-64678793D01*
X129735414Y-64795563D01*
X129735413Y-64795564D01*
X129735412Y-64795564D01*
X129541231Y-64875997D01*
X129335092Y-64917000D01*
X129124908Y-64917000D01*
X128918769Y-64875997D01*
X128724588Y-64795564D01*
X128724587Y-64795564D01*
X128724586Y-64795563D01*
X128549827Y-64678793D01*
X128401207Y-64530173D01*
X128284437Y-64355414D01*
X128284436Y-64355412D01*
X128204003Y-64161231D01*
X128163000Y-63955092D01*
X128163000Y-63744908D01*
X128204003Y-63538769D01*
X128284436Y-63344588D01*
X128284437Y-63344586D01*
X128401207Y-63169827D01*
X128549827Y-63021207D01*
X128724586Y-62904437D01*
X128724588Y-62904436D01*
X128918769Y-62824003D01*
X129124908Y-62783000D01*
X129335092Y-62783000D01*
X129541231Y-62824003D01*
X129541231Y-62824003D01*
G37*
G36*
X137041231Y-62824003D02*
G01*
X137235412Y-62904436D01*
X137235414Y-62904437D01*
X137410173Y-63021207D01*
X137558793Y-63169827D01*
X137675563Y-63344586D01*
X137675564Y-63344588D01*
X137755997Y-63538769D01*
X137797000Y-63744908D01*
X137797000Y-63955092D01*
X137755997Y-64161231D01*
X137675564Y-64355412D01*
X137675563Y-64355414D01*
X137558793Y-64530173D01*
X137410173Y-64678793D01*
X137235414Y-64795563D01*
X137235413Y-64795564D01*
X137235412Y-64795564D01*
X137041231Y-64875997D01*
X136835092Y-64917000D01*
X136624908Y-64917000D01*
X136418769Y-64875997D01*
X136224588Y-64795564D01*
X136224587Y-64795564D01*
X136224586Y-64795563D01*
X136049827Y-64678793D01*
X135901207Y-64530173D01*
X135784437Y-64355414D01*
X135784436Y-64355412D01*
X135704003Y-64161231D01*
X135663000Y-63955092D01*
X135663000Y-63744908D01*
X135704003Y-63538769D01*
X135784436Y-63344588D01*
X135784437Y-63344586D01*
X135901207Y-63169827D01*
X136049827Y-63021207D01*
X136224586Y-62904437D01*
X136224588Y-62904436D01*
X136418769Y-62824003D01*
X136624908Y-62783000D01*
X136835092Y-62783000D01*
X137041231Y-62824003D01*
X137041231Y-62824003D01*
G37*
G36*
X129541231Y-60324003D02*
G01*
X129735412Y-60404436D01*
X129735414Y-60404437D01*
X129910173Y-60521207D01*
X130058793Y-60669827D01*
X130175563Y-60844586D01*
X130175564Y-60844588D01*
X130255997Y-61038769D01*
X130297000Y-61244908D01*
X130297000Y-61455092D01*
X130255997Y-61661231D01*
X130175564Y-61855412D01*
X130175563Y-61855414D01*
X130058793Y-62030173D01*
X129910173Y-62178793D01*
X129735414Y-62295563D01*
X129735413Y-62295564D01*
X129735412Y-62295564D01*
X129541231Y-62375997D01*
X129335092Y-62417000D01*
X129124908Y-62417000D01*
X128918769Y-62375997D01*
X128724588Y-62295564D01*
X128724587Y-62295564D01*
X128724586Y-62295563D01*
X128549827Y-62178793D01*
X128401207Y-62030173D01*
X128284437Y-61855414D01*
X128284436Y-61855412D01*
X128204003Y-61661231D01*
X128163000Y-61455092D01*
X128163000Y-61244908D01*
X128204003Y-61038769D01*
X128284436Y-60844588D01*
X128284437Y-60844586D01*
X128401207Y-60669827D01*
X128549827Y-60521207D01*
X128724586Y-60404437D01*
X128724588Y-60404436D01*
X128918769Y-60324003D01*
X129124908Y-60283000D01*
X129335092Y-60283000D01*
X129541231Y-60324003D01*
X129541231Y-60324003D01*
G37*
G36*
X137041231Y-60324003D02*
G01*
X137235412Y-60404436D01*
X137235414Y-60404437D01*
X137410173Y-60521207D01*
X137558793Y-60669827D01*
X137675563Y-60844586D01*
X137675564Y-60844588D01*
X137755997Y-61038769D01*
X137797000Y-61244908D01*
X137797000Y-61455092D01*
X137755997Y-61661231D01*
X137675564Y-61855412D01*
X137675563Y-61855414D01*
X137558793Y-62030173D01*
X137410173Y-62178793D01*
X137235414Y-62295563D01*
X137235413Y-62295564D01*
X137235412Y-62295564D01*
X137041231Y-62375997D01*
X136835092Y-62417000D01*
X136624908Y-62417000D01*
X136418769Y-62375997D01*
X136224588Y-62295564D01*
X136224587Y-62295564D01*
X136224586Y-62295563D01*
X136049827Y-62178793D01*
X135901207Y-62030173D01*
X135784437Y-61855414D01*
X135784436Y-61855412D01*
X135704003Y-61661231D01*
X135663000Y-61455092D01*
X135663000Y-61244908D01*
X135704003Y-61038769D01*
X135784436Y-60844588D01*
X135784437Y-60844586D01*
X135901207Y-60669827D01*
X136049827Y-60521207D01*
X136224586Y-60404437D01*
X136224588Y-60404436D01*
X136418769Y-60324003D01*
X136624908Y-60283000D01*
X136835092Y-60283000D01*
X137041231Y-60324003D01*
X137041231Y-60324003D01*
G37*
G36*
X134541231Y-60324003D02*
G01*
X134735412Y-60404436D01*
X134735414Y-60404437D01*
X134910173Y-60521207D01*
X135058793Y-60669827D01*
X135175563Y-60844586D01*
X135175564Y-60844588D01*
X135255997Y-61038769D01*
X135297000Y-61244908D01*
X135297000Y-61455092D01*
X135255997Y-61661231D01*
X135175564Y-61855412D01*
X135175563Y-61855414D01*
X135058793Y-62030173D01*
X134910173Y-62178793D01*
X134735414Y-62295563D01*
X134735413Y-62295564D01*
X134735412Y-62295564D01*
X134541231Y-62375997D01*
X134335092Y-62417000D01*
X134124908Y-62417000D01*
X133918769Y-62375997D01*
X133724588Y-62295564D01*
X133724587Y-62295564D01*
X133724586Y-62295563D01*
X133549827Y-62178793D01*
X133401207Y-62030173D01*
X133284437Y-61855414D01*
X133284436Y-61855412D01*
X133204003Y-61661231D01*
X133163000Y-61455092D01*
X133163000Y-61244908D01*
X133204003Y-61038769D01*
X133284436Y-60844588D01*
X133284437Y-60844586D01*
X133401207Y-60669827D01*
X133549827Y-60521207D01*
X133724586Y-60404437D01*
X133724588Y-60404436D01*
X133918769Y-60324003D01*
X134124908Y-60283000D01*
X134335092Y-60283000D01*
X134541231Y-60324003D01*
X134541231Y-60324003D01*
G37*
G36*
X129541231Y-57824003D02*
G01*
X129735412Y-57904436D01*
X129735414Y-57904437D01*
X129910173Y-58021207D01*
X130058793Y-58169827D01*
X130175563Y-58344586D01*
X130175564Y-58344588D01*
X130255997Y-58538769D01*
X130297000Y-58744908D01*
X130297000Y-58955092D01*
X130255997Y-59161231D01*
X130175564Y-59355412D01*
X130175563Y-59355414D01*
X130058793Y-59530173D01*
X129910173Y-59678793D01*
X129735414Y-59795563D01*
X129735413Y-59795564D01*
X129735412Y-59795564D01*
X129541231Y-59875997D01*
X129335092Y-59917000D01*
X129124908Y-59917000D01*
X128918769Y-59875997D01*
X128724588Y-59795564D01*
X128724587Y-59795564D01*
X128724586Y-59795563D01*
X128549827Y-59678793D01*
X128401207Y-59530173D01*
X128284437Y-59355414D01*
X128284436Y-59355412D01*
X128204003Y-59161231D01*
X128163000Y-58955092D01*
X128163000Y-58744908D01*
X128204003Y-58538769D01*
X128284436Y-58344588D01*
X128284437Y-58344586D01*
X128401207Y-58169827D01*
X128549827Y-58021207D01*
X128724586Y-57904437D01*
X128724588Y-57904436D01*
X128918769Y-57824003D01*
X129124908Y-57783000D01*
X129335092Y-57783000D01*
X129541231Y-57824003D01*
X129541231Y-57824003D01*
G37*
G36*
X134541231Y-57824003D02*
G01*
X134735412Y-57904436D01*
X134735414Y-57904437D01*
X134910173Y-58021207D01*
X135058793Y-58169827D01*
X135175563Y-58344586D01*
X135175564Y-58344588D01*
X135255997Y-58538769D01*
X135297000Y-58744908D01*
X135297000Y-58955092D01*
X135255997Y-59161231D01*
X135175564Y-59355412D01*
X135175563Y-59355414D01*
X135058793Y-59530173D01*
X134910173Y-59678793D01*
X134735414Y-59795563D01*
X134735413Y-59795564D01*
X134735412Y-59795564D01*
X134541231Y-59875997D01*
X134335092Y-59917000D01*
X134124908Y-59917000D01*
X133918769Y-59875997D01*
X133724588Y-59795564D01*
X133724587Y-59795564D01*
X133724586Y-59795563D01*
X133549827Y-59678793D01*
X133401207Y-59530173D01*
X133284437Y-59355414D01*
X133284436Y-59355412D01*
X133204003Y-59161231D01*
X133163000Y-58955092D01*
X133163000Y-58744908D01*
X133204003Y-58538769D01*
X133284436Y-58344588D01*
X133284437Y-58344586D01*
X133401207Y-58169827D01*
X133549827Y-58021207D01*
X133724586Y-57904437D01*
X133724588Y-57904436D01*
X133918769Y-57824003D01*
X134124908Y-57783000D01*
X134335092Y-57783000D01*
X134541231Y-57824003D01*
X134541231Y-57824003D01*
G37*
G36*
X137041231Y-57824003D02*
G01*
X137235412Y-57904436D01*
X137235414Y-57904437D01*
X137410173Y-58021207D01*
X137558793Y-58169827D01*
X137675563Y-58344586D01*
X137675564Y-58344588D01*
X137755997Y-58538769D01*
X137797000Y-58744908D01*
X137797000Y-58955092D01*
X137755997Y-59161231D01*
X137675564Y-59355412D01*
X137675563Y-59355414D01*
X137558793Y-59530173D01*
X137410173Y-59678793D01*
X137235414Y-59795563D01*
X137235413Y-59795564D01*
X137235412Y-59795564D01*
X137041231Y-59875997D01*
X136835092Y-59917000D01*
X136624908Y-59917000D01*
X136418769Y-59875997D01*
X136224588Y-59795564D01*
X136224587Y-59795564D01*
X136224586Y-59795563D01*
X136049827Y-59678793D01*
X135901207Y-59530173D01*
X135784437Y-59355414D01*
X135784436Y-59355412D01*
X135704003Y-59161231D01*
X135663000Y-58955092D01*
X135663000Y-58744908D01*
X135704003Y-58538769D01*
X135784436Y-58344588D01*
X135784437Y-58344586D01*
X135901207Y-58169827D01*
X136049827Y-58021207D01*
X136224586Y-57904437D01*
X136224588Y-57904436D01*
X136418769Y-57824003D01*
X136624908Y-57783000D01*
X136835092Y-57783000D01*
X137041231Y-57824003D01*
X137041231Y-57824003D01*
G37*
G36*
X129541231Y-55324003D02*
G01*
X129735412Y-55404436D01*
X129735414Y-55404437D01*
X129910173Y-55521207D01*
X130058793Y-55669827D01*
X130175563Y-55844586D01*
X130175564Y-55844588D01*
X130255997Y-56038769D01*
X130297000Y-56244908D01*
X130297000Y-56455092D01*
X130255997Y-56661231D01*
X130175564Y-56855412D01*
X130175563Y-56855414D01*
X130058793Y-57030173D01*
X129910173Y-57178793D01*
X129735414Y-57295563D01*
X129735413Y-57295564D01*
X129735412Y-57295564D01*
X129541231Y-57375997D01*
X129335092Y-57417000D01*
X129124908Y-57417000D01*
X128918769Y-57375997D01*
X128724588Y-57295564D01*
X128724587Y-57295564D01*
X128724586Y-57295563D01*
X128549827Y-57178793D01*
X128401207Y-57030173D01*
X128284437Y-56855414D01*
X128284436Y-56855412D01*
X128204003Y-56661231D01*
X128163000Y-56455092D01*
X128163000Y-56244908D01*
X128204003Y-56038769D01*
X128284436Y-55844588D01*
X128284437Y-55844586D01*
X128401207Y-55669827D01*
X128549827Y-55521207D01*
X128724586Y-55404437D01*
X128724588Y-55404436D01*
X128918769Y-55324003D01*
X129124908Y-55283000D01*
X129335092Y-55283000D01*
X129541231Y-55324003D01*
X129541231Y-55324003D01*
G37*
G36*
X129541231Y-52824003D02*
G01*
X129735412Y-52904436D01*
X129735414Y-52904437D01*
X129910173Y-53021207D01*
X130058793Y-53169827D01*
X130175563Y-53344586D01*
X130175564Y-53344588D01*
X130255997Y-53538769D01*
X130297000Y-53744908D01*
X130297000Y-53955092D01*
X130255997Y-54161231D01*
X130175564Y-54355412D01*
X130175563Y-54355414D01*
X130058793Y-54530173D01*
X129910173Y-54678793D01*
X129735414Y-54795563D01*
X129735413Y-54795564D01*
X129735412Y-54795564D01*
X129541231Y-54875997D01*
X129335092Y-54917000D01*
X129124908Y-54917000D01*
X128918769Y-54875997D01*
X128724588Y-54795564D01*
X128724587Y-54795564D01*
X128724586Y-54795563D01*
X128549827Y-54678793D01*
X128401207Y-54530173D01*
X128284437Y-54355414D01*
X128284436Y-54355412D01*
X128204003Y-54161231D01*
X128163000Y-53955092D01*
X128163000Y-53744908D01*
X128204003Y-53538769D01*
X128284436Y-53344588D01*
X128284437Y-53344586D01*
X128401207Y-53169827D01*
X128549827Y-53021207D01*
X128724586Y-52904437D01*
X128724588Y-52904436D01*
X128918769Y-52824003D01*
X129124908Y-52783000D01*
X129335092Y-52783000D01*
X129541231Y-52824003D01*
X129541231Y-52824003D01*
G37*
M02*
